%!PS-Adobe-3.0 EPSF-3.0
%%Creator: cairo 1.8.8 (http://cairographics.org)
%%CreationDate: Wed Mar 24 18:22:33 2010
%%Pages: 1
%%BoundingBox: 0 0 289 278
%%DocumentData: Clean7Bit
%%LanguageLevel: 2
%%EndComments
%%BeginProlog
/cairo_eps_state save def
/dict_count countdictstack def
/op_count count 1 sub def
userdict begin
/q { gsave } bind def
/Q { grestore } bind def
/cm { 6 array astore concat } bind def
/w { setlinewidth } bind def
/J { setlinecap } bind def
/j { setlinejoin } bind def
/M { setmiterlimit } bind def
/d { setdash } bind def
/m { moveto } bind def
/l { lineto } bind def
/c { curveto } bind def
/h { closepath } bind def
/re { exch dup neg 3 1 roll 5 3 roll moveto 0 rlineto
      0 exch rlineto 0 rlineto closepath } bind def
/S { stroke } bind def
/f { fill } bind def
/f* { eofill } bind def
/B { fill stroke } bind def
/B* { eofill stroke } bind def
/n { newpath } bind def
/W { clip } bind def
/W* { eoclip } bind def
/BT { } bind def
/ET { } bind def
/pdfmark where { pop globaldict /?pdfmark /exec load put }
    { globaldict begin /?pdfmark /pop load def /pdfmark
    /cleartomark load def end } ifelse
/BDC { mark 3 1 roll /BDC pdfmark } bind def
/EMC { mark /EMC pdfmark } bind def
/cairo_store_point { /cairo_point_y exch def /cairo_point_x exch def } def
/Tj { show currentpoint cairo_store_point } bind def
/TJ {
  {
    dup
    type /stringtype eq
    { show } { -0.001 mul 0 cairo_font_matrix dtransform rmoveto } ifelse
  } forall
  currentpoint cairo_store_point
} bind def
/cairo_selectfont { cairo_font_matrix aload pop pop pop 0 0 6 array astore
    cairo_font exch selectfont cairo_point_x cairo_point_y moveto } bind def
/Tf { pop /cairo_font exch def /cairo_font_matrix where
      { pop cairo_selectfont } if } bind def
/Td { matrix translate cairo_font_matrix matrix concatmatrix dup
      /cairo_font_matrix exch def dup 4 get exch 5 get cairo_store_point
      /cairo_font where { pop cairo_selectfont } if } bind def
/Tm { 2 copy 8 2 roll 6 array astore /cairo_font_matrix exch def
      cairo_store_point /cairo_font where { pop cairo_selectfont } if } bind def
/g { setgray } bind def
/rg { setrgbcolor } bind def
/d1 { setcachedevice } bind def
%%EndProlog
%%Page: 1 1
%%BeginPageSetup
%%PageBoundingBox: 0 0 289 278
%%EndPageSetup
q
0.254902 0.745098 1 rg
88.801 264.799 m 240.801 208.799 l f
1.6 w
0 J
0 j
[] 0.0 d
4 M q 1 0 0 -1 0 277.600006 cm
88.801 12.801 m 240.801 68.801 l S Q
234.285 215.327 m 242.793 208.08 l 231.617 208.088 l 233.977 209.647 
235.047 212.573 234.285 215.327 c h
234.285 215.327 m f*
0.563006 w
1 j
q -1 0.368421 0.368421 1 0 277.600006 cm
-226.486 21.169 m -236.328 17.549 l -226.485 13.93 l -228.057 16.068 
-228.05 18.991 -226.486 21.169 c h
-226.486 21.169 m S Q
92.801 256.799 m 244.801 140.799 l f
1.6 w
0 j
q 1 0 0 -1 0 277.600006 cm
92.801 20.801 m 244.801 136.801 l S Q
240.496 148.955 m 246.492 139.526 l 235.816 142.823 l 238.531 143.616 
240.41 146.1 240.496 148.955 c h
240.496 148.955 m f*
0.476971 w
1 j
q -1 0.763158 0.763158 1 0 277.600006 cm
-214.023 34.689 m -222.36 31.622 l -214.023 28.556 l -215.357 30.367 
-215.346 32.843 -214.023 34.689 c h
-214.023 34.689 m S Q
92.801 236.799 m 208.801 104.799 l f
1.6 w
0 j
q 1 0 0 -1 0 277.600006 cm
92.801 40.801 m 208.801 172.801 l S Q
206.184 113.643 m 210.211 103.217 l 200.391 108.553 l 203.207 108.795 
205.539 110.858 206.184 113.643 c h
206.184 113.643 m f*
0.450699 w
1 j
q -0.878788 1 1 0.878788 0 277.600006 cm
-194.75 35.04 m -202.629 32.143 l -194.749 29.247 l -196.009 30.957 
-196.002 33.295 -194.75 35.04 c h
-194.75 35.04 m S Q
92.801 248.799 m 272.801 60.799 l f
1.6 w
0 j
q 1 0 0 -1 0 277.600006 cm
92.801 28.801 m 272.801 216.801 l S Q
269.809 69.522 m 274.277 59.28 l 264.238 64.19 l 267.039 64.553 269.285 
66.713 269.809 69.522 c h
269.809 69.522 m f*
0.433385 w
1 j
q -0.957447 1 1 0.957447 0 277.600006 cm
-243.337 36.826 m -250.913 34.041 l -243.337 31.256 l -244.546 32.899 
-244.541 35.15 -243.337 36.826 c h
-243.337 36.826 m S Q
1 0.705882 0 rg
52.801 264.799 m 76.801 264.799 l 81.23 264.799 84.801 261.233 84.801 
256.799 c 84.801 240.799 l 84.801 236.37 81.23 232.799 76.801 232.799 c 
52.801 232.799 l 48.367 232.799 44.801 236.37 44.801 240.799 c 44.801 
256.799 l 44.801 261.233 48.367 264.799 52.801 264.799 c h
52.801 264.799 m f
0 g
1.6 w
0 j
q 1 0 0 -1 0 277.600006 cm
52.801 12.801 m 76.801 12.801 l 81.23 12.801 84.801 16.367 84.801 
20.801 c 84.801 36.801 l 84.801 41.23 81.23 44.801 76.801 44.801 c 
52.801 44.801 l 48.367 44.801 44.801 41.23 44.801 36.801 c 44.801 
20.801 l 44.801 16.367 48.367 12.801 52.801 12.801 c h
52.801 12.801 m S Q
q 1 0 0 -1 0 277.600006 cm
52.801 12.801 m 52.801 0.801 l S Q
q 1 0 0 -1 0 277.600006 cm
76.801 12.801 m 76.801 0.801 l S Q
q 1 0 0 -1 0 277.600006 cm
64.801 12.801 m 64.801 0.801 l S Q
1 0.705882 0 rg
20.801 204.799 m 44.801 204.799 l 49.23 204.799 52.801 201.233 52.801 
196.799 c 52.801 180.799 l 52.801 176.37 49.23 172.799 44.801 172.799 c 
20.801 172.799 l 16.367 172.799 12.801 176.37 12.801 180.799 c 12.801 
196.799 l 12.801 201.233 16.367 204.799 20.801 204.799 c h
20.801 204.799 m f
0 g
q 1 0 0 -1 0 277.600006 cm
20.801 72.801 m 44.801 72.801 l 49.23 72.801 52.801 76.367 52.801 
80.801 c 52.801 96.801 l 52.801 101.23 49.23 104.801 44.801 104.801 c 
20.801 104.801 l 16.367 104.801 12.801 101.23 12.801 96.801 c 12.801 
80.801 l 12.801 76.367 16.367 72.801 20.801 72.801 c h
20.801 72.801 m S Q
q 1 0 0 -1 0 277.600006 cm
20.801 72.801 m 20.801 60.801 l S Q
q 1 0 0 -1 0 277.600006 cm
44.801 72.801 m 44.801 60.801 l S Q
q 1 0 0 -1 0 277.600006 cm
32.801 72.801 m 32.801 60.801 l S Q
1 0.705882 0 rg
48.801 140.799 m 72.801 140.799 l 77.23 140.799 80.801 137.233 80.801 
132.799 c 80.801 116.799 l 80.801 112.37 77.23 108.799 72.801 108.799 c 
48.801 108.799 l 44.367 108.799 40.801 112.37 40.801 116.799 c 40.801 
132.799 l 40.801 137.233 44.367 140.799 48.801 140.799 c h
48.801 140.799 m f
0 g
q 1 0 0 -1 0 277.600006 cm
48.801 136.801 m 72.801 136.801 l 77.23 136.801 80.801 140.367 80.801 
144.801 c 80.801 160.801 l 80.801 165.23 77.23 168.801 72.801 168.801 c 
48.801 168.801 l 44.367 168.801 40.801 165.23 40.801 160.801 c 40.801 
144.801 l 40.801 140.367 44.367 136.801 48.801 136.801 c h
48.801 136.801 m S Q
q 1 0 0 -1 0 277.600006 cm
48.801 136.801 m 48.801 124.801 l S Q
q 1 0 0 -1 0 277.600006 cm
72.801 136.801 m 72.801 124.801 l S Q
q 1 0 0 -1 0 277.600006 cm
60.801 136.801 m 60.801 124.801 l S Q
0.792157 0.129412 0.247059 rg
240.801 256.799 m 264.801 256.799 l 269.23 256.799 272.801 253.233 
272.801 248.799 c 272.801 232.799 l 272.801 228.37 269.23 224.799 
264.801 224.799 c 240.801 224.799 l 236.367 224.799 232.801 228.37 
232.801 232.799 c 232.801 248.799 l 232.801 253.233 236.367 256.799 
240.801 256.799 c h
240.801 256.799 m f
0 g
q 1 0 0 -1 0 277.600006 cm
240.801 20.801 m 264.801 20.801 l 269.23 20.801 272.801 24.367 272.801 
28.801 c 272.801 44.801 l 272.801 49.23 269.23 52.801 264.801 52.801 c 
240.801 52.801 l 236.367 52.801 232.801 49.23 232.801 44.801 c 232.801 
28.801 l 232.801 24.367 236.367 20.801 240.801 20.801 c h
240.801 20.801 m S Q
q 1 0 0 -1 0 277.600006 cm
240.801 20.801 m 240.801 8.801 l S Q
q 1 0 0 -1 0 277.600006 cm
264.801 20.801 m 264.801 8.801 l S Q
q 1 0 0 -1 0 277.600006 cm
252.801 20.801 m 252.801 8.801 l S Q
0.792157 0.129412 0.247059 rg
224.801 192.799 m 248.801 192.799 l 253.23 192.799 256.801 189.233 
256.801 184.799 c 256.801 168.799 l 256.801 164.37 253.23 160.799 
248.801 160.799 c 224.801 160.799 l 220.367 160.799 216.801 164.37 
216.801 168.799 c 216.801 184.799 l 216.801 189.233 220.367 192.799 
224.801 192.799 c h
224.801 192.799 m f
0 g
q 1 0 0 -1 0 277.600006 cm
224.801 84.801 m 248.801 84.801 l 253.23 84.801 256.801 88.367 256.801 
92.801 c 256.801 108.801 l 256.801 113.23 253.23 116.801 248.801 
116.801 c 224.801 116.801 l 220.367 116.801 216.801 113.23 216.801 
108.801 c 216.801 92.801 l 216.801 88.367 220.367 84.801 224.801 84.801 
c h
224.801 84.801 m S Q
q 1 0 0 -1 0 277.600006 cm
224.801 84.801 m 224.801 72.801 l S Q
q 1 0 0 -1 0 277.600006 cm
248.801 84.801 m 248.801 72.801 l S Q
q 1 0 0 -1 0 277.600006 cm
236.801 84.801 m 236.801 72.801 l S Q
0.792157 0.129412 0.247059 rg
256.801 124.799 m 280.801 124.799 l 285.23 124.799 288.801 121.233 
288.801 116.799 c 288.801 100.799 l 288.801 96.37 285.23 92.799 280.801 
92.799 c 256.801 92.799 l 252.367 92.799 248.801 96.37 248.801 100.799 
c 248.801 116.799 l 248.801 121.233 252.367 124.799 256.801 124.799 c h
256.801 124.799 m f
0 g
q 1 0 0 -1 0 277.600006 cm
256.801 152.801 m 280.801 152.801 l 285.23 152.801 288.801 156.367 
288.801 160.801 c 288.801 176.801 l 288.801 181.23 285.23 184.801 
280.801 184.801 c 256.801 184.801 l 252.367 184.801 248.801 181.23 
248.801 176.801 c 248.801 160.801 l 248.801 156.367 252.367 152.801 
256.801 152.801 c h
256.801 152.801 m S Q
q 1 0 0 -1 0 277.600006 cm
256.801 152.801 m 256.801 140.801 l S Q
q 1 0 0 -1 0 277.600006 cm
280.801 152.801 m 280.801 140.801 l S Q
q 1 0 0 -1 0 277.600006 cm
268.801 152.801 m 268.801 140.801 l S Q
q 1 0 0 -1 0 277.600006 cm
84.801 4.801 m 232.801 16.801 l S Q
224.77 265.334 m 234.914 260.643 l 224.148 257.647 l 226 259.784 
226.242 262.889 224.77 265.334 c h
224.77 265.334 m f*
q 1 0 0 -1 0 277.600006 cm
52.801 64.801 m 212.801 76.801 l S Q
204.742 205.288 m 214.914 200.659 l 204.168 197.596 l 206.008 199.741 
206.23 202.85 204.742 205.288 c h
204.742 205.288 m f*
q 1 0 0 -1 0 277.600006 cm
80.801 132.801 m 244.801 144.801 l S Q
236.734 137.272 m 246.914 132.663 l 236.172 129.58 l 238.008 131.729 
238.227 134.834 236.734 137.272 c h
236.734 137.272 m f*
1 0.705882 0 rg
8.801 92.799 m 32.801 92.799 l 37.23 92.799 40.801 89.233 40.801 84.799 
c 40.801 68.799 l 40.801 64.37 37.23 60.799 32.801 60.799 c 8.801 
60.799 l 4.367 60.799 0.801 64.37 0.801 68.799 c 0.801 84.799 l 0.801 
89.233 4.367 92.799 8.801 92.799 c h
8.801 92.799 m f
0 g
q 1 0 0 -1 0 277.600006 cm
8.801 184.801 m 32.801 184.801 l 37.23 184.801 40.801 188.367 40.801 
192.801 c 40.801 208.801 l 40.801 213.23 37.23 216.801 32.801 216.801 c 
8.801 216.801 l 4.367 216.801 0.801 213.23 0.801 208.801 c 0.801 
192.801 l 0.801 188.367 4.367 184.801 8.801 184.801 c h
8.801 184.801 m S Q
q 1 0 0 -1 0 277.600006 cm
8.801 184.801 m 8.801 172.801 l S Q
q 1 0 0 -1 0 277.600006 cm
32.801 184.801 m 32.801 172.801 l S Q
q 1 0 0 -1 0 277.600006 cm
20.801 184.801 m 20.801 172.801 l S Q
1 0.705882 0 rg
32.801 32.799 m 56.801 32.799 l 61.23 32.799 64.801 29.233 64.801 
24.799 c 64.801 8.799 l 64.801 4.37 61.23 0.799 56.801 0.799 c 32.801 
0.799 l 28.367 0.799 24.801 4.37 24.801 8.799 c 24.801 24.799 l 24.801 
29.233 28.367 32.799 32.801 32.799 c h
32.801 32.799 m f
0 g
q 1 0 0 -1 0 277.600006 cm
32.801 244.801 m 56.801 244.801 l 61.23 244.801 64.801 248.367 64.801 
252.801 c 64.801 268.801 l 64.801 273.23 61.23 276.801 56.801 276.801 c 
32.801 276.801 l 28.367 276.801 24.801 273.23 24.801 268.801 c 24.801 
252.801 l 24.801 248.367 28.367 244.801 32.801 244.801 c h
32.801 244.801 m S Q
q 1 0 0 -1 0 277.600006 cm
32.801 244.801 m 32.801 232.801 l S Q
q 1 0 0 -1 0 277.600006 cm
56.801 244.801 m 56.801 232.801 l S Q
q 1 0 0 -1 0 277.600006 cm
44.801 244.801 m 44.801 232.801 l S Q
0.792157 0.129412 0.247059 rg
204.801 88.799 m 228.801 88.799 l 233.23 88.799 236.801 85.233 236.801 
80.799 c 236.801 64.799 l 236.801 60.37 233.23 56.799 228.801 56.799 c 
204.801 56.799 l 200.367 56.799 196.801 60.37 196.801 64.799 c 196.801 
80.799 l 196.801 85.233 200.367 88.799 204.801 88.799 c h
204.801 88.799 m f
0 g
q 1 0 0 -1 0 277.600006 cm
204.801 188.801 m 228.801 188.801 l 233.23 188.801 236.801 192.367 
236.801 196.801 c 236.801 212.801 l 236.801 217.23 233.23 220.801 
228.801 220.801 c 204.801 220.801 l 200.367 220.801 196.801 217.23 
196.801 212.801 c 196.801 196.801 l 196.801 192.367 200.367 188.801 
204.801 188.801 c h
204.801 188.801 m S Q
q 1 0 0 -1 0 277.600006 cm
204.801 188.801 m 204.801 176.801 l S Q
q 1 0 0 -1 0 277.600006 cm
228.801 188.801 m 228.801 176.801 l S Q
q 1 0 0 -1 0 277.600006 cm
216.801 188.801 m 216.801 176.801 l S Q
0.792157 0.129412 0.247059 rg
256.801 44.799 m 280.801 44.799 l 285.23 44.799 288.801 41.233 288.801 
36.799 c 288.801 20.799 l 288.801 16.37 285.23 12.799 280.801 12.799 c 
256.801 12.799 l 252.367 12.799 248.801 16.37 248.801 20.799 c 248.801 
36.799 l 248.801 41.233 252.367 44.799 256.801 44.799 c h
256.801 44.799 m f
0 g
q 1 0 0 -1 0 277.600006 cm
256.801 232.801 m 280.801 232.801 l 285.23 232.801 288.801 236.367 
288.801 240.801 c 288.801 256.801 l 288.801 261.23 285.23 264.801 
280.801 264.801 c 256.801 264.801 l 252.367 264.801 248.801 261.23 
248.801 256.801 c 248.801 240.801 l 248.801 236.367 252.367 232.801 
256.801 232.801 c h
256.801 232.801 m S Q
q 1 0 0 -1 0 277.600006 cm
256.801 232.801 m 256.801 220.801 l S Q
q 1 0 0 -1 0 277.600006 cm
280.801 232.801 m 280.801 220.801 l S Q
q 1 0 0 -1 0 277.600006 cm
268.801 232.801 m 268.801 220.801 l S Q
q 1 0 0 -1 0 277.600006 cm
44.801 176.801 m 192.801 184.801 l S Q
184.652 97.12 m 194.918 92.702 l 184.234 89.416 l 186.031 91.6 186.191 
94.709 184.652 97.12 c h
184.652 97.12 m f*
q 1 0 0 -1 0 277.600006 cm
68.801 236.801 m 244.801 232.801 l S Q
236.344 48.483 m 246.918 44.862 l 236.52 40.768 l 238.145 43.084 
238.062 46.198 236.344 48.483 c h
236.344 48.483 m f*
Q
showpage
%%Trailer
count op_count sub {pop} repeat
countdictstack dict_count sub {end} repeat
cairo_eps_state restore
%%EOF
