% This file was created by matlab2tikz.
%
%The latest updates can be retrieved from
%  http://www.mathworks.com/matlabcentral/fileexchange/22022-matlab2tikz-matlab2tikz
%where you can also make suggestions and rate matlab2tikz.
%
\definecolor{mycolor1}{rgb}{0.24220,0.15040,0.66030}%
\definecolor{mycolor2}{rgb}{0.12481,0.64593,0.88834}%
\definecolor{mycolor3}{rgb}{0.39090,0.80287,0.43545}%
\definecolor{mycolor4}{rgb}{0.82031,0.74981,0.15353}%
\definecolor{mycolor5}{rgb}{0.98920,0.81357,0.18853}%
\definecolor{mycolor6}{rgb}{0.97690,0.98390,0.08050}%
%
\begin{tikzpicture}

\begin{axis}[%
width=\textwidth-2cm,
height=6.065in/13.562in*\textwidth,
at={(0,\textheight)},
scale only axis,
xmin=0.001,
xmax=1.000,
tick align=outside,
xlabel={$\sigma_x$},
ymin=8.000,
ymax=12.000,
ylabel={$\tau$},
zmin=0.001,
zmax=1.000,
zlabel={$\sigma_v$},
view={-50.500}{30.798},
axis background/.style={fill=white},
axis x line*=bottom,
axis y line*=left,
axis z line*=left,
legend style={at={(1.03,1.05)},anchor=north west,legend cell align=left,align=left,draw=white!15!black}
,legend entries={$0.20$,$0.50$,$0.70$,$0.80$,$0.90$,$0.99$}
]

\addplot3[opacity=0,area legend,solid,table/row sep=crcr,patch,fill opacity=0.500,shader=flat,fill=mycolor1,patch table={%
0.000	1.000	2.000\\
2.000	1.000	3.000\\
2.000	3.000	4.000\\
1.000	5.000	3.000\\
6.000	7.000	8.000\\
8.000	7.000	9.000\\
10.000	0.000	11.000\\
11.000	0.000	2.000\\
12.000	13.000	6.000\\
6.000	13.000	14.000\\
6.000	14.000	7.000\\
13.000	15.000	14.000\\
16.000	10.000	17.000\\
17.000	10.000	11.000\\
12.000	18.000	13.000\\
18.000	19.000	13.000\\
13.000	19.000	20.000\\
13.000	20.000	15.000\\
21.000	16.000	22.000\\
22.000	16.000	17.000\\
19.000	23.000	20.000\\
20.000	23.000	24.000\\
23.000	25.000	24.000\\
24.000	25.000	26.000\\
27.000	21.000	28.000\\
28.000	21.000	22.000\\
29.000	30.000	25.000\\
25.000	30.000	26.000\\
27.000	28.000	31.000\\
31.000	28.000	32.000\\
31.000	32.000	33.000\\
33.000	32.000	34.000\\
29.000	35.000	30.000\\
30.000	35.000	36.000\\
35.000	37.000	36.000\\
36.000	37.000	38.000\\
39.000	33.000	40.000\\
40.000	33.000	34.000\\
37.000	41.000	38.000\\
38.000	41.000	42.000\\
41.000	43.000	42.000\\
42.000	43.000	44.000\\
45.000	39.000	46.000\\
46.000	39.000	40.000\\
43.000	47.000	44.000\\
44.000	47.000	48.000\\
47.000	49.000	48.000\\
48.000	49.000	50.000\\
51.000	45.000	52.000\\
52.000	45.000	46.000\\
49.000	53.000	50.000\\
50.000	53.000	54.000\\
53.000	55.000	54.000\\
54.000	55.000	56.000\\
51.000	52.000	57.000\\
57.000	52.000	58.000\\
57.000	58.000	59.000\\
59.000	58.000	60.000\\
55.000	61.000	56.000\\
56.000	61.000	62.000\\
63.000	59.000	64.000\\
64.000	59.000	60.000\\
65.000	63.000	66.000\\
66.000	63.000	64.000\\
65.000	66.000	67.000\\
67.000	66.000	68.000\\
67.000	68.000	69.000\\
69.000	68.000	70.000\\
71.000	69.000	72.000\\
72.000	69.000	70.000\\
2.000	4.000	73.000\\
73.000	4.000	74.000\\
7.000	75.000	9.000\\
9.000	75.000	76.000\\
9.000	76.000	77.000\\
75.000	78.000	76.000\\
11.000	2.000	79.000\\
79.000	2.000	73.000\\
7.000	14.000	75.000\\
14.000	15.000	75.000\\
75.000	15.000	80.000\\
75.000	80.000	78.000\\
17.000	11.000	81.000\\
81.000	11.000	79.000\\
20.000	82.000	15.000\\
15.000	82.000	80.000\\
22.000	17.000	83.000\\
83.000	17.000	81.000\\
20.000	24.000	82.000\\
82.000	24.000	84.000\\
24.000	26.000	84.000\\
84.000	26.000	85.000\\
28.000	22.000	86.000\\
86.000	22.000	83.000\\
30.000	87.000	26.000\\
26.000	87.000	88.000\\
26.000	88.000	85.000\\
87.000	89.000	88.000\\
28.000	86.000	32.000\\
32.000	86.000	90.000\\
32.000	90.000	34.000\\
34.000	90.000	91.000\\
30.000	36.000	87.000\\
36.000	38.000	87.000\\
87.000	38.000	92.000\\
87.000	92.000	89.000\\
40.000	34.000	93.000\\
93.000	34.000	91.000\\
38.000	42.000	92.000\\
92.000	42.000	94.000\\
42.000	44.000	94.000\\
94.000	44.000	95.000\\
46.000	40.000	96.000\\
96.000	40.000	93.000\\
44.000	48.000	95.000\\
95.000	48.000	97.000\\
48.000	50.000	97.000\\
97.000	50.000	98.000\\
52.000	46.000	99.000\\
99.000	46.000	96.000\\
50.000	54.000	98.000\\
98.000	54.000	100.000\\
54.000	56.000	100.000\\
100.000	56.000	101.000\\
52.000	99.000	58.000\\
58.000	99.000	102.000\\
58.000	102.000	60.000\\
60.000	102.000	103.000\\
56.000	62.000	101.000\\
101.000	62.000	104.000\\
64.000	60.000	105.000\\
105.000	60.000	103.000\\
66.000	64.000	106.000\\
106.000	64.000	105.000\\
66.000	106.000	68.000\\
68.000	106.000	107.000\\
68.000	107.000	70.000\\
70.000	107.000	108.000\\
72.000	70.000	109.000\\
109.000	70.000	108.000\\
73.000	74.000	110.000\\
110.000	74.000	111.000\\
77.000	76.000	112.000\\
76.000	78.000	112.000\\
112.000	78.000	113.000\\
112.000	113.000	114.000\\
79.000	73.000	115.000\\
115.000	73.000	110.000\\
80.000	116.000	78.000\\
78.000	116.000	113.000\\
81.000	79.000	117.000\\
117.000	79.000	115.000\\
82.000	118.000	80.000\\
80.000	118.000	119.000\\
80.000	119.000	116.000\\
118.000	120.000	119.000\\
83.000	81.000	121.000\\
121.000	81.000	117.000\\
82.000	84.000	118.000\\
84.000	85.000	118.000\\
118.000	85.000	122.000\\
118.000	122.000	120.000\\
86.000	83.000	123.000\\
123.000	83.000	121.000\\
123.000	121.000	124.000\\
123.000	124.000	125.000\\
85.000	88.000	122.000\\
122.000	88.000	126.000\\
88.000	89.000	126.000\\
126.000	89.000	127.000\\
86.000	123.000	90.000\\
90.000	123.000	91.000\\
91.000	123.000	125.000\\
91.000	125.000	128.000\\
92.000	129.000	89.000\\
89.000	129.000	130.000\\
89.000	130.000	127.000\\
129.000	131.000	130.000\\
93.000	91.000	132.000\\
132.000	91.000	128.000\\
92.000	94.000	129.000\\
94.000	95.000	129.000\\
129.000	95.000	133.000\\
129.000	133.000	131.000\\
96.000	93.000	134.000\\
134.000	93.000	132.000\\
95.000	97.000	133.000\\
133.000	97.000	135.000\\
97.000	98.000	135.000\\
135.000	98.000	136.000\\
99.000	96.000	137.000\\
137.000	96.000	134.000\\
98.000	100.000	136.000\\
136.000	100.000	138.000\\
100.000	101.000	138.000\\
138.000	101.000	139.000\\
99.000	137.000	102.000\\
102.000	137.000	140.000\\
102.000	140.000	103.000\\
103.000	140.000	141.000\\
101.000	104.000	139.000\\
139.000	104.000	142.000\\
105.000	103.000	143.000\\
143.000	103.000	141.000\\
106.000	105.000	144.000\\
144.000	105.000	143.000\\
106.000	144.000	107.000\\
107.000	144.000	145.000\\
107.000	145.000	108.000\\
108.000	145.000	146.000\\
109.000	108.000	147.000\\
147.000	108.000	146.000\\
110.000	111.000	148.000\\
148.000	111.000	149.000\\
113.000	150.000	114.000\\
114.000	150.000	151.000\\
151.000	150.000	152.000\\
152.000	150.000	153.000\\
115.000	110.000	154.000\\
154.000	110.000	148.000\\
116.000	155.000	113.000\\
113.000	155.000	150.000\\
150.000	155.000	153.000\\
153.000	155.000	156.000\\
117.000	115.000	157.000\\
157.000	115.000	154.000\\
116.000	119.000	155.000\\
119.000	120.000	155.000\\
155.000	120.000	158.000\\
155.000	158.000	156.000\\
121.000	117.000	159.000\\
159.000	117.000	157.000\\
159.000	157.000	160.000\\
159.000	160.000	161.000\\
122.000	162.000	120.000\\
120.000	162.000	163.000\\
120.000	163.000	158.000\\
162.000	164.000	163.000\\
121.000	159.000	124.000\\
124.000	159.000	125.000\\
125.000	159.000	161.000\\
125.000	161.000	165.000\\
122.000	126.000	162.000\\
126.000	127.000	162.000\\
162.000	127.000	166.000\\
162.000	166.000	164.000\\
128.000	125.000	167.000\\
167.000	125.000	165.000\\
127.000	130.000	166.000\\
166.000	130.000	168.000\\
130.000	131.000	168.000\\
168.000	131.000	169.000\\
132.000	128.000	170.000\\
170.000	128.000	167.000\\
133.000	171.000	131.000\\
131.000	171.000	172.000\\
131.000	172.000	169.000\\
171.000	173.000	172.000\\
134.000	132.000	174.000\\
174.000	132.000	170.000\\
133.000	135.000	171.000\\
135.000	136.000	171.000\\
171.000	136.000	175.000\\
171.000	175.000	173.000\\
173.000	175.000	176.000\\
175.000	177.000	176.000\\
137.000	134.000	178.000\\
178.000	134.000	174.000\\
178.000	174.000	179.000\\
178.000	179.000	180.000\\
136.000	138.000	175.000\\
138.000	139.000	175.000\\
175.000	139.000	181.000\\
175.000	181.000	177.000\\
137.000	178.000	140.000\\
140.000	178.000	141.000\\
141.000	178.000	180.000\\
141.000	180.000	182.000\\
139.000	142.000	181.000\\
181.000	142.000	183.000\\
143.000	141.000	184.000\\
184.000	141.000	182.000\\
144.000	143.000	185.000\\
185.000	143.000	184.000\\
185.000	184.000	186.000\\
185.000	186.000	187.000\\
144.000	185.000	145.000\\
145.000	185.000	146.000\\
146.000	185.000	187.000\\
146.000	187.000	188.000\\
147.000	146.000	189.000\\
189.000	146.000	188.000\\
189.000	188.000	190.000\\
189.000	190.000	191.000\\
148.000	149.000	192.000\\
192.000	149.000	193.000\\
153.000	194.000	152.000\\
152.000	194.000	195.000\\
154.000	148.000	196.000\\
196.000	148.000	192.000\\
196.000	192.000	197.000\\
196.000	197.000	198.000\\
156.000	199.000	153.000\\
153.000	199.000	194.000\\
157.000	154.000	200.000\\
200.000	154.000	196.000\\
196.000	198.000	200.000\\
200.000	198.000	201.000\\
158.000	202.000	156.000\\
156.000	202.000	203.000\\
156.000	203.000	199.000\\
202.000	204.000	203.000\\
157.000	200.000	160.000\\
160.000	200.000	161.000\\
161.000	200.000	201.000\\
161.000	201.000	205.000\\
158.000	163.000	202.000\\
163.000	164.000	202.000\\
202.000	164.000	206.000\\
202.000	206.000	204.000\\
165.000	161.000	207.000\\
207.000	161.000	205.000\\
166.000	208.000	164.000\\
164.000	208.000	209.000\\
164.000	209.000	206.000\\
208.000	210.000	209.000\\
167.000	165.000	211.000\\
211.000	165.000	207.000\\
166.000	168.000	208.000\\
168.000	169.000	208.000\\
208.000	169.000	212.000\\
208.000	212.000	210.000\\
170.000	167.000	213.000\\
213.000	167.000	211.000\\
169.000	172.000	212.000\\
212.000	172.000	214.000\\
172.000	173.000	214.000\\
214.000	173.000	215.000\\
174.000	170.000	216.000\\
216.000	170.000	213.000\\
173.000	176.000	215.000\\
215.000	176.000	217.000\\
176.000	177.000	217.000\\
217.000	177.000	218.000\\
174.000	216.000	179.000\\
179.000	216.000	219.000\\
179.000	219.000	180.000\\
180.000	219.000	220.000\\
181.000	221.000	177.000\\
177.000	221.000	222.000\\
177.000	222.000	218.000\\
182.000	180.000	223.000\\
223.000	180.000	220.000\\
181.000	183.000	221.000\\
184.000	182.000	224.000\\
224.000	182.000	223.000\\
184.000	224.000	186.000\\
186.000	224.000	225.000\\
186.000	225.000	187.000\\
187.000	225.000	226.000\\
188.000	187.000	227.000\\
227.000	187.000	226.000\\
188.000	227.000	190.000\\
190.000	227.000	228.000\\
190.000	228.000	191.000\\
191.000	228.000	229.000\\
192.000	193.000	230.000\\
230.000	193.000	231.000\\
231.000	232.000	230.000\\
230.000	232.000	233.000\\
194.000	234.000	195.000\\
195.000	234.000	235.000\\
235.000	234.000	236.000\\
236.000	234.000	237.000\\
192.000	230.000	197.000\\
197.000	230.000	198.000\\
198.000	230.000	233.000\\
198.000	233.000	238.000\\
199.000	239.000	194.000\\
194.000	239.000	234.000\\
234.000	239.000	237.000\\
237.000	239.000	240.000\\
201.000	198.000	241.000\\
241.000	198.000	238.000\\
199.000	203.000	239.000\\
203.000	204.000	239.000\\
239.000	204.000	242.000\\
239.000	242.000	240.000\\
205.000	201.000	243.000\\
243.000	201.000	241.000\\
206.000	244.000	204.000\\
204.000	244.000	245.000\\
204.000	245.000	242.000\\
244.000	246.000	245.000\\
207.000	205.000	247.000\\
247.000	205.000	243.000\\
206.000	209.000	244.000\\
209.000	210.000	244.000\\
244.000	210.000	248.000\\
244.000	248.000	246.000\\
211.000	207.000	249.000\\
249.000	207.000	247.000\\
212.000	250.000	210.000\\
210.000	250.000	251.000\\
210.000	251.000	248.000\\
250.000	252.000	251.000\\
213.000	211.000	253.000\\
253.000	211.000	249.000\\
212.000	214.000	250.000\\
214.000	215.000	250.000\\
250.000	215.000	254.000\\
250.000	254.000	252.000\\
252.000	254.000	255.000\\
254.000	256.000	255.000\\
216.000	213.000	257.000\\
257.000	213.000	253.000\\
257.000	253.000	258.000\\
257.000	258.000	259.000\\
215.000	217.000	254.000\\
217.000	218.000	254.000\\
254.000	218.000	260.000\\
254.000	260.000	256.000\\
216.000	257.000	219.000\\
219.000	257.000	220.000\\
220.000	257.000	259.000\\
220.000	259.000	261.000\\
218.000	222.000	260.000\\
260.000	222.000	262.000\\
223.000	220.000	263.000\\
263.000	220.000	261.000\\
224.000	223.000	264.000\\
264.000	223.000	263.000\\
264.000	263.000	265.000\\
264.000	265.000	266.000\\
224.000	264.000	225.000\\
225.000	264.000	226.000\\
226.000	264.000	266.000\\
226.000	266.000	267.000\\
227.000	226.000	268.000\\
268.000	226.000	267.000\\
227.000	268.000	228.000\\
228.000	268.000	269.000\\
228.000	269.000	229.000\\
229.000	269.000	270.000\\
233.000	232.000	271.000\\
271.000	232.000	272.000\\
237.000	273.000	236.000\\
236.000	273.000	274.000\\
274.000	273.000	275.000\\
275.000	273.000	276.000\\
238.000	233.000	277.000\\
277.000	233.000	271.000\\
240.000	278.000	237.000\\
237.000	278.000	273.000\\
273.000	278.000	276.000\\
276.000	278.000	279.000\\
241.000	238.000	280.000\\
280.000	238.000	277.000\\
242.000	281.000	240.000\\
240.000	281.000	278.000\\
278.000	281.000	279.000\\
279.000	281.000	282.000\\
243.000	241.000	283.000\\
283.000	241.000	280.000\\
242.000	245.000	281.000\\
245.000	246.000	281.000\\
281.000	246.000	284.000\\
281.000	284.000	282.000\\
247.000	243.000	285.000\\
285.000	243.000	283.000\\
248.000	286.000	246.000\\
246.000	286.000	287.000\\
246.000	287.000	284.000\\
286.000	288.000	287.000\\
249.000	247.000	289.000\\
289.000	247.000	285.000\\
289.000	285.000	290.000\\
289.000	290.000	291.000\\
248.000	251.000	286.000\\
251.000	252.000	286.000\\
286.000	252.000	292.000\\
286.000	292.000	288.000\\
253.000	249.000	293.000\\
293.000	249.000	289.000\\
289.000	291.000	293.000\\
293.000	291.000	294.000\\
252.000	255.000	292.000\\
292.000	255.000	295.000\\
255.000	256.000	295.000\\
295.000	256.000	296.000\\
253.000	293.000	258.000\\
258.000	293.000	259.000\\
259.000	293.000	294.000\\
259.000	294.000	297.000\\
260.000	298.000	256.000\\
256.000	298.000	299.000\\
256.000	299.000	296.000\\
261.000	259.000	300.000\\
300.000	259.000	297.000\\
260.000	262.000	298.000\\
263.000	261.000	301.000\\
301.000	261.000	300.000\\
301.000	300.000	302.000\\
301.000	302.000	303.000\\
263.000	301.000	265.000\\
265.000	301.000	266.000\\
266.000	301.000	303.000\\
266.000	303.000	304.000\\
267.000	266.000	305.000\\
305.000	266.000	304.000\\
268.000	267.000	306.000\\
306.000	267.000	305.000\\
306.000	305.000	307.000\\
306.000	307.000	308.000\\
268.000	306.000	269.000\\
269.000	306.000	270.000\\
270.000	306.000	308.000\\
270.000	308.000	309.000\\
271.000	272.000	310.000\\
310.000	272.000	311.000\\
276.000	312.000	275.000\\
275.000	312.000	313.000\\
277.000	271.000	314.000\\
314.000	271.000	310.000\\
279.000	315.000	276.000\\
276.000	315.000	312.000\\
280.000	277.000	316.000\\
316.000	277.000	314.000\\
282.000	317.000	279.000\\
279.000	317.000	318.000\\
279.000	318.000	315.000\\
317.000	319.000	318.000\\
283.000	280.000	320.000\\
320.000	280.000	316.000\\
284.000	321.000	282.000\\
282.000	321.000	317.000\\
317.000	321.000	319.000\\
319.000	321.000	322.000\\
285.000	283.000	323.000\\
323.000	283.000	320.000\\
323.000	320.000	324.000\\
323.000	324.000	325.000\\
284.000	287.000	321.000\\
287.000	288.000	321.000\\
321.000	288.000	326.000\\
321.000	326.000	322.000\\
285.000	323.000	290.000\\
290.000	323.000	291.000\\
291.000	323.000	325.000\\
291.000	325.000	327.000\\
292.000	328.000	288.000\\
288.000	328.000	329.000\\
288.000	329.000	326.000\\
328.000	330.000	329.000\\
294.000	291.000	331.000\\
331.000	291.000	327.000\\
292.000	295.000	328.000\\
295.000	296.000	328.000\\
328.000	296.000	332.000\\
328.000	332.000	330.000\\
330.000	332.000	333.000\\
297.000	294.000	334.000\\
334.000	294.000	331.000\\
296.000	299.000	332.000\\
300.000	297.000	335.000\\
335.000	297.000	334.000\\
335.000	334.000	336.000\\
335.000	336.000	337.000\\
300.000	335.000	302.000\\
302.000	335.000	303.000\\
303.000	335.000	337.000\\
303.000	337.000	338.000\\
304.000	303.000	339.000\\
339.000	303.000	338.000\\
305.000	304.000	340.000\\
340.000	304.000	339.000\\
340.000	339.000	341.000\\
340.000	341.000	342.000\\
305.000	340.000	307.000\\
307.000	340.000	308.000\\
308.000	340.000	342.000\\
308.000	342.000	343.000\\
309.000	308.000	344.000\\
344.000	308.000	343.000\\
310.000	311.000	345.000\\
345.000	311.000	346.000\\
346.000	347.000	345.000\\
345.000	347.000	348.000\\
312.000	349.000	313.000\\
313.000	349.000	350.000\\
350.000	349.000	351.000\\
351.000	349.000	352.000\\
314.000	310.000	353.000\\
353.000	310.000	345.000\\
345.000	348.000	353.000\\
353.000	348.000	354.000\\
315.000	355.000	312.000\\
312.000	355.000	349.000\\
349.000	355.000	352.000\\
352.000	355.000	356.000\\
316.000	314.000	357.000\\
357.000	314.000	353.000\\
353.000	354.000	357.000\\
357.000	354.000	358.000\\
315.000	318.000	355.000\\
318.000	319.000	355.000\\
355.000	319.000	359.000\\
355.000	359.000	356.000\\
320.000	316.000	360.000\\
360.000	316.000	357.000\\
357.000	358.000	360.000\\
360.000	358.000	361.000\\
322.000	362.000	319.000\\
319.000	362.000	363.000\\
319.000	363.000	359.000\\
362.000	364.000	363.000\\
320.000	360.000	324.000\\
324.000	360.000	325.000\\
325.000	360.000	361.000\\
325.000	361.000	365.000\\
326.000	366.000	322.000\\
322.000	366.000	362.000\\
362.000	366.000	364.000\\
364.000	366.000	367.000\\
327.000	325.000	368.000\\
368.000	325.000	365.000\\
326.000	329.000	366.000\\
329.000	330.000	366.000\\
366.000	330.000	369.000\\
366.000	369.000	367.000\\
367.000	369.000	370.000\\
331.000	327.000	371.000\\
371.000	327.000	368.000\\
330.000	333.000	369.000\\
334.000	331.000	372.000\\
372.000	331.000	371.000\\
372.000	371.000	373.000\\
372.000	373.000	374.000\\
334.000	372.000	336.000\\
336.000	372.000	337.000\\
337.000	372.000	374.000\\
337.000	374.000	375.000\\
338.000	337.000	376.000\\
376.000	337.000	375.000\\
339.000	338.000	377.000\\
377.000	338.000	376.000\\
377.000	376.000	378.000\\
377.000	378.000	379.000\\
339.000	377.000	341.000\\
341.000	377.000	342.000\\
342.000	377.000	379.000\\
342.000	379.000	380.000\\
343.000	342.000	381.000\\
381.000	342.000	380.000\\
344.000	343.000	382.000\\
382.000	343.000	381.000\\
382.000	381.000	383.000\\
382.000	383.000	384.000\\
348.000	347.000	385.000\\
385.000	347.000	386.000\\
352.000	387.000	351.000\\
351.000	387.000	388.000\\
388.000	387.000	389.000\\
389.000	387.000	390.000\\
354.000	348.000	391.000\\
391.000	348.000	385.000\\
356.000	392.000	352.000\\
352.000	392.000	387.000\\
387.000	392.000	390.000\\
390.000	392.000	393.000\\
358.000	354.000	394.000\\
394.000	354.000	391.000\\
359.000	395.000	356.000\\
356.000	395.000	392.000\\
392.000	395.000	393.000\\
393.000	395.000	396.000\\
361.000	358.000	397.000\\
397.000	358.000	394.000\\
359.000	363.000	395.000\\
363.000	364.000	395.000\\
395.000	364.000	398.000\\
395.000	398.000	396.000\\
365.000	361.000	399.000\\
399.000	361.000	397.000\\
367.000	400.000	364.000\\
364.000	400.000	401.000\\
364.000	401.000	398.000\\
368.000	365.000	402.000\\
402.000	365.000	399.000\\
402.000	399.000	403.000\\
402.000	403.000	404.000\\
367.000	370.000	400.000\\
371.000	368.000	405.000\\
405.000	368.000	402.000\\
402.000	404.000	405.000\\
405.000	404.000	406.000\\
371.000	405.000	373.000\\
373.000	405.000	374.000\\
374.000	405.000	406.000\\
374.000	406.000	407.000\\
375.000	374.000	408.000\\
408.000	374.000	407.000\\
376.000	375.000	409.000\\
409.000	375.000	408.000\\
409.000	408.000	410.000\\
409.000	410.000	411.000\\
376.000	409.000	378.000\\
378.000	409.000	379.000\\
379.000	409.000	411.000\\
379.000	411.000	412.000\\
380.000	379.000	413.000\\
413.000	379.000	412.000\\
381.000	380.000	414.000\\
414.000	380.000	413.000\\
414.000	413.000	415.000\\
414.000	415.000	416.000\\
381.000	414.000	383.000\\
383.000	414.000	384.000\\
384.000	414.000	416.000\\
384.000	416.000	417.000\\
385.000	386.000	418.000\\
418.000	386.000	419.000\\
390.000	420.000	389.000\\
389.000	420.000	421.000\\
391.000	385.000	422.000\\
422.000	385.000	418.000\\
393.000	423.000	390.000\\
390.000	423.000	424.000\\
390.000	424.000	420.000\\
394.000	391.000	425.000\\
425.000	391.000	422.000\\
425.000	422.000	426.000\\
425.000	426.000	427.000\\
396.000	428.000	393.000\\
393.000	428.000	423.000\\
397.000	394.000	429.000\\
429.000	394.000	425.000\\
425.000	427.000	429.000\\
429.000	427.000	430.000\\
398.000	431.000	396.000\\
396.000	431.000	428.000\\
399.000	397.000	432.000\\
432.000	397.000	429.000\\
429.000	430.000	432.000\\
432.000	430.000	433.000\\
398.000	401.000	431.000\\
399.000	432.000	403.000\\
403.000	432.000	404.000\\
404.000	432.000	433.000\\
404.000	433.000	434.000\\
406.000	404.000	435.000\\
435.000	404.000	434.000\\
407.000	406.000	436.000\\
436.000	406.000	435.000\\
408.000	407.000	437.000\\
437.000	407.000	436.000\\
437.000	436.000	438.000\\
437.000	438.000	439.000\\
408.000	437.000	410.000\\
410.000	437.000	411.000\\
411.000	437.000	439.000\\
411.000	439.000	440.000\\
412.000	411.000	441.000\\
441.000	411.000	440.000\\
413.000	412.000	442.000\\
442.000	412.000	441.000\\
442.000	441.000	443.000\\
442.000	443.000	444.000\\
413.000	442.000	415.000\\
415.000	442.000	416.000\\
416.000	442.000	444.000\\
416.000	444.000	445.000\\
417.000	416.000	446.000\\
446.000	416.000	445.000\\
446.000	445.000	447.000\\
446.000	447.000	448.000\\
418.000	419.000	449.000\\
449.000	419.000	450.000\\
450.000	451.000	449.000\\
449.000	451.000	452.000\\
420.000	453.000	421.000\\
421.000	453.000	454.000\\
422.000	418.000	455.000\\
455.000	418.000	449.000\\
449.000	452.000	455.000\\
455.000	452.000	456.000\\
420.000	424.000	453.000\\
422.000	455.000	426.000\\
426.000	455.000	427.000\\
427.000	455.000	456.000\\
427.000	456.000	457.000\\
430.000	427.000	458.000\\
458.000	427.000	457.000\\
433.000	430.000	459.000\\
459.000	430.000	458.000\\
434.000	433.000	460.000\\
460.000	433.000	459.000\\
435.000	434.000	461.000\\
461.000	434.000	460.000\\
461.000	460.000	462.000\\
461.000	462.000	463.000\\
436.000	435.000	464.000\\
464.000	435.000	461.000\\
461.000	463.000	464.000\\
464.000	463.000	465.000\\
436.000	464.000	438.000\\
438.000	464.000	439.000\\
439.000	464.000	465.000\\
439.000	465.000	466.000\\
440.000	439.000	467.000\\
467.000	439.000	466.000\\
441.000	440.000	468.000\\
468.000	440.000	467.000\\
468.000	467.000	469.000\\
468.000	469.000	470.000\\
441.000	468.000	443.000\\
443.000	468.000	444.000\\
444.000	468.000	470.000\\
444.000	470.000	471.000\\
445.000	444.000	472.000\\
472.000	444.000	471.000\\
472.000	471.000	473.000\\
472.000	473.000	474.000\\
445.000	472.000	447.000\\
447.000	472.000	448.000\\
448.000	472.000	474.000\\
448.000	474.000	475.000\\
452.000	451.000	476.000\\
476.000	451.000	477.000\\
456.000	452.000	478.000\\
478.000	452.000	476.000\\
457.000	456.000	479.000\\
479.000	456.000	478.000\\
458.000	457.000	480.000\\
480.000	457.000	479.000\\
480.000	479.000	481.000\\
480.000	481.000	482.000\\
459.000	458.000	483.000\\
483.000	458.000	480.000\\
480.000	482.000	483.000\\
483.000	482.000	484.000\\
460.000	459.000	485.000\\
485.000	459.000	483.000\\
483.000	484.000	485.000\\
485.000	484.000	486.000\\
460.000	485.000	462.000\\
462.000	485.000	463.000\\
463.000	485.000	486.000\\
463.000	486.000	487.000\\
465.000	463.000	488.000\\
488.000	463.000	487.000\\
466.000	465.000	489.000\\
489.000	465.000	488.000\\
489.000	488.000	490.000\\
489.000	490.000	491.000\\
467.000	466.000	492.000\\
492.000	466.000	489.000\\
489.000	491.000	492.000\\
492.000	491.000	493.000\\
467.000	492.000	469.000\\
469.000	492.000	470.000\\
470.000	492.000	493.000\\
470.000	493.000	494.000\\
471.000	470.000	495.000\\
495.000	470.000	494.000\\
495.000	494.000	496.000\\
495.000	496.000	497.000\\
471.000	495.000	473.000\\
473.000	495.000	474.000\\
474.000	495.000	497.000\\
474.000	497.000	498.000\\
475.000	474.000	499.000\\
499.000	474.000	498.000\\
476.000	477.000	500.000\\
500.000	477.000	501.000\\
501.000	502.000	500.000\\
500.000	502.000	503.000\\
478.000	476.000	504.000\\
504.000	476.000	500.000\\
500.000	503.000	504.000\\
504.000	503.000	505.000\\
479.000	478.000	506.000\\
506.000	478.000	504.000\\
504.000	505.000	506.000\\
506.000	505.000	507.000\\
479.000	506.000	481.000\\
481.000	506.000	482.000\\
482.000	506.000	507.000\\
482.000	507.000	508.000\\
484.000	482.000	509.000\\
509.000	482.000	508.000\\
486.000	484.000	510.000\\
510.000	484.000	509.000\\
487.000	486.000	511.000\\
511.000	486.000	510.000\\
511.000	510.000	512.000\\
511.000	512.000	513.000\\
488.000	487.000	514.000\\
514.000	487.000	511.000\\
511.000	513.000	514.000\\
514.000	513.000	515.000\\
488.000	514.000	490.000\\
490.000	514.000	491.000\\
491.000	514.000	515.000\\
491.000	515.000	516.000\\
493.000	491.000	517.000\\
517.000	491.000	516.000\\
494.000	493.000	518.000\\
518.000	493.000	517.000\\
518.000	517.000	519.000\\
518.000	519.000	520.000\\
494.000	518.000	496.000\\
496.000	518.000	497.000\\
497.000	518.000	520.000\\
497.000	520.000	521.000\\
498.000	497.000	522.000\\
522.000	497.000	521.000\\
522.000	521.000	523.000\\
522.000	523.000	524.000\\
499.000	498.000	525.000\\
525.000	498.000	522.000\\
522.000	524.000	525.000\\
525.000	524.000	526.000\\
}]
table[row sep=crcr] {%
x	y	z\\
0.072	8.789	0.001\\
0.055	8.857	0.001\\
0.072	8.752	0.072\\
0.001	8.857	0.052\\
0.001	8.774	0.072\\
0.001	8.914	0.001\\
0.072	10.182	0.001\\
0.072	10.209	0.072\\
0.001	10.171	0.001\\
0.001	10.181	0.072\\
0.144	8.743	0.001\\
0.144	8.741	0.072\\
0.144	10.266	0.001\\
0.144	10.286	0.057\\
0.140	10.286	0.072\\
0.144	10.298	0.072\\
0.215	8.744	0.001\\
0.215	8.747	0.072\\
0.157	10.286	0.001\\
0.215	10.447	0.001\\
0.215	10.472	0.072\\
0.286	8.765	0.001\\
0.286	8.770	0.072\\
0.272	10.571	0.001\\
0.263	10.571	0.072\\
0.286	10.624	0.001\\
0.286	10.650	0.072\\
0.358	8.804	0.001\\
0.358	8.810	0.072\\
0.358	10.828	0.001\\
0.358	10.844	0.072\\
0.426	8.857	0.001\\
0.418	8.857	0.072\\
0.429	8.860	0.001\\
0.429	8.864	0.072\\
0.369	10.857	0.001\\
0.363	10.857	0.072\\
0.429	11.058	0.001\\
0.429	11.073	0.072\\
0.500	8.911	0.001\\
0.500	8.917	0.072\\
0.459	11.143	0.001\\
0.454	11.143	0.072\\
0.500	11.297	0.001\\
0.500	11.311	0.072\\
0.572	8.977	0.001\\
0.572	8.983	0.072\\
0.542	11.429	0.001\\
0.538	11.429	0.072\\
0.572	11.546	0.001\\
0.572	11.559	0.072\\
0.643	9.059	0.001\\
0.643	9.065	0.072\\
0.621	11.714	0.001\\
0.618	11.714	0.072\\
0.643	11.807	0.001\\
0.643	11.819	0.072\\
0.705	9.143	0.001\\
0.701	9.143	0.072\\
0.715	9.156	0.001\\
0.715	9.162	0.072\\
0.696	12.000	0.001\\
0.693	12.000	0.072\\
0.786	9.258	0.001\\
0.786	9.263	0.072\\
0.857	9.373	0.001\\
0.857	9.379	0.072\\
0.890	9.429	0.001\\
0.887	9.429	0.072\\
0.929	9.502	0.001\\
0.929	9.508	0.072\\
1.000	9.642	0.001\\
1.000	9.648	0.072\\
0.072	8.741	0.144\\
0.001	8.741	0.144\\
0.072	10.286	0.142\\
0.065	10.286	0.144\\
0.001	10.262	0.144\\
0.072	10.292	0.144\\
0.144	8.744	0.144\\
0.144	10.411	0.144\\
0.215	8.759	0.144\\
0.215	10.536	0.144\\
0.286	8.786	0.144\\
0.235	10.571	0.144\\
0.286	10.717	0.144\\
0.358	8.830	0.144\\
0.358	10.857	0.093\\
0.344	10.857	0.144\\
0.358	10.904	0.144\\
0.394	8.857	0.144\\
0.429	8.879	0.144\\
0.429	11.115	0.144\\
0.500	8.933	0.144\\
0.440	11.143	0.144\\
0.500	11.350	0.144\\
0.572	9.000	0.144\\
0.527	11.429	0.144\\
0.572	11.594	0.144\\
0.643	9.083	0.144\\
0.609	11.714	0.144\\
0.643	11.851	0.144\\
0.688	9.143	0.144\\
0.715	9.179	0.144\\
0.686	12.000	0.144\\
0.786	9.281	0.144\\
0.857	9.397	0.144\\
0.876	9.429	0.144\\
0.929	9.525	0.144\\
1.000	9.665	0.144\\
0.072	8.755	0.215\\
0.001	8.752	0.215\\
0.001	10.286	0.161\\
0.072	10.460	0.215\\
0.001	10.434	0.215\\
0.144	8.765	0.215\\
0.144	10.529	0.215\\
0.215	8.785	0.215\\
0.215	10.571	0.172\\
0.175	10.571	0.215\\
0.215	10.657	0.215\\
0.286	8.817	0.215\\
0.286	10.807	0.215\\
0.358	8.857	0.201\\
0.348	8.857	0.215\\
0.358	8.862	0.215\\
0.310	10.857	0.215\\
0.358	10.995	0.215\\
0.429	8.905	0.215\\
0.429	11.143	0.174\\
0.415	11.143	0.215\\
0.429	11.192	0.215\\
0.500	8.960	0.215\\
0.500	11.410	0.215\\
0.572	9.030	0.215\\
0.507	11.429	0.215\\
0.572	11.650	0.215\\
0.643	9.115	0.215\\
0.593	11.714	0.215\\
0.643	11.902	0.215\\
0.665	9.143	0.215\\
0.715	9.208	0.215\\
0.673	12.000	0.215\\
0.786	9.309	0.215\\
0.857	9.426	0.215\\
0.859	9.429	0.215\\
0.929	9.554	0.215\\
1.000	9.693	0.215\\
0.072	8.792	0.286\\
0.001	8.787	0.286\\
0.072	10.571	0.272\\
0.001	10.571	0.282\\
0.001	10.588	0.286\\
0.072	10.617	0.286\\
0.144	8.805	0.286\\
0.144	10.571	0.240\\
0.144	10.693	0.286\\
0.215	8.829	0.286\\
0.215	10.794	0.286\\
0.286	8.857	0.275\\
0.270	8.857	0.286\\
0.286	8.863	0.286\\
0.286	10.857	0.248\\
0.253	10.857	0.286\\
0.286	10.936	0.286\\
0.358	8.897	0.286\\
0.358	11.100	0.286\\
0.429	8.943	0.286\\
0.377	11.143	0.286\\
0.429	11.295	0.286\\
0.500	9.000	0.286\\
0.500	11.429	0.232\\
0.479	11.429	0.286\\
0.500	11.503	0.286\\
0.572	9.072	0.286\\
0.572	11.714	0.278\\
0.569	11.714	0.286\\
0.572	11.725	0.286\\
0.643	9.143	0.260\\
0.631	9.143	0.286\\
0.643	9.158	0.286\\
0.643	11.970	0.286\\
0.715	9.248	0.286\\
0.653	12.000	0.286\\
0.786	9.350	0.286\\
0.857	9.429	0.219\\
0.835	9.429	0.286\\
0.857	9.467	0.286\\
0.929	9.593	0.286\\
1.000	9.714	0.255\\
0.992	9.714	0.286\\
1.000	9.733	0.286\\
0.072	8.852	0.358\\
0.001	8.846	0.358\\
0.072	10.800	0.358\\
0.001	10.782	0.358\\
0.144	8.857	0.348\\
0.098	8.857	0.358\\
0.144	8.864	0.358\\
0.144	10.851	0.358\\
0.215	8.857	0.320\\
0.215	8.882	0.358\\
0.215	10.857	0.319\\
0.149	10.857	0.358\\
0.215	10.957	0.358\\
0.286	8.909	0.358\\
0.286	11.080	0.358\\
0.358	8.946	0.358\\
0.358	11.143	0.313\\
0.320	11.143	0.358\\
0.358	11.236	0.358\\
0.429	8.994	0.358\\
0.429	11.407	0.358\\
0.500	9.054	0.358\\
0.438	11.429	0.358\\
0.500	11.611	0.358\\
0.572	9.130	0.358\\
0.538	11.714	0.358\\
0.572	11.828	0.358\\
0.583	9.143	0.358\\
0.643	9.209	0.358\\
0.643	12.000	0.313\\
0.627	12.000	0.358\\
0.715	9.299	0.358\\
0.786	9.403	0.358\\
0.803	9.429	0.358\\
0.857	9.519	0.358\\
0.929	9.644	0.358\\
0.967	9.714	0.358\\
1.000	9.784	0.358\\
0.072	8.857	0.363\\
0.001	8.857	0.369\\
0.001	8.904	0.429\\
0.072	8.908	0.429\\
0.072	10.857	0.383\\
0.001	10.857	0.391\\
0.001	10.977	0.429\\
0.072	10.995	0.429\\
0.144	8.920	0.429\\
0.144	10.857	0.361\\
0.144	11.045	0.429\\
0.215	8.940	0.429\\
0.215	11.122	0.429\\
0.286	8.969	0.429\\
0.286	11.143	0.390\\
0.230	11.143	0.429\\
0.286	11.243	0.429\\
0.358	9.009	0.429\\
0.358	11.380	0.429\\
0.429	9.060	0.429\\
0.429	11.429	0.370\\
0.382	11.429	0.429\\
0.429	11.549	0.429\\
0.500	9.124	0.429\\
0.500	11.714	0.421\\
0.495	11.714	0.429\\
0.500	11.730	0.429\\
0.572	9.143	0.372\\
0.519	9.143	0.429\\
0.572	9.194	0.429\\
0.572	11.939	0.429\\
0.643	9.272	0.429\\
0.594	12.000	0.429\\
0.715	9.364	0.429\\
0.786	9.429	0.386\\
0.760	9.429	0.429\\
0.786	9.468	0.429\\
0.857	9.581	0.429\\
0.929	9.706	0.429\\
0.933	9.714	0.429\\
1.000	9.846	0.429\\
0.072	8.980	0.500\\
0.001	8.975	0.500\\
0.072	11.143	0.488\\
0.001	11.143	0.493\\
0.001	11.166	0.500\\
0.072	11.184	0.500\\
0.144	8.993	0.500\\
0.144	11.143	0.470\\
0.144	11.235	0.500\\
0.215	9.014	0.500\\
0.215	11.143	0.439\\
0.215	11.311	0.500\\
0.286	9.046	0.500\\
0.286	11.409	0.500\\
0.358	9.089	0.500\\
0.358	11.429	0.453\\
0.299	11.429	0.500\\
0.358	11.544	0.500\\
0.429	9.143	0.500\\
0.428	9.143	0.500\\
0.429	9.144	0.500\\
0.429	11.693	0.500\\
0.500	9.143	0.446\\
0.500	9.201	0.500\\
0.439	11.714	0.500\\
0.500	11.873	0.500\\
0.572	9.268	0.500\\
0.572	12.000	0.466\\
0.550	12.000	0.500\\
0.643	9.348	0.500\\
0.715	9.429	0.489\\
0.706	9.429	0.500\\
0.715	9.441	0.500\\
0.786	9.542	0.500\\
0.857	9.654	0.500\\
0.929	9.714	0.437\\
0.893	9.714	0.500\\
0.929	9.781	0.500\\
1.000	9.918	0.500\\
0.072	9.070	0.572\\
0.001	9.065	0.572\\
0.072	11.384	0.572\\
0.001	11.371	0.572\\
0.144	9.084	0.572\\
0.144	11.423	0.572\\
0.215	9.108	0.572\\
0.215	11.429	0.549\\
0.151	11.429	0.572\\
0.215	11.497	0.572\\
0.286	9.143	0.572\\
0.286	11.429	0.510\\
0.286	11.594	0.572\\
0.358	9.143	0.542\\
0.287	9.143	0.572\\
0.358	9.181	0.572\\
0.358	11.708	0.572\\
0.429	9.228	0.572\\
0.429	11.714	0.511\\
0.361	11.714	0.572\\
0.429	11.857	0.572\\
0.500	9.286	0.572\\
0.500	12.000	0.564\\
0.494	12.000	0.572\\
0.572	9.356	0.572\\
0.643	9.429	0.565\\
0.636	9.429	0.572\\
0.643	9.438	0.572\\
0.715	9.527	0.572\\
0.786	9.627	0.572\\
0.857	9.714	0.552\\
0.843	9.714	0.572\\
0.857	9.740	0.572\\
0.929	9.865	0.572\\
1.000	10.000	0.572\\
0.072	9.143	0.621\\
0.001	9.143	0.624\\
0.001	9.171	0.643\\
0.072	9.175	0.643\\
0.072	11.429	0.590\\
0.001	11.429	0.595\\
0.001	11.576	0.643\\
0.072	11.589	0.643\\
0.144	9.143	0.612\\
0.144	9.188	0.643\\
0.144	11.429	0.574\\
0.144	11.627	0.643\\
0.215	9.143	0.596\\
0.215	9.209	0.643\\
0.215	11.687	0.643\\
0.286	9.143	0.572\\
0.286	9.238	0.643\\
0.286	11.714	0.621\\
0.239	11.714	0.643\\
0.286	11.778	0.643\\
0.358	9.277	0.643\\
0.358	11.714	0.575\\
0.358	11.891	0.643\\
0.429	9.326	0.643\\
0.429	12.000	0.635\\
0.419	12.000	0.643\\
0.500	9.386	0.643\\
0.572	9.429	0.624\\
0.544	9.429	0.643\\
0.572	9.457	0.643\\
0.643	9.534	0.643\\
0.715	9.623	0.643\\
0.786	9.714	0.637\\
0.780	9.714	0.643\\
0.786	9.723	0.643\\
0.857	9.836	0.643\\
0.929	9.958	0.643\\
1.000	10.000	0.572\\
0.952	10.000	0.643\\
1.000	10.096	0.643\\
0.072	9.282	0.715\\
0.001	9.278	0.715\\
0.072	11.714	0.690\\
0.001	11.714	0.694\\
0.001	11.779	0.715\\
0.072	11.792	0.715\\
0.144	9.295	0.715\\
0.144	11.714	0.677\\
0.144	11.828	0.715\\
0.215	9.317	0.715\\
0.215	11.714	0.654\\
0.215	11.887	0.715\\
0.286	9.348	0.715\\
0.286	11.966	0.715\\
0.358	9.389	0.715\\
0.358	12.000	0.689\\
0.312	12.000	0.715\\
0.429	9.429	0.708\\
0.413	9.429	0.715\\
0.429	9.440	0.715\\
0.500	9.429	0.671\\
0.500	9.497	0.715\\
0.572	9.564	0.715\\
0.643	9.642	0.715\\
0.715	9.714	0.704\\
0.702	9.714	0.715\\
0.715	9.731	0.715\\
0.786	9.831	0.715\\
0.857	9.941	0.715\\
0.929	10.000	0.673\\
0.894	10.000	0.715\\
0.929	10.065	0.715\\
1.000	10.200	0.715\\
0.072	9.406	0.786\\
0.001	9.402	0.786\\
0.072	11.993	0.786\\
0.001	11.982	0.786\\
0.144	9.420	0.786\\
0.144	12.000	0.777\\
0.089	12.000	0.786\\
0.215	9.429	0.779\\
0.171	9.429	0.786\\
0.215	9.442	0.786\\
0.215	12.000	0.758\\
0.286	9.429	0.762\\
0.286	9.472	0.786\\
0.286	12.000	0.728\\
0.358	9.429	0.739\\
0.358	9.510	0.786\\
0.429	9.558	0.786\\
0.500	9.615	0.786\\
0.572	9.683	0.786\\
0.643	9.714	0.759\\
0.601	9.714	0.786\\
0.643	9.761	0.786\\
0.715	9.849	0.786\\
0.786	9.946	0.786\\
0.857	10.000	0.753\\
0.822	10.000	0.786\\
0.857	10.058	0.786\\
0.929	10.180	0.786\\
1.000	10.286	0.770\\
0.987	10.286	0.786\\
1.000	10.314	0.786\\
0.072	9.429	0.799\\
0.001	9.429	0.801\\
0.001	9.532	0.857\\
0.072	9.537	0.857\\
0.072	12.000	0.789\\
0.001	12.000	0.793\\
0.144	9.429	0.791\\
0.144	9.549	0.857\\
0.215	9.570	0.857\\
0.286	9.600	0.857\\
0.358	9.639	0.857\\
0.429	9.688	0.857\\
0.500	9.714	0.841\\
0.463	9.714	0.857\\
0.500	9.746	0.857\\
0.572	9.714	0.804\\
0.572	9.813	0.857\\
0.643	9.889	0.857\\
0.715	9.975	0.857\\
0.786	10.000	0.817\\
0.734	10.000	0.857\\
0.786	10.075	0.857\\
0.857	10.184	0.857\\
0.929	10.286	0.848\\
0.919	10.286	0.857\\
0.929	10.304	0.857\\
1.000	10.440	0.857\\
0.072	9.677	0.929\\
0.001	9.672	0.929\\
0.144	9.690	0.929\\
0.215	9.711	0.929\\
0.286	9.714	0.916\\
0.222	9.714	0.929\\
0.286	9.742	0.929\\
0.358	9.714	0.897\\
0.358	9.780	0.929\\
0.429	9.714	0.872\\
0.429	9.828	0.929\\
0.500	9.884	0.929\\
0.572	9.950	0.929\\
0.643	10.000	0.916\\
0.620	10.000	0.929\\
0.643	10.026	0.929\\
0.715	10.000	0.871\\
0.715	10.114	0.929\\
0.786	10.210	0.929\\
0.857	10.286	0.913\\
0.837	10.286	0.929\\
0.857	10.319	0.929\\
0.929	10.441	0.929\\
1.000	10.571	0.929\\
0.072	9.714	0.948\\
0.001	9.714	0.950\\
0.001	9.823	1.000\\
0.072	9.827	1.000\\
0.144	9.714	0.941\\
0.144	9.839	1.000\\
0.215	9.714	0.930\\
0.215	9.860	1.000\\
0.286	9.890	1.000\\
0.358	9.928	1.000\\
0.429	9.975	1.000\\
0.500	10.000	0.986\\
0.462	10.000	1.000\\
0.500	10.032	1.000\\
0.572	10.000	0.954\\
0.572	10.099	1.000\\
0.643	10.174	1.000\\
0.715	10.258	1.000\\
0.786	10.286	0.967\\
0.736	10.286	1.000\\
0.786	10.357	1.000\\
0.857	10.465	1.000\\
0.929	10.571	0.995\\
0.922	10.571	1.000\\
0.929	10.583	1.000\\
1.000	10.571	0.929\\
1.000	10.719	1.000\\
};
%\addlegendentry{0.2};

\addplot3[opacity=0,area legend,solid,table/row sep=crcr,patch,fill opacity=0.500,shader=flat,fill=mycolor2,patch table={%
0.000	1.000	2.000\\
2.000	1.000	3.000\\
4.000	5.000	6.000\\
5.000	7.000	6.000\\
6.000	7.000	8.000\\
6.000	8.000	9.000\\
10.000	0.000	11.000\\
11.000	0.000	2.000\\
12.000	13.000	7.000\\
7.000	13.000	8.000\\
14.000	10.000	15.000\\
15.000	10.000	11.000\\
16.000	17.000	12.000\\
12.000	17.000	13.000\\
18.000	14.000	19.000\\
19.000	14.000	15.000\\
20.000	21.000	16.000\\
16.000	21.000	17.000\\
18.000	19.000	22.000\\
22.000	19.000	23.000\\
22.000	23.000	24.000\\
24.000	23.000	25.000\\
26.000	27.000	20.000\\
20.000	27.000	21.000\\
28.000	24.000	29.000\\
29.000	24.000	25.000\\
26.000	30.000	27.000\\
27.000	30.000	31.000\\
30.000	32.000	31.000\\
31.000	32.000	33.000\\
28.000	29.000	34.000\\
34.000	29.000	35.000\\
34.000	35.000	36.000\\
36.000	35.000	37.000\\
38.000	39.000	32.000\\
32.000	39.000	33.000\\
40.000	36.000	41.000\\
41.000	36.000	37.000\\
42.000	43.000	38.000\\
38.000	43.000	39.000\\
40.000	41.000	44.000\\
44.000	41.000	45.000\\
44.000	45.000	46.000\\
46.000	45.000	47.000\\
48.000	49.000	42.000\\
42.000	49.000	43.000\\
46.000	47.000	50.000\\
50.000	47.000	51.000\\
50.000	51.000	52.000\\
52.000	51.000	53.000\\
52.000	53.000	48.000\\
48.000	53.000	49.000\\
2.000	3.000	54.000\\
54.000	3.000	55.000\\
8.000	56.000	9.000\\
9.000	56.000	57.000\\
11.000	2.000	58.000\\
58.000	2.000	54.000\\
13.000	59.000	8.000\\
8.000	59.000	56.000\\
15.000	11.000	60.000\\
60.000	11.000	58.000\\
17.000	61.000	13.000\\
13.000	61.000	59.000\\
19.000	15.000	62.000\\
62.000	15.000	60.000\\
21.000	63.000	17.000\\
17.000	63.000	61.000\\
19.000	62.000	23.000\\
23.000	62.000	64.000\\
23.000	64.000	25.000\\
25.000	64.000	65.000\\
27.000	66.000	21.000\\
21.000	66.000	67.000\\
21.000	67.000	63.000\\
66.000	68.000	67.000\\
29.000	25.000	69.000\\
69.000	25.000	65.000\\
27.000	31.000	66.000\\
31.000	33.000	66.000\\
66.000	33.000	70.000\\
66.000	70.000	68.000\\
29.000	69.000	35.000\\
35.000	69.000	71.000\\
35.000	71.000	37.000\\
37.000	71.000	72.000\\
39.000	73.000	33.000\\
33.000	73.000	70.000\\
41.000	37.000	74.000\\
74.000	37.000	72.000\\
43.000	75.000	39.000\\
39.000	75.000	73.000\\
41.000	74.000	45.000\\
45.000	74.000	76.000\\
45.000	76.000	47.000\\
47.000	76.000	77.000\\
47.000	77.000	78.000\\
78.000	77.000	79.000\\
49.000	80.000	43.000\\
43.000	80.000	75.000\\
47.000	78.000	51.000\\
51.000	78.000	53.000\\
53.000	78.000	79.000\\
53.000	79.000	81.000\\
53.000	81.000	49.000\\
49.000	81.000	80.000\\
54.000	55.000	82.000\\
82.000	55.000	83.000\\
56.000	84.000	57.000\\
57.000	84.000	85.000\\
58.000	54.000	86.000\\
86.000	54.000	82.000\\
59.000	87.000	56.000\\
56.000	87.000	84.000\\
60.000	58.000	88.000\\
88.000	58.000	86.000\\
61.000	89.000	59.000\\
59.000	89.000	87.000\\
62.000	60.000	90.000\\
90.000	60.000	88.000\\
90.000	88.000	91.000\\
90.000	91.000	92.000\\
63.000	93.000	61.000\\
61.000	93.000	89.000\\
62.000	90.000	64.000\\
64.000	90.000	65.000\\
65.000	90.000	92.000\\
65.000	92.000	94.000\\
63.000	67.000	93.000\\
93.000	67.000	95.000\\
67.000	68.000	95.000\\
95.000	68.000	96.000\\
69.000	65.000	97.000\\
97.000	65.000	94.000\\
70.000	98.000	68.000\\
68.000	98.000	96.000\\
69.000	97.000	71.000\\
71.000	97.000	99.000\\
71.000	99.000	72.000\\
72.000	99.000	100.000\\
73.000	101.000	70.000\\
70.000	101.000	98.000\\
74.000	72.000	102.000\\
102.000	72.000	100.000\\
102.000	100.000	103.000\\
102.000	103.000	104.000\\
75.000	105.000	73.000\\
73.000	105.000	101.000\\
74.000	102.000	76.000\\
76.000	102.000	77.000\\
77.000	102.000	104.000\\
77.000	104.000	106.000\\
77.000	106.000	79.000\\
79.000	106.000	107.000\\
79.000	107.000	108.000\\
80.000	108.000	75.000\\
75.000	108.000	107.000\\
75.000	107.000	105.000\\
79.000	108.000	81.000\\
81.000	108.000	80.000\\
82.000	83.000	109.000\\
109.000	83.000	110.000\\
84.000	111.000	85.000\\
85.000	111.000	112.000\\
86.000	82.000	113.000\\
113.000	82.000	109.000\\
113.000	109.000	114.000\\
113.000	114.000	115.000\\
87.000	116.000	84.000\\
84.000	116.000	111.000\\
88.000	86.000	117.000\\
117.000	86.000	113.000\\
113.000	115.000	117.000\\
117.000	115.000	118.000\\
89.000	119.000	87.000\\
87.000	119.000	116.000\\
88.000	117.000	91.000\\
91.000	117.000	92.000\\
92.000	117.000	118.000\\
92.000	118.000	120.000\\
93.000	121.000	89.000\\
89.000	121.000	122.000\\
89.000	122.000	119.000\\
121.000	123.000	122.000\\
94.000	92.000	124.000\\
124.000	92.000	120.000\\
93.000	95.000	121.000\\
95.000	96.000	121.000\\
121.000	96.000	125.000\\
121.000	125.000	123.000\\
97.000	94.000	126.000\\
126.000	94.000	124.000\\
126.000	124.000	127.000\\
126.000	127.000	128.000\\
98.000	129.000	96.000\\
96.000	129.000	125.000\\
97.000	126.000	99.000\\
99.000	126.000	100.000\\
100.000	126.000	128.000\\
100.000	128.000	130.000\\
101.000	131.000	98.000\\
98.000	131.000	129.000\\
100.000	130.000	103.000\\
103.000	130.000	132.000\\
103.000	132.000	104.000\\
104.000	132.000	133.000\\
105.000	134.000	101.000\\
101.000	134.000	131.000\\
104.000	133.000	106.000\\
106.000	133.000	135.000\\
106.000	135.000	107.000\\
107.000	135.000	136.000\\
107.000	136.000	105.000\\
105.000	136.000	134.000\\
109.000	110.000	137.000\\
137.000	110.000	138.000\\
138.000	139.000	137.000\\
137.000	139.000	140.000\\
111.000	141.000	112.000\\
112.000	141.000	142.000\\
109.000	137.000	114.000\\
114.000	137.000	115.000\\
115.000	137.000	140.000\\
115.000	140.000	143.000\\
116.000	144.000	111.000\\
111.000	144.000	141.000\\
118.000	115.000	145.000\\
145.000	115.000	143.000\\
119.000	146.000	116.000\\
116.000	146.000	147.000\\
116.000	147.000	144.000\\
146.000	148.000	147.000\\
120.000	118.000	149.000\\
149.000	118.000	145.000\\
119.000	122.000	146.000\\
122.000	123.000	146.000\\
146.000	123.000	150.000\\
146.000	150.000	148.000\\
124.000	120.000	151.000\\
151.000	120.000	149.000\\
151.000	149.000	152.000\\
151.000	152.000	153.000\\
125.000	154.000	123.000\\
123.000	154.000	150.000\\
124.000	151.000	127.000\\
127.000	151.000	128.000\\
128.000	151.000	153.000\\
128.000	153.000	155.000\\
129.000	156.000	125.000\\
125.000	156.000	154.000\\
130.000	128.000	157.000\\
157.000	128.000	155.000\\
157.000	155.000	158.000\\
157.000	158.000	159.000\\
131.000	160.000	129.000\\
129.000	160.000	156.000\\
130.000	157.000	132.000\\
132.000	157.000	133.000\\
133.000	157.000	159.000\\
133.000	159.000	161.000\\
161.000	159.000	162.000\\
161.000	162.000	163.000\\
163.000	162.000	164.000\\
134.000	163.000	131.000\\
131.000	163.000	164.000\\
131.000	164.000	160.000\\
133.000	161.000	135.000\\
135.000	161.000	136.000\\
136.000	161.000	163.000\\
136.000	163.000	134.000\\
140.000	139.000	165.000\\
165.000	139.000	166.000\\
141.000	167.000	142.000\\
142.000	167.000	168.000\\
168.000	167.000	169.000\\
169.000	167.000	170.000\\
143.000	140.000	171.000\\
171.000	140.000	165.000\\
144.000	172.000	141.000\\
141.000	172.000	167.000\\
167.000	172.000	170.000\\
170.000	172.000	173.000\\
145.000	143.000	174.000\\
174.000	143.000	171.000\\
174.000	171.000	175.000\\
174.000	175.000	176.000\\
144.000	147.000	172.000\\
147.000	148.000	172.000\\
172.000	148.000	177.000\\
172.000	177.000	173.000\\
149.000	145.000	178.000\\
178.000	145.000	174.000\\
174.000	176.000	178.000\\
178.000	176.000	179.000\\
150.000	180.000	148.000\\
148.000	180.000	177.000\\
149.000	178.000	152.000\\
152.000	178.000	153.000\\
153.000	178.000	179.000\\
153.000	179.000	181.000\\
154.000	182.000	150.000\\
150.000	182.000	180.000\\
155.000	153.000	183.000\\
183.000	153.000	181.000\\
183.000	181.000	184.000\\
183.000	184.000	185.000\\
156.000	186.000	154.000\\
154.000	186.000	182.000\\
155.000	183.000	158.000\\
158.000	183.000	159.000\\
159.000	183.000	185.000\\
159.000	185.000	187.000\\
187.000	185.000	188.000\\
187.000	188.000	189.000\\
160.000	190.000	156.000\\
156.000	190.000	186.000\\
159.000	187.000	162.000\\
162.000	187.000	164.000\\
164.000	187.000	189.000\\
164.000	189.000	191.000\\
164.000	191.000	160.000\\
160.000	191.000	190.000\\
165.000	166.000	192.000\\
192.000	166.000	193.000\\
193.000	194.000	192.000\\
192.000	194.000	195.000\\
170.000	196.000	169.000\\
169.000	196.000	197.000\\
171.000	165.000	198.000\\
198.000	165.000	192.000\\
192.000	195.000	198.000\\
198.000	195.000	199.000\\
173.000	200.000	170.000\\
170.000	200.000	196.000\\
171.000	198.000	175.000\\
175.000	198.000	176.000\\
176.000	198.000	199.000\\
176.000	199.000	201.000\\
177.000	202.000	173.000\\
173.000	202.000	200.000\\
179.000	176.000	203.000\\
203.000	176.000	201.000\\
203.000	201.000	204.000\\
203.000	204.000	205.000\\
180.000	206.000	177.000\\
177.000	206.000	202.000\\
181.000	179.000	207.000\\
207.000	179.000	203.000\\
203.000	205.000	207.000\\
207.000	205.000	208.000\\
182.000	209.000	180.000\\
180.000	209.000	206.000\\
181.000	207.000	184.000\\
184.000	207.000	185.000\\
185.000	207.000	208.000\\
185.000	208.000	210.000\\
210.000	208.000	211.000\\
210.000	211.000	212.000\\
212.000	211.000	213.000\\
186.000	212.000	182.000\\
182.000	212.000	213.000\\
182.000	213.000	209.000\\
185.000	210.000	188.000\\
188.000	210.000	189.000\\
189.000	210.000	212.000\\
189.000	212.000	214.000\\
190.000	214.000	186.000\\
186.000	214.000	212.000\\
189.000	214.000	191.000\\
191.000	214.000	190.000\\
195.000	194.000	215.000\\
215.000	194.000	216.000\\
216.000	217.000	215.000\\
215.000	217.000	218.000\\
196.000	219.000	197.000\\
197.000	219.000	220.000\\
199.000	195.000	221.000\\
221.000	195.000	215.000\\
215.000	218.000	221.000\\
221.000	218.000	222.000\\
200.000	223.000	196.000\\
196.000	223.000	219.000\\
201.000	199.000	224.000\\
224.000	199.000	221.000\\
221.000	222.000	224.000\\
224.000	222.000	225.000\\
202.000	226.000	200.000\\
200.000	226.000	223.000\\
201.000	224.000	204.000\\
204.000	224.000	205.000\\
205.000	224.000	225.000\\
205.000	225.000	227.000\\
227.000	225.000	228.000\\
227.000	228.000	229.000\\
206.000	230.000	202.000\\
202.000	230.000	226.000\\
208.000	205.000	231.000\\
231.000	205.000	227.000\\
227.000	229.000	231.000\\
231.000	229.000	232.000\\
231.000	232.000	233.000\\
209.000	233.000	206.000\\
206.000	233.000	232.000\\
206.000	232.000	230.000\\
208.000	231.000	211.000\\
211.000	231.000	213.000\\
213.000	231.000	233.000\\
213.000	233.000	209.000\\
218.000	217.000	234.000\\
234.000	217.000	235.000\\
235.000	236.000	234.000\\
234.000	236.000	237.000\\
219.000	237.000	220.000\\
220.000	237.000	236.000\\
222.000	218.000	238.000\\
238.000	218.000	234.000\\
234.000	237.000	238.000\\
238.000	237.000	239.000\\
223.000	239.000	219.000\\
219.000	239.000	237.000\\
225.000	222.000	240.000\\
240.000	222.000	238.000\\
238.000	239.000	240.000\\
240.000	239.000	241.000\\
226.000	241.000	223.000\\
223.000	241.000	239.000\\
225.000	240.000	228.000\\
228.000	240.000	229.000\\
229.000	240.000	241.000\\
229.000	241.000	242.000\\
230.000	242.000	226.000\\
226.000	242.000	241.000\\
229.000	242.000	232.000\\
232.000	242.000	230.000\\
}]
table[row sep=crcr] {%
x	y	z\\
0.072	8.954	0.001\\
0.001	9.000	0.001\\
0.072	8.950	0.072\\
0.001	8.951	0.072\\
0.001	10.000	0.001\\
0.012	10.000	0.001\\
0.001	10.000	0.011\\
0.072	10.001	0.001\\
0.072	10.009	0.072\\
0.001	10.001	0.072\\
0.144	8.961	0.001\\
0.144	8.972	0.072\\
0.144	10.033	0.001\\
0.144	10.046	0.072\\
0.215	9.008	0.001\\
0.215	9.020	0.072\\
0.215	10.097	0.001\\
0.215	10.109	0.072\\
0.286	9.078	0.001\\
0.286	9.091	0.072\\
0.286	10.174	0.001\\
0.286	10.184	0.072\\
0.339	9.143	0.001\\
0.330	9.143	0.072\\
0.358	9.178	0.001\\
0.358	9.193	0.072\\
0.358	10.258	0.001\\
0.358	10.267	0.072\\
0.429	9.306	0.001\\
0.429	9.319	0.072\\
0.385	10.286	0.001\\
0.378	10.286	0.072\\
0.429	10.339	0.001\\
0.429	10.344	0.072\\
0.494	9.429	0.001\\
0.488	9.429	0.072\\
0.500	9.453	0.001\\
0.500	9.472	0.072\\
0.500	10.397	0.001\\
0.500	10.400	0.072\\
0.572	9.663	0.001\\
0.572	9.676	0.072\\
0.572	10.419	0.001\\
0.572	10.418	0.072\\
0.591	9.714	0.001\\
0.587	9.714	0.072\\
0.643	9.973	0.001\\
0.643	9.989	0.072\\
0.643	10.346	0.001\\
0.643	10.336	0.072\\
0.650	10.000	0.001\\
0.646	10.000	0.072\\
0.660	10.286	0.001\\
0.657	10.286	0.072\\
0.072	8.978	0.144\\
0.001	8.969	0.144\\
0.072	10.046	0.144\\
0.001	10.033	0.144\\
0.144	9.007	0.144\\
0.144	10.084	0.144\\
0.215	9.057	0.144\\
0.215	10.142	0.144\\
0.286	9.128	0.144\\
0.286	10.211	0.144\\
0.299	9.143	0.144\\
0.358	9.236	0.144\\
0.358	10.286	0.128\\
0.354	10.286	0.144\\
0.358	10.291	0.144\\
0.429	9.356	0.144\\
0.429	10.359	0.144\\
0.470	9.429	0.144\\
0.500	9.523	0.144\\
0.500	10.407	0.144\\
0.572	9.714	0.144\\
0.572	10.415	0.144\\
0.572	9.714	0.144\\
0.634	10.000	0.144\\
0.643	10.000	0.090\\
0.643	10.229	0.144\\
0.643	10.300	0.144\\
0.647	10.286	0.144\\
0.072	9.039	0.215\\
0.001	9.029	0.215\\
0.072	10.108	0.215\\
0.001	10.096	0.215\\
0.144	9.069	0.215\\
0.144	10.141	0.215\\
0.215	9.120	0.215\\
0.215	10.191	0.215\\
0.286	9.143	0.162\\
0.240	9.143	0.215\\
0.286	9.201	0.215\\
0.286	10.255	0.215\\
0.358	9.301	0.215\\
0.321	10.286	0.215\\
0.358	10.324	0.215\\
0.429	9.416	0.215\\
0.429	10.379	0.215\\
0.437	9.429	0.215\\
0.500	9.599	0.215\\
0.500	10.414	0.215\\
0.572	9.714	0.144\\
0.548	9.714	0.215\\
0.572	9.838	0.215\\
0.572	10.400	0.215\\
0.613	10.000	0.215\\
0.626	10.286	0.215\\
0.643	10.286	0.158\\
0.072	9.127	0.286\\
0.001	9.117	0.286\\
0.072	10.180	0.286\\
0.001	10.170	0.286\\
0.144	9.143	0.276\\
0.110	9.143	0.286\\
0.144	9.161	0.286\\
0.144	10.208	0.286\\
0.215	9.143	0.236\\
0.215	9.219	0.286\\
0.215	10.252	0.286\\
0.286	9.295	0.286\\
0.286	10.286	0.258\\
0.259	10.286	0.286\\
0.286	10.308	0.286\\
0.358	9.388	0.286\\
0.358	10.359	0.286\\
0.429	9.429	0.227\\
0.386	9.429	0.286\\
0.429	9.532	0.286\\
0.429	10.400	0.286\\
0.500	9.692	0.286\\
0.500	10.415	0.286\\
0.511	9.714	0.286\\
0.572	9.966	0.286\\
0.572	10.358	0.286\\
0.582	10.000	0.286\\
0.597	10.286	0.286\\
0.072	9.143	0.298\\
0.001	9.143	0.305\\
0.001	9.243	0.358\\
0.072	9.253	0.358\\
0.072	10.259	0.358\\
0.001	10.250	0.358\\
0.144	9.285	0.358\\
0.144	10.284	0.358\\
0.215	9.335	0.358\\
0.215	10.286	0.325\\
0.147	10.286	0.358\\
0.215	10.318	0.358\\
0.286	9.405	0.358\\
0.286	10.355	0.358\\
0.358	9.429	0.316\\
0.307	9.429	0.358\\
0.358	9.525	0.358\\
0.358	10.390	0.358\\
0.429	9.660	0.358\\
0.429	10.411	0.358\\
0.500	9.714	0.301\\
0.457	9.714	0.358\\
0.500	9.881	0.358\\
0.500	10.392	0.358\\
0.572	10.000	0.304\\
0.538	10.000	0.358\\
0.572	10.286	0.334\\
0.557	10.286	0.358\\
0.072	9.390	0.429\\
0.001	9.380	0.429\\
0.072	10.286	0.387\\
0.001	10.286	0.394\\
0.001	10.325	0.429\\
0.072	10.331	0.429\\
0.144	9.419	0.429\\
0.144	10.286	0.360\\
0.144	10.345	0.429\\
0.215	9.429	0.410\\
0.159	9.429	0.429\\
0.215	9.486	0.429\\
0.215	10.367	0.429\\
0.286	9.429	0.372\\
0.286	9.577	0.429\\
0.286	10.389	0.429\\
0.358	9.679	0.429\\
0.358	10.404	0.429\\
0.429	9.714	0.387\\
0.380	9.714	0.429\\
0.429	9.868	0.429\\
0.429	10.392	0.429\\
0.500	10.000	0.405\\
0.478	10.000	0.429\\
0.500	10.266	0.429\\
0.500	10.293	0.429\\
0.503	10.286	0.429\\
0.072	9.429	0.449\\
0.001	9.429	0.454\\
0.001	9.573	0.500\\
0.072	9.585	0.500\\
0.072	10.375	0.500\\
0.001	10.372	0.500\\
0.144	9.429	0.434\\
0.144	9.619	0.500\\
0.144	10.383	0.500\\
0.215	9.673	0.500\\
0.215	10.391	0.500\\
0.286	9.714	0.488\\
0.257	9.714	0.500\\
0.286	9.777	0.500\\
0.286	10.394	0.500\\
0.358	9.714	0.446\\
0.358	9.928	0.500\\
0.358	10.372	0.500\\
0.429	10.000	0.474\\
0.393	10.000	0.500\\
0.429	10.286	0.497\\
0.424	10.286	0.500\\
0.500	10.286	0.432\\
0.072	9.714	0.550\\
0.001	9.714	0.554\\
0.001	9.815	0.572\\
0.072	9.832	0.572\\
0.072	10.377	0.572\\
0.001	10.378	0.572\\
0.144	9.714	0.538\\
0.144	9.880	0.572\\
0.144	10.372	0.572\\
0.215	9.714	0.518\\
0.215	9.950	0.572\\
0.215	10.356	0.572\\
0.286	10.000	0.560\\
0.256	10.000	0.572\\
0.286	10.209	0.572\\
0.286	10.308	0.572\\
0.358	10.000	0.524\\
0.302	10.286	0.572\\
0.358	10.286	0.542\\
0.072	10.000	0.615\\
0.001	10.000	0.618\\
0.001	10.286	0.633\\
0.072	10.286	0.629\\
0.144	10.000	0.604\\
0.144	10.286	0.619\\
0.215	10.000	0.587\\
0.215	10.286	0.602\\
0.286	10.286	0.579\\
};
%\addlegendentry{0.5};

\addplot3[opacity=0,area legend,solid,table/row sep=crcr,patch,fill opacity=0.4500,shader=flat,fill=mycolor3,patch table={%
0.000	1.000	2.000\\
2.000	1.000	3.000\\
4.000	5.000	6.000\\
6.000	5.000	7.000\\
8.000	0.000	9.000\\
9.000	0.000	2.000\\
10.000	11.000	4.000\\
4.000	11.000	5.000\\
8.000	9.000	12.000\\
12.000	9.000	13.000\\
12.000	13.000	14.000\\
14.000	13.000	15.000\\
16.000	17.000	10.000\\
10.000	17.000	11.000\\
18.000	14.000	19.000\\
19.000	14.000	15.000\\
20.000	21.000	16.000\\
16.000	21.000	17.000\\
18.000	19.000	22.000\\
22.000	19.000	23.000\\
22.000	23.000	24.000\\
24.000	23.000	25.000\\
26.000	27.000	20.000\\
20.000	27.000	21.000\\
24.000	25.000	28.000\\
28.000	25.000	29.000\\
28.000	29.000	26.000\\
26.000	29.000	27.000\\
2.000	3.000	30.000\\
30.000	3.000	31.000\\
5.000	32.000	7.000\\
7.000	32.000	33.000\\
9.000	2.000	34.000\\
34.000	2.000	30.000\\
34.000	30.000	35.000\\
34.000	35.000	36.000\\
11.000	37.000	5.000\\
5.000	37.000	32.000\\
9.000	34.000	13.000\\
13.000	34.000	15.000\\
15.000	34.000	36.000\\
15.000	36.000	38.000\\
17.000	39.000	11.000\\
11.000	39.000	37.000\\
19.000	15.000	40.000\\
40.000	15.000	38.000\\
21.000	41.000	17.000\\
17.000	41.000	39.000\\
19.000	40.000	23.000\\
23.000	40.000	42.000\\
23.000	42.000	25.000\\
25.000	42.000	43.000\\
27.000	44.000	21.000\\
21.000	44.000	41.000\\
25.000	43.000	29.000\\
29.000	43.000	45.000\\
29.000	45.000	27.000\\
27.000	45.000	44.000\\
30.000	31.000	46.000\\
46.000	31.000	47.000\\
47.000	48.000	46.000\\
46.000	48.000	49.000\\
32.000	50.000	33.000\\
33.000	50.000	51.000\\
30.000	46.000	35.000\\
35.000	46.000	36.000\\
36.000	46.000	49.000\\
36.000	49.000	52.000\\
37.000	53.000	32.000\\
32.000	53.000	50.000\\
38.000	36.000	54.000\\
54.000	36.000	52.000\\
39.000	55.000	37.000\\
37.000	55.000	53.000\\
40.000	38.000	56.000\\
56.000	38.000	54.000\\
56.000	54.000	57.000\\
56.000	57.000	58.000\\
41.000	59.000	39.000\\
39.000	59.000	55.000\\
40.000	56.000	42.000\\
42.000	56.000	43.000\\
43.000	56.000	58.000\\
43.000	58.000	60.000\\
60.000	58.000	61.000\\
44.000	60.000	41.000\\
41.000	60.000	61.000\\
41.000	61.000	59.000\\
43.000	60.000	45.000\\
45.000	60.000	44.000\\
49.000	48.000	62.000\\
62.000	48.000	63.000\\
50.000	64.000	51.000\\
51.000	64.000	65.000\\
52.000	49.000	66.000\\
66.000	49.000	62.000\\
66.000	62.000	67.000\\
66.000	67.000	68.000\\
53.000	69.000	50.000\\
50.000	69.000	64.000\\
54.000	52.000	70.000\\
70.000	52.000	66.000\\
66.000	68.000	70.000\\
70.000	68.000	71.000\\
55.000	72.000	53.000\\
53.000	72.000	69.000\\
54.000	70.000	57.000\\
57.000	70.000	58.000\\
58.000	70.000	71.000\\
58.000	71.000	73.000\\
73.000	71.000	74.000\\
59.000	73.000	55.000\\
55.000	73.000	74.000\\
55.000	74.000	72.000\\
58.000	73.000	61.000\\
61.000	73.000	59.000\\
62.000	63.000	75.000\\
75.000	63.000	76.000\\
76.000	77.000	75.000\\
75.000	77.000	78.000\\
64.000	79.000	65.000\\
65.000	79.000	80.000\\
62.000	75.000	67.000\\
67.000	75.000	68.000\\
68.000	75.000	78.000\\
68.000	78.000	81.000\\
81.000	78.000	82.000\\
69.000	81.000	64.000\\
64.000	81.000	82.000\\
64.000	82.000	79.000\\
71.000	68.000	83.000\\
83.000	68.000	81.000\\
72.000	83.000	69.000\\
69.000	83.000	81.000\\
71.000	83.000	74.000\\
74.000	83.000	72.000\\
78.000	77.000	84.000\\
84.000	77.000	85.000\\
79.000	84.000	80.000\\
80.000	84.000	85.000\\
78.000	84.000	82.000\\
82.000	84.000	79.000\\
}]
table[row sep=crcr] {%
x	y	z\\
0.072	9.035	0.001\\
0.001	9.057	0.001\\
0.072	9.049	0.072\\
0.001	9.036	0.072\\
0.072	9.882	0.001\\
0.072	9.877	0.072\\
0.001	9.886	0.001\\
0.001	9.882	0.072\\
0.144	9.078	0.001\\
0.144	9.098	0.072\\
0.144	9.876	0.001\\
0.144	9.877	0.072\\
0.204	9.143	0.001\\
0.187	9.143	0.072\\
0.215	9.171	0.001\\
0.215	9.202	0.072\\
0.215	9.887	0.001\\
0.215	9.889	0.072\\
0.286	9.319	0.001\\
0.286	9.340	0.072\\
0.286	9.891	0.001\\
0.286	9.888	0.072\\
0.341	9.429	0.001\\
0.332	9.429	0.072\\
0.358	9.553	0.001\\
0.358	9.597	0.072\\
0.358	9.827	0.001\\
0.358	9.809	0.072\\
0.391	9.714	0.001\\
0.384	9.714	0.072\\
0.072	9.109	0.144\\
0.001	9.093	0.144\\
0.072	9.877	0.144\\
0.001	9.875	0.144\\
0.144	9.143	0.129\\
0.125	9.143	0.144\\
0.144	9.168	0.144\\
0.144	9.884	0.144\\
0.215	9.277	0.144\\
0.215	9.891	0.144\\
0.286	9.397	0.144\\
0.286	9.873	0.144\\
0.304	9.429	0.144\\
0.358	9.698	0.144\\
0.358	9.734	0.144\\
0.362	9.714	0.144\\
0.072	9.143	0.173\\
0.001	9.143	0.185\\
0.001	9.217	0.215\\
0.072	9.238	0.215\\
0.072	9.887	0.215\\
0.001	9.886	0.215\\
0.144	9.295	0.215\\
0.144	9.890	0.215\\
0.215	9.379	0.215\\
0.215	9.880	0.215\\
0.286	9.429	0.170\\
0.250	9.429	0.215\\
0.286	9.595	0.215\\
0.286	9.814	0.215\\
0.358	9.714	0.152\\
0.320	9.714	0.215\\
0.072	9.384	0.286\\
0.001	9.368	0.286\\
0.072	9.878	0.286\\
0.001	9.881	0.286\\
0.144	9.429	0.286\\
0.143	9.429	0.286\\
0.144	9.430	0.286\\
0.144	9.861	0.286\\
0.215	9.429	0.245\\
0.215	9.627	0.286\\
0.215	9.799	0.286\\
0.286	9.714	0.254\\
0.250	9.714	0.286\\
0.072	9.429	0.309\\
0.001	9.429	0.316\\
0.001	9.666	0.358\\
0.072	9.691	0.358\\
0.072	9.745	0.358\\
0.001	9.770	0.358\\
0.144	9.714	0.345\\
0.098	9.714	0.358\\
0.215	9.714	0.311\\
0.072	9.714	0.364\\
0.001	9.714	0.370\\
};
%\addlegendentry{0.7};

\addplot3[opacity=0,area legend,solid,table/row sep=crcr,patch,fill opacity=0.4500,shader=flat,fill=mycolor4,patch table={%
0.000	1.000	2.000\\
2.000	1.000	3.000\\
4.000	5.000	6.000\\
6.000	5.000	7.000\\
8.000	0.000	9.000\\
9.000	0.000	2.000\\
9.000	2.000	10.000\\
9.000	10.000	11.000\\
12.000	13.000	4.000\\
4.000	13.000	5.000\\
8.000	9.000	14.000\\
14.000	9.000	15.000\\
15.000	9.000	11.000\\
15.000	11.000	16.000\\
17.000	18.000	12.000\\
12.000	18.000	13.000\\
15.000	16.000	19.000\\
19.000	16.000	20.000\\
19.000	20.000	21.000\\
21.000	20.000	22.000\\
21.000	22.000	17.000\\
17.000	22.000	18.000\\
2.000	3.000	23.000\\
23.000	3.000	24.000\\
24.000	25.000	23.000\\
23.000	25.000	26.000\\
5.000	27.000	7.000\\
7.000	27.000	28.000\\
2.000	23.000	10.000\\
10.000	23.000	11.000\\
11.000	23.000	26.000\\
11.000	26.000	29.000\\
13.000	30.000	5.000\\
5.000	30.000	27.000\\
16.000	11.000	31.000\\
31.000	11.000	29.000\\
18.000	32.000	13.000\\
13.000	32.000	30.000\\
16.000	31.000	20.000\\
20.000	31.000	33.000\\
20.000	33.000	22.000\\
22.000	33.000	34.000\\
22.000	34.000	18.000\\
18.000	34.000	32.000\\
26.000	25.000	35.000\\
35.000	25.000	36.000\\
27.000	37.000	28.000\\
28.000	37.000	38.000\\
29.000	26.000	39.000\\
39.000	26.000	35.000\\
30.000	40.000	27.000\\
27.000	40.000	37.000\\
31.000	29.000	41.000\\
41.000	29.000	39.000\\
41.000	39.000	42.000\\
41.000	42.000	43.000\\
43.000	42.000	44.000\\
32.000	43.000	30.000\\
30.000	43.000	44.000\\
30.000	44.000	40.000\\
31.000	41.000	33.000\\
33.000	41.000	34.000\\
34.000	41.000	43.000\\
34.000	43.000	32.000\\
35.000	36.000	45.000\\
45.000	36.000	46.000\\
46.000	47.000	45.000\\
45.000	47.000	48.000\\
37.000	48.000	38.000\\
38.000	48.000	47.000\\
39.000	35.000	49.000\\
49.000	35.000	45.000\\
45.000	48.000	49.000\\
49.000	48.000	50.000\\
40.000	50.000	37.000\\
37.000	50.000	48.000\\
39.000	49.000	42.000\\
42.000	49.000	44.000\\
44.000	49.000	50.000\\
44.000	50.000	40.000\\
}]
table[row sep=crcr] {%
x	y	z\\
0.072	9.076	0.001\\
0.001	9.086	0.001\\
0.072	9.099	0.072\\
0.001	9.079	0.072\\
0.072	9.823	0.001\\
0.072	9.811	0.072\\
0.001	9.829	0.001\\
0.001	9.823	0.072\\
0.144	9.137	0.001\\
0.144	9.143	0.020\\
0.126	9.143	0.072\\
0.144	9.188	0.072\\
0.144	9.797	0.001\\
0.144	9.792	0.072\\
0.149	9.143	0.001\\
0.215	9.306	0.001\\
0.215	9.334	0.072\\
0.215	9.775	0.001\\
0.215	9.768	0.072\\
0.274	9.429	0.001\\
0.263	9.429	0.072\\
0.286	9.714	0.001\\
0.275	9.714	0.072\\
0.072	9.143	0.118\\
0.001	9.143	0.136\\
0.001	9.172	0.144\\
0.072	9.212	0.144\\
0.072	9.791	0.144\\
0.001	9.796	0.144\\
0.144	9.299	0.144\\
0.144	9.778	0.144\\
0.215	9.407	0.144\\
0.215	9.744	0.144\\
0.227	9.429	0.144\\
0.242	9.714	0.144\\
0.072	9.365	0.215\\
0.001	9.344	0.215\\
0.072	9.764	0.215\\
0.001	9.770	0.215\\
0.144	9.423	0.215\\
0.144	9.739	0.215\\
0.215	9.429	0.158\\
0.148	9.429	0.215\\
0.215	9.714	0.178\\
0.174	9.714	0.215\\
0.072	9.429	0.246\\
0.001	9.429	0.255\\
0.001	9.714	0.271\\
0.072	9.714	0.262\\
0.144	9.429	0.218\\
0.144	9.714	0.235\\
};
%\addlegendentry{0.8};

\addplot3[opacity=0,area legend,solid,table/row sep=crcr,patch,fill opacity=0.4500,shader=flat,fill=mycolor5,patch table={%
0.000	1.000	2.000\\
2.000	1.000	3.000\\
2.000	3.000	4.000\\
2.000	4.000	5.000\\
6.000	7.000	8.000\\
8.000	7.000	9.000\\
0.000	2.000	10.000\\
10.000	2.000	11.000\\
11.000	2.000	5.000\\
11.000	5.000	12.000\\
13.000	14.000	15.000\\
16.000	13.000	6.000\\
6.000	13.000	15.000\\
6.000	15.000	7.000\\
11.000	12.000	17.000\\
17.000	12.000	18.000\\
17.000	18.000	19.000\\
19.000	18.000	14.000\\
19.000	14.000	13.000\\
19.000	13.000	16.000\\
3.000	20.000	4.000\\
4.000	20.000	5.000\\
5.000	20.000	21.000\\
5.000	21.000	22.000\\
23.000	24.000	25.000\\
7.000	23.000	9.000\\
9.000	23.000	25.000\\
9.000	25.000	26.000\\
12.000	5.000	27.000\\
27.000	5.000	22.000\\
27.000	22.000	28.000\\
14.000	27.000	15.000\\
15.000	27.000	28.000\\
15.000	28.000	23.000\\
23.000	28.000	24.000\\
15.000	23.000	7.000\\
12.000	27.000	18.000\\
18.000	27.000	14.000\\
22.000	21.000	29.000\\
29.000	21.000	30.000\\
24.000	29.000	25.000\\
25.000	29.000	30.000\\
25.000	30.000	31.000\\
25.000	31.000	26.000\\
22.000	29.000	28.000\\
28.000	29.000	24.000\\
}]
table[row sep=crcr] {%
x	y	z\\
0.072	9.116	0.001\\
0.001	9.114	0.001\\
0.072	9.143	0.061\\
0.001	9.121	0.072\\
0.059	9.143	0.072\\
0.072	9.174	0.072\\
0.072	9.764	0.001\\
0.072	9.745	0.072\\
0.001	9.771	0.001\\
0.001	9.763	0.072\\
0.102	9.143	0.001\\
0.144	9.296	0.001\\
0.144	9.339	0.072\\
0.144	9.714	0.024\\
0.144	9.674	0.072\\
0.131	9.714	0.072\\
0.144	9.718	0.001\\
0.208	9.429	0.001\\
0.192	9.429	0.072\\
0.150	9.714	0.001\\
0.001	9.143	0.094\\
0.001	9.324	0.144\\
0.072	9.355	0.144\\
0.072	9.714	0.130\\
0.072	9.662	0.144\\
0.012	9.714	0.144\\
0.001	9.716	0.144\\
0.144	9.429	0.141\\
0.141	9.429	0.144\\
0.072	9.429	0.180\\
0.001	9.429	0.192\\
0.001	9.714	0.147\\
};
%\addlegendentry{0.9};

\addplot3[opacity=0,area legend,solid,table/row sep=crcr,patch,fill opacity=0.500,shader=flat,fill=mycolor6,patch table={%
0.000	1.000	2.000\\
2.000	1.000	3.000\\
3.000	1.000	4.000\\
3.000	4.000	5.000\\
6.000	7.000	8.000\\
8.000	7.000	9.000\\
8.000	9.000	10.000\\
8.000	10.000	11.000\\
3.000	5.000	12.000\\
12.000	5.000	13.000\\
12.000	13.000	6.000\\
6.000	13.000	7.000\\
5.000	4.000	14.000\\
14.000	4.000	15.000\\
7.000	14.000	9.000\\
9.000	14.000	15.000\\
5.000	14.000	13.000\\
13.000	14.000	7.000\\
}]
table[row sep=crcr] {%
x	y	z\\
0.001	9.140	0.001\\
0.001	9.143	0.015\\
0.021	9.143	0.001\\
0.072	9.347	0.001\\
0.001	9.371	0.072\\
0.072	9.410	0.072\\
0.072	9.605	0.001\\
0.072	9.469	0.072\\
0.045	9.714	0.001\\
0.001	9.589	0.072\\
0.001	9.714	0.041\\
0.001	9.720	0.001\\
0.104	9.429	0.001\\
0.086	9.429	0.072\\
0.072	9.429	0.084\\
0.001	9.429	0.095\\
};
%\addlegendentry{0.99};

\addplot3[opacity=0,area legend,solid,table/row sep=crcr,patch,fill opacity=0.500,shader=flat,fill=mycolor1,patch table={%
	0.000	1.000	2.000\\
	2.000	1.000	3.000\\
	2.000	3.000	4.000\\
	1.000	5.000	3.000\\
	6.000	7.000	8.000\\
	8.000	7.000	9.000\\
	10.000	0.000	11.000\\
	11.000	0.000	2.000\\
	12.000	13.000	6.000\\
	6.000	13.000	14.000\\
	6.000	14.000	7.000\\
	13.000	15.000	14.000\\
	16.000	10.000	17.000\\
	17.000	10.000	11.000\\
	12.000	18.000	13.000\\
	18.000	19.000	13.000\\
	13.000	19.000	20.000\\
	13.000	20.000	15.000\\
	21.000	16.000	22.000\\
	22.000	16.000	17.000\\
	19.000	23.000	20.000\\
	20.000	23.000	24.000\\
	23.000	25.000	24.000\\
	24.000	25.000	26.000\\
	27.000	21.000	28.000\\
	28.000	21.000	22.000\\
	29.000	30.000	25.000\\
	25.000	30.000	26.000\\
	27.000	28.000	31.000\\
	31.000	28.000	32.000\\
	31.000	32.000	33.000\\
	33.000	32.000	34.000\\
	29.000	35.000	30.000\\
	30.000	35.000	36.000\\
	35.000	37.000	36.000\\
	36.000	37.000	38.000\\
	39.000	33.000	40.000\\
	40.000	33.000	34.000\\
	37.000	41.000	38.000\\
	38.000	41.000	42.000\\
	41.000	43.000	42.000\\
	42.000	43.000	44.000\\
	45.000	39.000	46.000\\
	46.000	39.000	40.000\\
	43.000	47.000	44.000\\
	44.000	47.000	48.000\\
	47.000	49.000	48.000\\
	48.000	49.000	50.000\\
	51.000	45.000	52.000\\
	52.000	45.000	46.000\\
	49.000	53.000	50.000\\
	50.000	53.000	54.000\\
	53.000	55.000	54.000\\
	54.000	55.000	56.000\\
	51.000	52.000	57.000\\
	57.000	52.000	58.000\\
	57.000	58.000	59.000\\
	59.000	58.000	60.000\\
	55.000	61.000	56.000\\
	56.000	61.000	62.000\\
	63.000	59.000	64.000\\
	64.000	59.000	60.000\\
	65.000	63.000	66.000\\
	66.000	63.000	64.000\\
	65.000	66.000	67.000\\
	67.000	66.000	68.000\\
	67.000	68.000	69.000\\
	69.000	68.000	70.000\\
	71.000	69.000	72.000\\
	72.000	69.000	70.000\\
	2.000	4.000	73.000\\
	73.000	4.000	74.000\\
	7.000	75.000	9.000\\
	9.000	75.000	76.000\\
	9.000	76.000	77.000\\
	75.000	78.000	76.000\\
	11.000	2.000	79.000\\
	79.000	2.000	73.000\\
	7.000	14.000	75.000\\
	14.000	15.000	75.000\\
	75.000	15.000	80.000\\
	75.000	80.000	78.000\\
	17.000	11.000	81.000\\
	81.000	11.000	79.000\\
	20.000	82.000	15.000\\
	15.000	82.000	80.000\\
	22.000	17.000	83.000\\
	83.000	17.000	81.000\\
	20.000	24.000	82.000\\
	82.000	24.000	84.000\\
	24.000	26.000	84.000\\
	84.000	26.000	85.000\\
	28.000	22.000	86.000\\
	86.000	22.000	83.000\\
	30.000	87.000	26.000\\
	26.000	87.000	88.000\\
	26.000	88.000	85.000\\
	87.000	89.000	88.000\\
	28.000	86.000	32.000\\
	32.000	86.000	90.000\\
	32.000	90.000	34.000\\
	34.000	90.000	91.000\\
	30.000	36.000	87.000\\
	36.000	38.000	87.000\\
	87.000	38.000	92.000\\
	87.000	92.000	89.000\\
	40.000	34.000	93.000\\
	93.000	34.000	91.000\\
	38.000	42.000	92.000\\
	92.000	42.000	94.000\\
	42.000	44.000	94.000\\
	94.000	44.000	95.000\\
	46.000	40.000	96.000\\
	96.000	40.000	93.000\\
	44.000	48.000	95.000\\
	95.000	48.000	97.000\\
	48.000	50.000	97.000\\
	97.000	50.000	98.000\\
	52.000	46.000	99.000\\
	99.000	46.000	96.000\\
	50.000	54.000	98.000\\
	98.000	54.000	100.000\\
	54.000	56.000	100.000\\
	100.000	56.000	101.000\\
	52.000	99.000	58.000\\
	58.000	99.000	102.000\\
	58.000	102.000	60.000\\
	60.000	102.000	103.000\\
	56.000	62.000	101.000\\
	101.000	62.000	104.000\\
	64.000	60.000	105.000\\
	105.000	60.000	103.000\\
	66.000	64.000	106.000\\
	106.000	64.000	105.000\\
	66.000	106.000	68.000\\
	68.000	106.000	107.000\\
	68.000	107.000	70.000\\
	70.000	107.000	108.000\\
	72.000	70.000	109.000\\
	109.000	70.000	108.000\\
	73.000	74.000	110.000\\
	110.000	74.000	111.000\\
	77.000	76.000	112.000\\
	76.000	78.000	112.000\\
	112.000	78.000	113.000\\
	112.000	113.000	114.000\\
	79.000	73.000	115.000\\
	115.000	73.000	110.000\\
	80.000	116.000	78.000\\
	78.000	116.000	113.000\\
	81.000	79.000	117.000\\
	117.000	79.000	115.000\\
	82.000	118.000	80.000\\
	80.000	118.000	119.000\\
	80.000	119.000	116.000\\
	118.000	120.000	119.000\\
	83.000	81.000	121.000\\
	121.000	81.000	117.000\\
	82.000	84.000	118.000\\
	84.000	85.000	118.000\\
	118.000	85.000	122.000\\
	118.000	122.000	120.000\\
	86.000	83.000	123.000\\
	123.000	83.000	121.000\\
	123.000	121.000	124.000\\
	123.000	124.000	125.000\\
	85.000	88.000	122.000\\
	122.000	88.000	126.000\\
	88.000	89.000	126.000\\
	126.000	89.000	127.000\\
	86.000	123.000	90.000\\
	90.000	123.000	91.000\\
	91.000	123.000	125.000\\
	91.000	125.000	128.000\\
	92.000	129.000	89.000\\
	89.000	129.000	130.000\\
	89.000	130.000	127.000\\
	129.000	131.000	130.000\\
	93.000	91.000	132.000\\
	132.000	91.000	128.000\\
	92.000	94.000	129.000\\
	94.000	95.000	129.000\\
	129.000	95.000	133.000\\
	129.000	133.000	131.000\\
	96.000	93.000	134.000\\
	134.000	93.000	132.000\\
	95.000	97.000	133.000\\
	133.000	97.000	135.000\\
	97.000	98.000	135.000\\
	135.000	98.000	136.000\\
	99.000	96.000	137.000\\
	137.000	96.000	134.000\\
	98.000	100.000	136.000\\
	136.000	100.000	138.000\\
	100.000	101.000	138.000\\
	138.000	101.000	139.000\\
	99.000	137.000	102.000\\
	102.000	137.000	140.000\\
	102.000	140.000	103.000\\
	103.000	140.000	141.000\\
	101.000	104.000	139.000\\
	139.000	104.000	142.000\\
	105.000	103.000	143.000\\
	143.000	103.000	141.000\\
	106.000	105.000	144.000\\
	144.000	105.000	143.000\\
	106.000	144.000	107.000\\
	107.000	144.000	145.000\\
	107.000	145.000	108.000\\
	108.000	145.000	146.000\\
	109.000	108.000	147.000\\
	147.000	108.000	146.000\\
	110.000	111.000	148.000\\
	148.000	111.000	149.000\\
	113.000	150.000	114.000\\
	114.000	150.000	151.000\\
	151.000	150.000	152.000\\
	152.000	150.000	153.000\\
	115.000	110.000	154.000\\
	154.000	110.000	148.000\\
	116.000	155.000	113.000\\
	113.000	155.000	150.000\\
	150.000	155.000	153.000\\
	153.000	155.000	156.000\\
	117.000	115.000	157.000\\
	157.000	115.000	154.000\\
	116.000	119.000	155.000\\
	119.000	120.000	155.000\\
	155.000	120.000	158.000\\
	155.000	158.000	156.000\\
	121.000	117.000	159.000\\
	159.000	117.000	157.000\\
	159.000	157.000	160.000\\
	159.000	160.000	161.000\\
	122.000	162.000	120.000\\
	120.000	162.000	163.000\\
	120.000	163.000	158.000\\
	162.000	164.000	163.000\\
	121.000	159.000	124.000\\
	124.000	159.000	125.000\\
	125.000	159.000	161.000\\
	125.000	161.000	165.000\\
	122.000	126.000	162.000\\
	126.000	127.000	162.000\\
	162.000	127.000	166.000\\
	162.000	166.000	164.000\\
	128.000	125.000	167.000\\
	167.000	125.000	165.000\\
	127.000	130.000	166.000\\
	166.000	130.000	168.000\\
	130.000	131.000	168.000\\
	168.000	131.000	169.000\\
	132.000	128.000	170.000\\
	170.000	128.000	167.000\\
	133.000	171.000	131.000\\
	131.000	171.000	172.000\\
	131.000	172.000	169.000\\
	171.000	173.000	172.000\\
	134.000	132.000	174.000\\
	174.000	132.000	170.000\\
	133.000	135.000	171.000\\
	135.000	136.000	171.000\\
	171.000	136.000	175.000\\
	171.000	175.000	173.000\\
	173.000	175.000	176.000\\
	175.000	177.000	176.000\\
	137.000	134.000	178.000\\
	178.000	134.000	174.000\\
	178.000	174.000	179.000\\
	178.000	179.000	180.000\\
	136.000	138.000	175.000\\
	138.000	139.000	175.000\\
	175.000	139.000	181.000\\
	175.000	181.000	177.000\\
	137.000	178.000	140.000\\
	140.000	178.000	141.000\\
	141.000	178.000	180.000\\
	141.000	180.000	182.000\\
	139.000	142.000	181.000\\
	181.000	142.000	183.000\\
	143.000	141.000	184.000\\
	184.000	141.000	182.000\\
	144.000	143.000	185.000\\
	185.000	143.000	184.000\\
	185.000	184.000	186.000\\
	185.000	186.000	187.000\\
	144.000	185.000	145.000\\
	145.000	185.000	146.000\\
	146.000	185.000	187.000\\
	146.000	187.000	188.000\\
	147.000	146.000	189.000\\
	189.000	146.000	188.000\\
	189.000	188.000	190.000\\
	189.000	190.000	191.000\\
	148.000	149.000	192.000\\
	192.000	149.000	193.000\\
	153.000	194.000	152.000\\
	152.000	194.000	195.000\\
	154.000	148.000	196.000\\
	196.000	148.000	192.000\\
	196.000	192.000	197.000\\
	196.000	197.000	198.000\\
	156.000	199.000	153.000\\
	153.000	199.000	194.000\\
	157.000	154.000	200.000\\
	200.000	154.000	196.000\\
	196.000	198.000	200.000\\
	200.000	198.000	201.000\\
	158.000	202.000	156.000\\
	156.000	202.000	203.000\\
	156.000	203.000	199.000\\
	202.000	204.000	203.000\\
	157.000	200.000	160.000\\
	160.000	200.000	161.000\\
	161.000	200.000	201.000\\
	161.000	201.000	205.000\\
	158.000	163.000	202.000\\
	163.000	164.000	202.000\\
	202.000	164.000	206.000\\
	202.000	206.000	204.000\\
	165.000	161.000	207.000\\
	207.000	161.000	205.000\\
	166.000	208.000	164.000\\
	164.000	208.000	209.000\\
	164.000	209.000	206.000\\
	208.000	210.000	209.000\\
	167.000	165.000	211.000\\
	211.000	165.000	207.000\\
	166.000	168.000	208.000\\
	168.000	169.000	208.000\\
	208.000	169.000	212.000\\
	208.000	212.000	210.000\\
	170.000	167.000	213.000\\
	213.000	167.000	211.000\\
	169.000	172.000	212.000\\
	212.000	172.000	214.000\\
	172.000	173.000	214.000\\
	214.000	173.000	215.000\\
	174.000	170.000	216.000\\
	216.000	170.000	213.000\\
	173.000	176.000	215.000\\
	215.000	176.000	217.000\\
	176.000	177.000	217.000\\
	217.000	177.000	218.000\\
	174.000	216.000	179.000\\
	179.000	216.000	219.000\\
	179.000	219.000	180.000\\
	180.000	219.000	220.000\\
	181.000	221.000	177.000\\
	177.000	221.000	222.000\\
	177.000	222.000	218.000\\
	182.000	180.000	223.000\\
	223.000	180.000	220.000\\
	181.000	183.000	221.000\\
	184.000	182.000	224.000\\
	224.000	182.000	223.000\\
	184.000	224.000	186.000\\
	186.000	224.000	225.000\\
	186.000	225.000	187.000\\
	187.000	225.000	226.000\\
	188.000	187.000	227.000\\
	227.000	187.000	226.000\\
	188.000	227.000	190.000\\
	190.000	227.000	228.000\\
	190.000	228.000	191.000\\
	191.000	228.000	229.000\\
	192.000	193.000	230.000\\
	230.000	193.000	231.000\\
	231.000	232.000	230.000\\
	230.000	232.000	233.000\\
	194.000	234.000	195.000\\
	195.000	234.000	235.000\\
	235.000	234.000	236.000\\
	236.000	234.000	237.000\\
	192.000	230.000	197.000\\
	197.000	230.000	198.000\\
	198.000	230.000	233.000\\
	198.000	233.000	238.000\\
	199.000	239.000	194.000\\
	194.000	239.000	234.000\\
	234.000	239.000	237.000\\
	237.000	239.000	240.000\\
	201.000	198.000	241.000\\
	241.000	198.000	238.000\\
	199.000	203.000	239.000\\
	203.000	204.000	239.000\\
	239.000	204.000	242.000\\
	239.000	242.000	240.000\\
	205.000	201.000	243.000\\
	243.000	201.000	241.000\\
	206.000	244.000	204.000\\
	204.000	244.000	245.000\\
	204.000	245.000	242.000\\
	244.000	246.000	245.000\\
	207.000	205.000	247.000\\
	247.000	205.000	243.000\\
	206.000	209.000	244.000\\
	209.000	210.000	244.000\\
	244.000	210.000	248.000\\
	244.000	248.000	246.000\\
	211.000	207.000	249.000\\
	249.000	207.000	247.000\\
	212.000	250.000	210.000\\
	210.000	250.000	251.000\\
	210.000	251.000	248.000\\
	250.000	252.000	251.000\\
	213.000	211.000	253.000\\
	253.000	211.000	249.000\\
	212.000	214.000	250.000\\
	214.000	215.000	250.000\\
	250.000	215.000	254.000\\
	250.000	254.000	252.000\\
	252.000	254.000	255.000\\
	254.000	256.000	255.000\\
	216.000	213.000	257.000\\
	257.000	213.000	253.000\\
	257.000	253.000	258.000\\
	257.000	258.000	259.000\\
	215.000	217.000	254.000\\
	217.000	218.000	254.000\\
	254.000	218.000	260.000\\
	254.000	260.000	256.000\\
	216.000	257.000	219.000\\
	219.000	257.000	220.000\\
	220.000	257.000	259.000\\
	220.000	259.000	261.000\\
	218.000	222.000	260.000\\
	260.000	222.000	262.000\\
	223.000	220.000	263.000\\
	263.000	220.000	261.000\\
	224.000	223.000	264.000\\
	264.000	223.000	263.000\\
	264.000	263.000	265.000\\
	264.000	265.000	266.000\\
	224.000	264.000	225.000\\
	225.000	264.000	226.000\\
	226.000	264.000	266.000\\
	226.000	266.000	267.000\\
	227.000	226.000	268.000\\
	268.000	226.000	267.000\\
	227.000	268.000	228.000\\
	228.000	268.000	269.000\\
	228.000	269.000	229.000\\
	229.000	269.000	270.000\\
	233.000	232.000	271.000\\
	271.000	232.000	272.000\\
	237.000	273.000	236.000\\
	236.000	273.000	274.000\\
	274.000	273.000	275.000\\
	275.000	273.000	276.000\\
	238.000	233.000	277.000\\
	277.000	233.000	271.000\\
	240.000	278.000	237.000\\
	237.000	278.000	273.000\\
	273.000	278.000	276.000\\
	276.000	278.000	279.000\\
	241.000	238.000	280.000\\
	280.000	238.000	277.000\\
	242.000	281.000	240.000\\
	240.000	281.000	278.000\\
	278.000	281.000	279.000\\
	279.000	281.000	282.000\\
	243.000	241.000	283.000\\
	283.000	241.000	280.000\\
	242.000	245.000	281.000\\
	245.000	246.000	281.000\\
	281.000	246.000	284.000\\
	281.000	284.000	282.000\\
	247.000	243.000	285.000\\
	285.000	243.000	283.000\\
	248.000	286.000	246.000\\
	246.000	286.000	287.000\\
	246.000	287.000	284.000\\
	286.000	288.000	287.000\\
	249.000	247.000	289.000\\
	289.000	247.000	285.000\\
	289.000	285.000	290.000\\
	289.000	290.000	291.000\\
	248.000	251.000	286.000\\
	251.000	252.000	286.000\\
	286.000	252.000	292.000\\
	286.000	292.000	288.000\\
	253.000	249.000	293.000\\
	293.000	249.000	289.000\\
	289.000	291.000	293.000\\
	293.000	291.000	294.000\\
	252.000	255.000	292.000\\
	292.000	255.000	295.000\\
	255.000	256.000	295.000\\
	295.000	256.000	296.000\\
	253.000	293.000	258.000\\
	258.000	293.000	259.000\\
	259.000	293.000	294.000\\
	259.000	294.000	297.000\\
	260.000	298.000	256.000\\
	256.000	298.000	299.000\\
	256.000	299.000	296.000\\
	261.000	259.000	300.000\\
	300.000	259.000	297.000\\
	260.000	262.000	298.000\\
	263.000	261.000	301.000\\
	301.000	261.000	300.000\\
	301.000	300.000	302.000\\
	301.000	302.000	303.000\\
	263.000	301.000	265.000\\
	265.000	301.000	266.000\\
	266.000	301.000	303.000\\
	266.000	303.000	304.000\\
	267.000	266.000	305.000\\
	305.000	266.000	304.000\\
	268.000	267.000	306.000\\
	306.000	267.000	305.000\\
	306.000	305.000	307.000\\
	306.000	307.000	308.000\\
	268.000	306.000	269.000\\
	269.000	306.000	270.000\\
	270.000	306.000	308.000\\
	270.000	308.000	309.000\\
	271.000	272.000	310.000\\
	310.000	272.000	311.000\\
	276.000	312.000	275.000\\
	275.000	312.000	313.000\\
	277.000	271.000	314.000\\
	314.000	271.000	310.000\\
	279.000	315.000	276.000\\
	276.000	315.000	312.000\\
	280.000	277.000	316.000\\
	316.000	277.000	314.000\\
	282.000	317.000	279.000\\
	279.000	317.000	318.000\\
	279.000	318.000	315.000\\
	317.000	319.000	318.000\\
	283.000	280.000	320.000\\
	320.000	280.000	316.000\\
	284.000	321.000	282.000\\
	282.000	321.000	317.000\\
	317.000	321.000	319.000\\
	319.000	321.000	322.000\\
	285.000	283.000	323.000\\
	323.000	283.000	320.000\\
	323.000	320.000	324.000\\
	323.000	324.000	325.000\\
	284.000	287.000	321.000\\
	287.000	288.000	321.000\\
	321.000	288.000	326.000\\
	321.000	326.000	322.000\\
	285.000	323.000	290.000\\
	290.000	323.000	291.000\\
	291.000	323.000	325.000\\
	291.000	325.000	327.000\\
	292.000	328.000	288.000\\
	288.000	328.000	329.000\\
	288.000	329.000	326.000\\
	328.000	330.000	329.000\\
	294.000	291.000	331.000\\
	331.000	291.000	327.000\\
	292.000	295.000	328.000\\
	295.000	296.000	328.000\\
	328.000	296.000	332.000\\
	328.000	332.000	330.000\\
	330.000	332.000	333.000\\
	297.000	294.000	334.000\\
	334.000	294.000	331.000\\
	296.000	299.000	332.000\\
	300.000	297.000	335.000\\
	335.000	297.000	334.000\\
	335.000	334.000	336.000\\
	335.000	336.000	337.000\\
	300.000	335.000	302.000\\
	302.000	335.000	303.000\\
	303.000	335.000	337.000\\
	303.000	337.000	338.000\\
	304.000	303.000	339.000\\
	339.000	303.000	338.000\\
	305.000	304.000	340.000\\
	340.000	304.000	339.000\\
	340.000	339.000	341.000\\
	340.000	341.000	342.000\\
	305.000	340.000	307.000\\
	307.000	340.000	308.000\\
	308.000	340.000	342.000\\
	308.000	342.000	343.000\\
	309.000	308.000	344.000\\
	344.000	308.000	343.000\\
	310.000	311.000	345.000\\
	345.000	311.000	346.000\\
	346.000	347.000	345.000\\
	345.000	347.000	348.000\\
	312.000	349.000	313.000\\
	313.000	349.000	350.000\\
	350.000	349.000	351.000\\
	351.000	349.000	352.000\\
	314.000	310.000	353.000\\
	353.000	310.000	345.000\\
	345.000	348.000	353.000\\
	353.000	348.000	354.000\\
	315.000	355.000	312.000\\
	312.000	355.000	349.000\\
	349.000	355.000	352.000\\
	352.000	355.000	356.000\\
	316.000	314.000	357.000\\
	357.000	314.000	353.000\\
	353.000	354.000	357.000\\
	357.000	354.000	358.000\\
	315.000	318.000	355.000\\
	318.000	319.000	355.000\\
	355.000	319.000	359.000\\
	355.000	359.000	356.000\\
	320.000	316.000	360.000\\
	360.000	316.000	357.000\\
	357.000	358.000	360.000\\
	360.000	358.000	361.000\\
	322.000	362.000	319.000\\
	319.000	362.000	363.000\\
	319.000	363.000	359.000\\
	362.000	364.000	363.000\\
	320.000	360.000	324.000\\
	324.000	360.000	325.000\\
	325.000	360.000	361.000\\
	325.000	361.000	365.000\\
	326.000	366.000	322.000\\
	322.000	366.000	362.000\\
	362.000	366.000	364.000\\
	364.000	366.000	367.000\\
	327.000	325.000	368.000\\
	368.000	325.000	365.000\\
	326.000	329.000	366.000\\
	329.000	330.000	366.000\\
	366.000	330.000	369.000\\
	366.000	369.000	367.000\\
	367.000	369.000	370.000\\
	331.000	327.000	371.000\\
	371.000	327.000	368.000\\
	330.000	333.000	369.000\\
	334.000	331.000	372.000\\
	372.000	331.000	371.000\\
	372.000	371.000	373.000\\
	372.000	373.000	374.000\\
	334.000	372.000	336.000\\
	336.000	372.000	337.000\\
	337.000	372.000	374.000\\
	337.000	374.000	375.000\\
	338.000	337.000	376.000\\
	376.000	337.000	375.000\\
	339.000	338.000	377.000\\
	377.000	338.000	376.000\\
	377.000	376.000	378.000\\
	377.000	378.000	379.000\\
	339.000	377.000	341.000\\
	341.000	377.000	342.000\\
	342.000	377.000	379.000\\
	342.000	379.000	380.000\\
	343.000	342.000	381.000\\
	381.000	342.000	380.000\\
	344.000	343.000	382.000\\
	382.000	343.000	381.000\\
	382.000	381.000	383.000\\
	382.000	383.000	384.000\\
	348.000	347.000	385.000\\
	385.000	347.000	386.000\\
	352.000	387.000	351.000\\
	351.000	387.000	388.000\\
	388.000	387.000	389.000\\
	389.000	387.000	390.000\\
	354.000	348.000	391.000\\
	391.000	348.000	385.000\\
	356.000	392.000	352.000\\
	352.000	392.000	387.000\\
	387.000	392.000	390.000\\
	390.000	392.000	393.000\\
	358.000	354.000	394.000\\
	394.000	354.000	391.000\\
	359.000	395.000	356.000\\
	356.000	395.000	392.000\\
	392.000	395.000	393.000\\
	393.000	395.000	396.000\\
	361.000	358.000	397.000\\
	397.000	358.000	394.000\\
	359.000	363.000	395.000\\
	363.000	364.000	395.000\\
	395.000	364.000	398.000\\
	395.000	398.000	396.000\\
	365.000	361.000	399.000\\
	399.000	361.000	397.000\\
	367.000	400.000	364.000\\
	364.000	400.000	401.000\\
	364.000	401.000	398.000\\
	368.000	365.000	402.000\\
	402.000	365.000	399.000\\
	402.000	399.000	403.000\\
	402.000	403.000	404.000\\
	367.000	370.000	400.000\\
	371.000	368.000	405.000\\
	405.000	368.000	402.000\\
	402.000	404.000	405.000\\
	405.000	404.000	406.000\\
	371.000	405.000	373.000\\
	373.000	405.000	374.000\\
	374.000	405.000	406.000\\
	374.000	406.000	407.000\\
	375.000	374.000	408.000\\
	408.000	374.000	407.000\\
	376.000	375.000	409.000\\
	409.000	375.000	408.000\\
	409.000	408.000	410.000\\
	409.000	410.000	411.000\\
	376.000	409.000	378.000\\
	378.000	409.000	379.000\\
	379.000	409.000	411.000\\
	379.000	411.000	412.000\\
	380.000	379.000	413.000\\
	413.000	379.000	412.000\\
	381.000	380.000	414.000\\
	414.000	380.000	413.000\\
	414.000	413.000	415.000\\
	414.000	415.000	416.000\\
	381.000	414.000	383.000\\
	383.000	414.000	384.000\\
	384.000	414.000	416.000\\
	384.000	416.000	417.000\\
	385.000	386.000	418.000\\
	418.000	386.000	419.000\\
	390.000	420.000	389.000\\
	389.000	420.000	421.000\\
	391.000	385.000	422.000\\
	422.000	385.000	418.000\\
	393.000	423.000	390.000\\
	390.000	423.000	424.000\\
	390.000	424.000	420.000\\
	394.000	391.000	425.000\\
	425.000	391.000	422.000\\
	425.000	422.000	426.000\\
	425.000	426.000	427.000\\
	396.000	428.000	393.000\\
	393.000	428.000	423.000\\
	397.000	394.000	429.000\\
	429.000	394.000	425.000\\
	425.000	427.000	429.000\\
	429.000	427.000	430.000\\
	398.000	431.000	396.000\\
	396.000	431.000	428.000\\
	399.000	397.000	432.000\\
	432.000	397.000	429.000\\
	429.000	430.000	432.000\\
	432.000	430.000	433.000\\
	398.000	401.000	431.000\\
	399.000	432.000	403.000\\
	403.000	432.000	404.000\\
	404.000	432.000	433.000\\
	404.000	433.000	434.000\\
	406.000	404.000	435.000\\
	435.000	404.000	434.000\\
	407.000	406.000	436.000\\
	436.000	406.000	435.000\\
	408.000	407.000	437.000\\
	437.000	407.000	436.000\\
	437.000	436.000	438.000\\
	437.000	438.000	439.000\\
	408.000	437.000	410.000\\
	410.000	437.000	411.000\\
	411.000	437.000	439.000\\
	411.000	439.000	440.000\\
	412.000	411.000	441.000\\
	441.000	411.000	440.000\\
	413.000	412.000	442.000\\
	442.000	412.000	441.000\\
	442.000	441.000	443.000\\
	442.000	443.000	444.000\\
	413.000	442.000	415.000\\
	415.000	442.000	416.000\\
	416.000	442.000	444.000\\
	416.000	444.000	445.000\\
	417.000	416.000	446.000\\
	446.000	416.000	445.000\\
	446.000	445.000	447.000\\
	446.000	447.000	448.000\\
	418.000	419.000	449.000\\
	449.000	419.000	450.000\\
	450.000	451.000	449.000\\
	449.000	451.000	452.000\\
	420.000	453.000	421.000\\
	421.000	453.000	454.000\\
	422.000	418.000	455.000\\
	455.000	418.000	449.000\\
	449.000	452.000	455.000\\
	455.000	452.000	456.000\\
	420.000	424.000	453.000\\
	422.000	455.000	426.000\\
	426.000	455.000	427.000\\
	427.000	455.000	456.000\\
	427.000	456.000	457.000\\
	430.000	427.000	458.000\\
	458.000	427.000	457.000\\
	433.000	430.000	459.000\\
	459.000	430.000	458.000\\
	434.000	433.000	460.000\\
	460.000	433.000	459.000\\
	435.000	434.000	461.000\\
	461.000	434.000	460.000\\
	461.000	460.000	462.000\\
	461.000	462.000	463.000\\
	436.000	435.000	464.000\\
	464.000	435.000	461.000\\
	461.000	463.000	464.000\\
	464.000	463.000	465.000\\
	436.000	464.000	438.000\\
	438.000	464.000	439.000\\
	439.000	464.000	465.000\\
	439.000	465.000	466.000\\
	440.000	439.000	467.000\\
	467.000	439.000	466.000\\
	441.000	440.000	468.000\\
	468.000	440.000	467.000\\
	468.000	467.000	469.000\\
	468.000	469.000	470.000\\
	441.000	468.000	443.000\\
	443.000	468.000	444.000\\
	444.000	468.000	470.000\\
	444.000	470.000	471.000\\
	445.000	444.000	472.000\\
	472.000	444.000	471.000\\
	472.000	471.000	473.000\\
	472.000	473.000	474.000\\
	445.000	472.000	447.000\\
	447.000	472.000	448.000\\
	448.000	472.000	474.000\\
	448.000	474.000	475.000\\
	452.000	451.000	476.000\\
	476.000	451.000	477.000\\
	456.000	452.000	478.000\\
	478.000	452.000	476.000\\
	457.000	456.000	479.000\\
	479.000	456.000	478.000\\
	458.000	457.000	480.000\\
	480.000	457.000	479.000\\
	480.000	479.000	481.000\\
	480.000	481.000	482.000\\
	459.000	458.000	483.000\\
	483.000	458.000	480.000\\
	480.000	482.000	483.000\\
	483.000	482.000	484.000\\
	460.000	459.000	485.000\\
	485.000	459.000	483.000\\
	483.000	484.000	485.000\\
	485.000	484.000	486.000\\
	460.000	485.000	462.000\\
	462.000	485.000	463.000\\
	463.000	485.000	486.000\\
	463.000	486.000	487.000\\
	465.000	463.000	488.000\\
	488.000	463.000	487.000\\
	466.000	465.000	489.000\\
	489.000	465.000	488.000\\
	489.000	488.000	490.000\\
	489.000	490.000	491.000\\
	467.000	466.000	492.000\\
	492.000	466.000	489.000\\
	489.000	491.000	492.000\\
	492.000	491.000	493.000\\
	467.000	492.000	469.000\\
	469.000	492.000	470.000\\
	470.000	492.000	493.000\\
	470.000	493.000	494.000\\
	471.000	470.000	495.000\\
	495.000	470.000	494.000\\
	495.000	494.000	496.000\\
	495.000	496.000	497.000\\
	471.000	495.000	473.000\\
	473.000	495.000	474.000\\
	474.000	495.000	497.000\\
	474.000	497.000	498.000\\
	475.000	474.000	499.000\\
	499.000	474.000	498.000\\
	476.000	477.000	500.000\\
	500.000	477.000	501.000\\
	501.000	502.000	500.000\\
	500.000	502.000	503.000\\
	478.000	476.000	504.000\\
	504.000	476.000	500.000\\
	500.000	503.000	504.000\\
	504.000	503.000	505.000\\
	479.000	478.000	506.000\\
	506.000	478.000	504.000\\
	504.000	505.000	506.000\\
	506.000	505.000	507.000\\
	479.000	506.000	481.000\\
	481.000	506.000	482.000\\
	482.000	506.000	507.000\\
	482.000	507.000	508.000\\
	484.000	482.000	509.000\\
	509.000	482.000	508.000\\
	486.000	484.000	510.000\\
	510.000	484.000	509.000\\
	487.000	486.000	511.000\\
	511.000	486.000	510.000\\
	511.000	510.000	512.000\\
	511.000	512.000	513.000\\
	488.000	487.000	514.000\\
	514.000	487.000	511.000\\
	511.000	513.000	514.000\\
	514.000	513.000	515.000\\
	488.000	514.000	490.000\\
	490.000	514.000	491.000\\
	491.000	514.000	515.000\\
	491.000	515.000	516.000\\
	493.000	491.000	517.000\\
	517.000	491.000	516.000\\
	494.000	493.000	518.000\\
	518.000	493.000	517.000\\
	518.000	517.000	519.000\\
	518.000	519.000	520.000\\
	494.000	518.000	496.000\\
	496.000	518.000	497.000\\
	497.000	518.000	520.000\\
	497.000	520.000	521.000\\
	498.000	497.000	522.000\\
	522.000	497.000	521.000\\
	522.000	521.000	523.000\\
	522.000	523.000	524.000\\
	499.000	498.000	525.000\\
	525.000	498.000	522.000\\
	522.000	524.000	525.000\\
	525.000	524.000	526.000\\
}]
table[row sep=crcr] {%
	x	y	z\\
	0.072	8.789	0.001\\
	0.055	8.857	0.001\\
	0.072	8.752	0.072\\
	0.001	8.857	0.052\\
	0.001	8.774	0.072\\
	0.001	8.914	0.001\\
	0.072	10.182	0.001\\
	0.072	10.209	0.072\\
	0.001	10.171	0.001\\
	0.001	10.181	0.072\\
	0.144	8.743	0.001\\
	0.144	8.741	0.072\\
	0.144	10.266	0.001\\
	0.144	10.286	0.057\\
	0.140	10.286	0.072\\
	0.144	10.298	0.072\\
	0.215	8.744	0.001\\
	0.215	8.747	0.072\\
	0.157	10.286	0.001\\
	0.215	10.447	0.001\\
	0.215	10.472	0.072\\
	0.286	8.765	0.001\\
	0.286	8.770	0.072\\
	0.272	10.571	0.001\\
	0.263	10.571	0.072\\
	0.286	10.624	0.001\\
	0.286	10.650	0.072\\
	0.358	8.804	0.001\\
	0.358	8.810	0.072\\
	0.358	10.828	0.001\\
	0.358	10.844	0.072\\
	0.426	8.857	0.001\\
	0.418	8.857	0.072\\
	0.429	8.860	0.001\\
	0.429	8.864	0.072\\
	0.369	10.857	0.001\\
	0.363	10.857	0.072\\
	0.429	11.058	0.001\\
	0.429	11.073	0.072\\
	0.500	8.911	0.001\\
	0.500	8.917	0.072\\
	0.459	11.143	0.001\\
	0.454	11.143	0.072\\
	0.500	11.297	0.001\\
	0.500	11.311	0.072\\
	0.572	8.977	0.001\\
	0.572	8.983	0.072\\
	0.542	11.429	0.001\\
	0.538	11.429	0.072\\
	0.572	11.546	0.001\\
	0.572	11.559	0.072\\
	0.643	9.059	0.001\\
	0.643	9.065	0.072\\
	0.621	11.714	0.001\\
	0.618	11.714	0.072\\
	0.643	11.807	0.001\\
	0.643	11.819	0.072\\
	0.705	9.143	0.001\\
	0.701	9.143	0.072\\
	0.715	9.156	0.001\\
	0.715	9.162	0.072\\
	0.696	12.000	0.001\\
	0.693	12.000	0.072\\
	0.786	9.258	0.001\\
	0.786	9.263	0.072\\
	0.857	9.373	0.001\\
	0.857	9.379	0.072\\
	0.890	9.429	0.001\\
	0.887	9.429	0.072\\
	0.929	9.502	0.001\\
	0.929	9.508	0.072\\
	1.000	9.642	0.001\\
	1.000	9.648	0.072\\
	0.072	8.741	0.144\\
	0.001	8.741	0.144\\
	0.072	10.286	0.142\\
	0.065	10.286	0.144\\
	0.001	10.262	0.144\\
	0.072	10.292	0.144\\
	0.144	8.744	0.144\\
	0.144	10.411	0.144\\
	0.215	8.759	0.144\\
	0.215	10.536	0.144\\
	0.286	8.786	0.144\\
	0.235	10.571	0.144\\
	0.286	10.717	0.144\\
	0.358	8.830	0.144\\
	0.358	10.857	0.093\\
	0.344	10.857	0.144\\
	0.358	10.904	0.144\\
	0.394	8.857	0.144\\
	0.429	8.879	0.144\\
	0.429	11.115	0.144\\
	0.500	8.933	0.144\\
	0.440	11.143	0.144\\
	0.500	11.350	0.144\\
	0.572	9.000	0.144\\
	0.527	11.429	0.144\\
	0.572	11.594	0.144\\
	0.643	9.083	0.144\\
	0.609	11.714	0.144\\
	0.643	11.851	0.144\\
	0.688	9.143	0.144\\
	0.715	9.179	0.144\\
	0.686	12.000	0.144\\
	0.786	9.281	0.144\\
	0.857	9.397	0.144\\
	0.876	9.429	0.144\\
	0.929	9.525	0.144\\
	1.000	9.665	0.144\\
	0.072	8.755	0.215\\
	0.001	8.752	0.215\\
	0.001	10.286	0.161\\
	0.072	10.460	0.215\\
	0.001	10.434	0.215\\
	0.144	8.765	0.215\\
	0.144	10.529	0.215\\
	0.215	8.785	0.215\\
	0.215	10.571	0.172\\
	0.175	10.571	0.215\\
	0.215	10.657	0.215\\
	0.286	8.817	0.215\\
	0.286	10.807	0.215\\
	0.358	8.857	0.201\\
	0.348	8.857	0.215\\
	0.358	8.862	0.215\\
	0.310	10.857	0.215\\
	0.358	10.995	0.215\\
	0.429	8.905	0.215\\
	0.429	11.143	0.174\\
	0.415	11.143	0.215\\
	0.429	11.192	0.215\\
	0.500	8.960	0.215\\
	0.500	11.410	0.215\\
	0.572	9.030	0.215\\
	0.507	11.429	0.215\\
	0.572	11.650	0.215\\
	0.643	9.115	0.215\\
	0.593	11.714	0.215\\
	0.643	11.902	0.215\\
	0.665	9.143	0.215\\
	0.715	9.208	0.215\\
	0.673	12.000	0.215\\
	0.786	9.309	0.215\\
	0.857	9.426	0.215\\
	0.859	9.429	0.215\\
	0.929	9.554	0.215\\
	1.000	9.693	0.215\\
	0.072	8.792	0.286\\
	0.001	8.787	0.286\\
	0.072	10.571	0.272\\
	0.001	10.571	0.282\\
	0.001	10.588	0.286\\
	0.072	10.617	0.286\\
	0.144	8.805	0.286\\
	0.144	10.571	0.240\\
	0.144	10.693	0.286\\
	0.215	8.829	0.286\\
	0.215	10.794	0.286\\
	0.286	8.857	0.275\\
	0.270	8.857	0.286\\
	0.286	8.863	0.286\\
	0.286	10.857	0.248\\
	0.253	10.857	0.286\\
	0.286	10.936	0.286\\
	0.358	8.897	0.286\\
	0.358	11.100	0.286\\
	0.429	8.943	0.286\\
	0.377	11.143	0.286\\
	0.429	11.295	0.286\\
	0.500	9.000	0.286\\
	0.500	11.429	0.232\\
	0.479	11.429	0.286\\
	0.500	11.503	0.286\\
	0.572	9.072	0.286\\
	0.572	11.714	0.278\\
	0.569	11.714	0.286\\
	0.572	11.725	0.286\\
	0.643	9.143	0.260\\
	0.631	9.143	0.286\\
	0.643	9.158	0.286\\
	0.643	11.970	0.286\\
	0.715	9.248	0.286\\
	0.653	12.000	0.286\\
	0.786	9.350	0.286\\
	0.857	9.429	0.219\\
	0.835	9.429	0.286\\
	0.857	9.467	0.286\\
	0.929	9.593	0.286\\
	1.000	9.714	0.255\\
	0.992	9.714	0.286\\
	1.000	9.733	0.286\\
	0.072	8.852	0.358\\
	0.001	8.846	0.358\\
	0.072	10.800	0.358\\
	0.001	10.782	0.358\\
	0.144	8.857	0.348\\
	0.098	8.857	0.358\\
	0.144	8.864	0.358\\
	0.144	10.851	0.358\\
	0.215	8.857	0.320\\
	0.215	8.882	0.358\\
	0.215	10.857	0.319\\
	0.149	10.857	0.358\\
	0.215	10.957	0.358\\
	0.286	8.909	0.358\\
	0.286	11.080	0.358\\
	0.358	8.946	0.358\\
	0.358	11.143	0.313\\
	0.320	11.143	0.358\\
	0.358	11.236	0.358\\
	0.429	8.994	0.358\\
	0.429	11.407	0.358\\
	0.500	9.054	0.358\\
	0.438	11.429	0.358\\
	0.500	11.611	0.358\\
	0.572	9.130	0.358\\
	0.538	11.714	0.358\\
	0.572	11.828	0.358\\
	0.583	9.143	0.358\\
	0.643	9.209	0.358\\
	0.643	12.000	0.313\\
	0.627	12.000	0.358\\
	0.715	9.299	0.358\\
	0.786	9.403	0.358\\
	0.803	9.429	0.358\\
	0.857	9.519	0.358\\
	0.929	9.644	0.358\\
	0.967	9.714	0.358\\
	1.000	9.784	0.358\\
	0.072	8.857	0.363\\
	0.001	8.857	0.369\\
	0.001	8.904	0.429\\
	0.072	8.908	0.429\\
	0.072	10.857	0.383\\
	0.001	10.857	0.391\\
	0.001	10.977	0.429\\
	0.072	10.995	0.429\\
	0.144	8.920	0.429\\
	0.144	10.857	0.361\\
	0.144	11.045	0.429\\
	0.215	8.940	0.429\\
	0.215	11.122	0.429\\
	0.286	8.969	0.429\\
	0.286	11.143	0.390\\
	0.230	11.143	0.429\\
	0.286	11.243	0.429\\
	0.358	9.009	0.429\\
	0.358	11.380	0.429\\
	0.429	9.060	0.429\\
	0.429	11.429	0.370\\
	0.382	11.429	0.429\\
	0.429	11.549	0.429\\
	0.500	9.124	0.429\\
	0.500	11.714	0.421\\
	0.495	11.714	0.429\\
	0.500	11.730	0.429\\
	0.572	9.143	0.372\\
	0.519	9.143	0.429\\
	0.572	9.194	0.429\\
	0.572	11.939	0.429\\
	0.643	9.272	0.429\\
	0.594	12.000	0.429\\
	0.715	9.364	0.429\\
	0.786	9.429	0.386\\
	0.760	9.429	0.429\\
	0.786	9.468	0.429\\
	0.857	9.581	0.429\\
	0.929	9.706	0.429\\
	0.933	9.714	0.429\\
	1.000	9.846	0.429\\
	0.072	8.980	0.500\\
	0.001	8.975	0.500\\
	0.072	11.143	0.488\\
	0.001	11.143	0.493\\
	0.001	11.166	0.500\\
	0.072	11.184	0.500\\
	0.144	8.993	0.500\\
	0.144	11.143	0.470\\
	0.144	11.235	0.500\\
	0.215	9.014	0.500\\
	0.215	11.143	0.439\\
	0.215	11.311	0.500\\
	0.286	9.046	0.500\\
	0.286	11.409	0.500\\
	0.358	9.089	0.500\\
	0.358	11.429	0.453\\
	0.299	11.429	0.500\\
	0.358	11.544	0.500\\
	0.429	9.143	0.500\\
	0.428	9.143	0.500\\
	0.429	9.144	0.500\\
	0.429	11.693	0.500\\
	0.500	9.143	0.446\\
	0.500	9.201	0.500\\
	0.439	11.714	0.500\\
	0.500	11.873	0.500\\
	0.572	9.268	0.500\\
	0.572	12.000	0.466\\
	0.550	12.000	0.500\\
	0.643	9.348	0.500\\
	0.715	9.429	0.489\\
	0.706	9.429	0.500\\
	0.715	9.441	0.500\\
	0.786	9.542	0.500\\
	0.857	9.654	0.500\\
	0.929	9.714	0.437\\
	0.893	9.714	0.500\\
	0.929	9.781	0.500\\
	1.000	9.918	0.500\\
	0.072	9.070	0.572\\
	0.001	9.065	0.572\\
	0.072	11.384	0.572\\
	0.001	11.371	0.572\\
	0.144	9.084	0.572\\
	0.144	11.423	0.572\\
	0.215	9.108	0.572\\
	0.215	11.429	0.549\\
	0.151	11.429	0.572\\
	0.215	11.497	0.572\\
	0.286	9.143	0.572\\
	0.286	11.429	0.510\\
	0.286	11.594	0.572\\
	0.358	9.143	0.542\\
	0.287	9.143	0.572\\
	0.358	9.181	0.572\\
	0.358	11.708	0.572\\
	0.429	9.228	0.572\\
	0.429	11.714	0.511\\
	0.361	11.714	0.572\\
	0.429	11.857	0.572\\
	0.500	9.286	0.572\\
	0.500	12.000	0.564\\
	0.494	12.000	0.572\\
	0.572	9.356	0.572\\
	0.643	9.429	0.565\\
	0.636	9.429	0.572\\
	0.643	9.438	0.572\\
	0.715	9.527	0.572\\
	0.786	9.627	0.572\\
	0.857	9.714	0.552\\
	0.843	9.714	0.572\\
	0.857	9.740	0.572\\
	0.929	9.865	0.572\\
	1.000	10.000	0.572\\
	0.072	9.143	0.621\\
	0.001	9.143	0.624\\
	0.001	9.171	0.643\\
	0.072	9.175	0.643\\
	0.072	11.429	0.590\\
	0.001	11.429	0.595\\
	0.001	11.576	0.643\\
	0.072	11.589	0.643\\
	0.144	9.143	0.612\\
	0.144	9.188	0.643\\
	0.144	11.429	0.574\\
	0.144	11.627	0.643\\
	0.215	9.143	0.596\\
	0.215	9.209	0.643\\
	0.215	11.687	0.643\\
	0.286	9.143	0.572\\
	0.286	9.238	0.643\\
	0.286	11.714	0.621\\
	0.239	11.714	0.643\\
	0.286	11.778	0.643\\
	0.358	9.277	0.643\\
	0.358	11.714	0.575\\
	0.358	11.891	0.643\\
	0.429	9.326	0.643\\
	0.429	12.000	0.635\\
	0.419	12.000	0.643\\
	0.500	9.386	0.643\\
	0.572	9.429	0.624\\
	0.544	9.429	0.643\\
	0.572	9.457	0.643\\
	0.643	9.534	0.643\\
	0.715	9.623	0.643\\
	0.786	9.714	0.637\\
	0.780	9.714	0.643\\
	0.786	9.723	0.643\\
	0.857	9.836	0.643\\
	0.929	9.958	0.643\\
	1.000	10.000	0.572\\
	0.952	10.000	0.643\\
	1.000	10.096	0.643\\
	0.072	9.282	0.715\\
	0.001	9.278	0.715\\
	0.072	11.714	0.690\\
	0.001	11.714	0.694\\
	0.001	11.779	0.715\\
	0.072	11.792	0.715\\
	0.144	9.295	0.715\\
	0.144	11.714	0.677\\
	0.144	11.828	0.715\\
	0.215	9.317	0.715\\
	0.215	11.714	0.654\\
	0.215	11.887	0.715\\
	0.286	9.348	0.715\\
	0.286	11.966	0.715\\
	0.358	9.389	0.715\\
	0.358	12.000	0.689\\
	0.312	12.000	0.715\\
	0.429	9.429	0.708\\
	0.413	9.429	0.715\\
	0.429	9.440	0.715\\
	0.500	9.429	0.671\\
	0.500	9.497	0.715\\
	0.572	9.564	0.715\\
	0.643	9.642	0.715\\
	0.715	9.714	0.704\\
	0.702	9.714	0.715\\
	0.715	9.731	0.715\\
	0.786	9.831	0.715\\
	0.857	9.941	0.715\\
	0.929	10.000	0.673\\
	0.894	10.000	0.715\\
	0.929	10.065	0.715\\
	1.000	10.200	0.715\\
	0.072	9.406	0.786\\
	0.001	9.402	0.786\\
	0.072	11.993	0.786\\
	0.001	11.982	0.786\\
	0.144	9.420	0.786\\
	0.144	12.000	0.777\\
	0.089	12.000	0.786\\
	0.215	9.429	0.779\\
	0.171	9.429	0.786\\
	0.215	9.442	0.786\\
	0.215	12.000	0.758\\
	0.286	9.429	0.762\\
	0.286	9.472	0.786\\
	0.286	12.000	0.728\\
	0.358	9.429	0.739\\
	0.358	9.510	0.786\\
	0.429	9.558	0.786\\
	0.500	9.615	0.786\\
	0.572	9.683	0.786\\
	0.643	9.714	0.759\\
	0.601	9.714	0.786\\
	0.643	9.761	0.786\\
	0.715	9.849	0.786\\
	0.786	9.946	0.786\\
	0.857	10.000	0.753\\
	0.822	10.000	0.786\\
	0.857	10.058	0.786\\
	0.929	10.180	0.786\\
	1.000	10.286	0.770\\
	0.987	10.286	0.786\\
	1.000	10.314	0.786\\
	0.072	9.429	0.799\\
	0.001	9.429	0.801\\
	0.001	9.532	0.857\\
	0.072	9.537	0.857\\
	0.072	12.000	0.789\\
	0.001	12.000	0.793\\
	0.144	9.429	0.791\\
	0.144	9.549	0.857\\
	0.215	9.570	0.857\\
	0.286	9.600	0.857\\
	0.358	9.639	0.857\\
	0.429	9.688	0.857\\
	0.500	9.714	0.841\\
	0.463	9.714	0.857\\
	0.500	9.746	0.857\\
	0.572	9.714	0.804\\
	0.572	9.813	0.857\\
	0.643	9.889	0.857\\
	0.715	9.975	0.857\\
	0.786	10.000	0.817\\
	0.734	10.000	0.857\\
	0.786	10.075	0.857\\
	0.857	10.184	0.857\\
	0.929	10.286	0.848\\
	0.919	10.286	0.857\\
	0.929	10.304	0.857\\
	1.000	10.440	0.857\\
	0.072	9.677	0.929\\
	0.001	9.672	0.929\\
	0.144	9.690	0.929\\
	0.215	9.711	0.929\\
	0.286	9.714	0.916\\
	0.222	9.714	0.929\\
	0.286	9.742	0.929\\
	0.358	9.714	0.897\\
	0.358	9.780	0.929\\
	0.429	9.714	0.872\\
	0.429	9.828	0.929\\
	0.500	9.884	0.929\\
	0.572	9.950	0.929\\
	0.643	10.000	0.916\\
	0.620	10.000	0.929\\
	0.643	10.026	0.929\\
	0.715	10.000	0.871\\
	0.715	10.114	0.929\\
	0.786	10.210	0.929\\
	0.857	10.286	0.913\\
	0.837	10.286	0.929\\
	0.857	10.319	0.929\\
	0.929	10.441	0.929\\
	1.000	10.571	0.929\\
	0.072	9.714	0.948\\
	0.001	9.714	0.950\\
	0.001	9.823	1.000\\
	0.072	9.827	1.000\\
	0.144	9.714	0.941\\
	0.144	9.839	1.000\\
	0.215	9.714	0.930\\
	0.215	9.860	1.000\\
	0.286	9.890	1.000\\
	0.358	9.928	1.000\\
	0.429	9.975	1.000\\
	0.500	10.000	0.986\\
	0.462	10.000	1.000\\
	0.500	10.032	1.000\\
	0.572	10.000	0.954\\
	0.572	10.099	1.000\\
	0.643	10.174	1.000\\
	0.715	10.258	1.000\\
	0.786	10.286	0.967\\
	0.736	10.286	1.000\\
	0.786	10.357	1.000\\
	0.857	10.465	1.000\\
	0.929	10.571	0.995\\
	0.922	10.571	1.000\\
	0.929	10.583	1.000\\
	1.000	10.571	0.929\\
	1.000	10.719	1.000\\
};

\end{axis}


\end{tikzpicture}%