%!PS-Adobe-3.0 EPSF-3.0
%%Creator: cairo 1.16.0 (https://cairographics.org)
%%CreationDate: Mon Aug 02 10:33:22 2021
%%Pages: 1
%%DocumentData: Clean7Bit
%%LanguageLevel: 2
%%BoundingBox: 0 9 681 416
%%EndComments
%%BeginProlog
50 dict begin
/q { gsave } bind def
/Q { grestore } bind def
/cm { 6 array astore concat } bind def
/w { setlinewidth } bind def
/J { setlinecap } bind def
/j { setlinejoin } bind def
/M { setmiterlimit } bind def
/d { setdash } bind def
/m { moveto } bind def
/l { lineto } bind def
/c { curveto } bind def
/h { closepath } bind def
/re { exch dup neg 3 1 roll 5 3 roll moveto 0 rlineto
      0 exch rlineto 0 rlineto closepath } bind def
/S { stroke } bind def
/f { fill } bind def
/f* { eofill } bind def
/n { newpath } bind def
/W { clip } bind def
/W* { eoclip } bind def
/BT { } bind def
/ET { } bind def
/BDC { mark 3 1 roll /BDC pdfmark } bind def
/EMC { mark /EMC pdfmark } bind def
/cairo_store_point { /cairo_point_y exch def /cairo_point_x exch def } def
/Tj { show currentpoint cairo_store_point } bind def
/TJ {
  {
    dup
    type /stringtype eq
    { show } { -0.001 mul 0 cairo_font_matrix dtransform rmoveto } ifelse
  } forall
  currentpoint cairo_store_point
} bind def
/cairo_selectfont { cairo_font_matrix aload pop pop pop 0 0 6 array astore
    cairo_font exch selectfont cairo_point_x cairo_point_y moveto } bind def
/Tf { pop /cairo_font exch def /cairo_font_matrix where
      { pop cairo_selectfont } if } bind def
/Td { matrix translate cairo_font_matrix matrix concatmatrix dup
      /cairo_font_matrix exch def dup 4 get exch 5 get cairo_store_point
      /cairo_font where { pop cairo_selectfont } if } bind def
/Tm { 2 copy 8 2 roll 6 array astore /cairo_font_matrix exch def
      cairo_store_point /cairo_font where { pop cairo_selectfont } if } bind def
/g { setgray } bind def
/rg { setrgbcolor } bind def
/d1 { setcachedevice } bind def
/cairo_data_source {
  CairoDataIndex CairoData length lt
    { CairoData CairoDataIndex get /CairoDataIndex CairoDataIndex 1 add def }
    { () } ifelse
} def
/cairo_flush_ascii85_file { cairo_ascii85_file status { cairo_ascii85_file flushfile } if } def
/cairo_image { image cairo_flush_ascii85_file } def
/cairo_imagemask { imagemask cairo_flush_ascii85_file } def
%%EndProlog
%%BeginSetup
%%EndSetup
%%Page: 1 1
%%BeginPageSetup
%%PageBoundingBox: 0 9 681 416
%%EndPageSetup
q 0 9 681 407 rectclip
1 0 0 -1 0 426 cm q
1 g
0.866643 w
0 J
0 j
[ 5.777622 5.777622] 0 d
4 M q 1 0 0 1 0 0 cm
1.445 11.105 678.871 404.434 re S Q
0 g
[ 5.777622 5.777622] 0 d
q 1 0 0 1 0 0 cm
59.219 68.879 548.875 288.883 re S Q
[] 0.0 d
q 1 0 0 1 0 0 cm
345.215 71.77 m 350.992 74.656 l S Q
q 1 0 0 1 0 0 cm
345.215 73.215 m 350.992 76.102 l S Q
0 0 0.6 rg
q 1 0 0 1 0 0 cm
319.215 233.543 m 311.992 234.988 l S Q
q 1 0 0 1 0 0 cm
319.215 236.43 m 311.992 234.988 l S Q
q 1 0 0 1 0 0 cm
311.992 234.988 m 299.484 234.988 l S Q
q 1 0 0 1 0 0 cm
301.406 233.543 m 298.516 234.988 l 301.406 236.43 l S Q
q 1 0 0 1 0 0 cm
307.66 232.098 m 310.547 237.875 l S Q
q 1 0 0 1 0 0 cm
306.215 232.098 m 309.102 237.875 l S Q
1 0.866667 0.866667 rg
275.883 169.988 m 304.77 169.988 l 290.324 198.875 l h
275.883 169.988 m f
0 g
q 1 0 0 1 0 0 cm
275.883 169.988 m 304.77 169.988 l 290.324 198.875 l h
275.883 169.988 m S Q
1 0.866667 0.866667 rg
297.547 234.988 m 297.547 238.977 294.313 242.207 290.324 242.207 c 286.336
 242.207 283.102 238.977 283.102 234.988 c 283.102 231 286.336 227.766 290.324
 227.766 c 294.313 227.766 297.547 231 297.547 234.988 c h
297.547 234.988 m f
0 g
q 1 0 0 1 0 0 cm
297.547 234.988 m 297.547 238.977 294.313 242.207 290.324 242.207 c 286.336
 242.207 283.102 238.977 283.102 234.988 c 283.102 231 286.336 227.766 290.324
 227.766 c 294.313 227.766 297.547 231 297.547 234.988 c h
297.547 234.988 m S Q
q 1 0 0 1 0 0 cm
285.219 229.879 m 295.434 240.094 l S Q
q 1 0 0 1 0 0 cm
285.219 240.094 m 295.434 229.879 l S Q
0 0 0.6 rg
q 1 0 0 1 0 0 cm
290.324 198.875 m 290.324 225.828 l S Q
q 1 0 0 1 0 0 cm
288.883 223.906 m 290.324 226.797 l 291.77 223.906 l S Q
0.866667 1 0.866667 rg
174.773 321.652 57.777 14.441 re f
0 g
q 1 0 0 1 0 0 cm
174.773 321.652 57.777 14.441 re S Q
1 1 0.733333 rg
189.219 299.984 43.332 14.445 re f
0 g
q 1 0 0 1 0 0 cm
189.219 299.984 43.332 14.445 re S Q
0.866667 1 0.866667 rg
131.441 299.984 43.332 14.445 re f
0 g
q 1 0 0 1 0 0 cm
131.441 299.984 43.332 14.445 re S Q
q 1 0 0 1 0 0 cm
189.219 307.207 m 176.711 307.207 l S Q
q 1 0 0 1 0 0 cm
178.633 305.762 m 175.742 307.207 l 178.633 308.652 l S Q
0 0 0.6 rg
q 1 0 0 1 0 0 cm
232.551 328.875 m 246.992 328.875 l 246.992 310.816 l 234.488 310.816 l
 S Q
q 1 0 0 1 0 0 cm
236.406 309.375 m 233.52 310.816 l 236.406 312.262 l S Q
0.866667 0.866667 1 rg
131.441 321.652 31.777 14.441 re f
0 g
q 1 0 0 1 0 0 cm
131.441 321.652 31.777 14.441 re S Q
q 1 0 0 1 0 0 cm
163.219 328.875 m 172.836 328.875 l S Q
q 1 0 0 1 0 0 cm
170.914 330.316 m 173.805 328.875 l 170.914 327.43 l S Q
0.866667 1 0.866667 rg
174.773 234.988 57.777 14.441 re f
0 g
q 1 0 0 1 0 0 cm
174.773 234.988 57.777 14.441 re S Q
0.866667 1 0.866667 rg
131.441 213.32 43.332 14.445 re f
0 g
q 1 0 0 1 0 0 cm
131.441 213.32 43.332 14.445 re S Q
q 1 0 0 1 0 0 cm
189.219 220.543 m 176.711 220.543 l S Q
q 1 0 0 1 0 0 cm
178.633 219.098 m 175.742 220.543 l 178.633 221.988 l S Q
0 0 0.6 rg
q 1 0 0 1 0 0 cm
232.551 242.207 m 246.992 242.207 l 246.992 224.152 l 234.488 224.152 l
 S Q
q 1 0 0 1 0 0 cm
236.406 222.711 m 233.52 224.152 l 236.406 225.598 l S Q
0.866667 0.866667 1 rg
131.441 234.988 31.777 14.441 re f
0 g
q 1 0 0 1 0 0 cm
131.441 234.988 31.777 14.441 re S Q
q 1 0 0 1 0 0 cm
163.219 242.207 m 172.836 242.207 l S Q
q 1 0 0 1 0 0 cm
170.914 243.652 m 173.805 242.207 l 170.914 240.766 l S Q
0 0 0.6 rg
[ 2.888811 2.888811] 0 d
q 1 0 0 1 0 0 cm
261.438 302.875 m 261.438 227.766 l S Q
[ 2.888811 2.888811] 0 d
q 1 0 0 1 0 0 cm
261.438 271.098 m 246.992 271.098 l S Q
[] 0.0 d
q 1 0 0 1 0 0 cm
261.438 227.766 m 261.438 216.934 l 234.488 216.934 l S Q
q 1 0 0 1 0 0 cm
236.406 215.488 m 233.52 216.934 l 236.406 218.375 l S Q
0 g
q 1 0 0 1 0 0 cm
102.555 351.984 m 102.555 325.262 l 129.504 325.262 l S Q
q 1 0 0 1 0 0 cm
127.582 326.707 m 130.473 325.262 l 127.582 323.816 l S Q
[ 2.888811 2.888811] 0 d
q 1 0 0 1 0 0 cm
102.555 325.984 m 102.555 256.652 l S Q
[] 0.0 d
q 1 0 0 1 0 0 cm
102.555 256.652 m 102.555 238.598 l 129.504 238.598 l S Q
q 1 0 0 1 0 0 cm
127.582 240.043 m 130.473 238.598 l 127.582 237.152 l S Q
0.866667 0.866667 1 rg
194.559 120.77 m 194.559 133.473 173.961 143.77 148.555 143.77 c 123.148
 143.77 102.555 133.473 102.555 120.77 c 102.555 108.066 123.148 97.766 
148.555 97.766 c 173.961 97.766 194.559 108.066 194.559 120.77 c h
194.559 120.77 m f
0 g
q 1 0 0 1 0 0 cm
194.559 120.77 m 194.559 133.473 173.961 143.77 148.555 143.77 c 123.148
 143.77 102.555 133.473 102.555 120.77 c 102.555 108.066 123.148 97.766 
148.555 97.766 c 173.961 97.766 194.559 108.066 194.559 120.77 c h
194.559 120.77 m S Q
q 1 0 0 1 0 0 cm
131.441 307.207 m 116.996 307.207 l 116.996 299.984 l S Q
[ 2.888811 2.888811] 0 d
q 1 0 0 1 0 0 cm
116.996 299.984 m 116.996 213.32 l S Q
[] 0.0 d
q 1 0 0 1 0 0 cm
116.996 213.32 m 116.996 184.434 l 166.16 184.434 l 166.16 143.957 l S Q
q 1 0 0 1 0 0 cm
167.605 145.879 m 166.16 142.988 l 164.715 145.879 l S Q
q 1 0 0 1 0 0 cm
163.219 146.879 m 168.996 149.766 l S Q
q 1 0 0 1 0 0 cm
163.219 148.324 m 168.996 151.211 l S Q
[ 2.888811 2.888811] 0 d
q 1 0 0 1 0 0 cm
122.773 271.098 m 116.996 265.32 l S Q
[] 0.0 d
q 1 0 0 1 0 0 cm
114.109 259.543 m 119.887 262.43 l S Q
q 1 0 0 1 0 0 cm
114.109 260.984 m 119.887 263.875 l S Q
[ 2.888811 2.888811] 0 d
q 1 0 0 1 0 0 cm
131.441 271.098 m 122.773 271.098 l S Q
[] 0.0 d
q 1 0 0 1 0 0 cm
131.441 220.543 m 122.773 220.543 l S Q
q 1 0 0 1 0 0 cm
122.773 220.543 m 116.996 213.32 l S Q
q 1 0 0 1 0 0 cm
114.109 207.543 m 119.887 210.434 l S Q
q 1 0 0 1 0 0 cm
114.109 208.988 m 119.887 211.875 l S Q
q 1 0 0 1 0 0 cm
130.953 142.02 m 130.953 169.988 l 88.109 169.988 l 88.109 239.32 l S Q
q 1 0 0 1 0 0 cm
88.109 239.32 m 93.887 245.676 l S Q
q 1 0 0 1 0 0 cm
93.887 245.676 m 129.504 245.813 l S Q
q 1 0 0 1 0 0 cm
127.578 247.25 m 130.473 245.816 l 127.59 244.359 l S Q
q 1 0 0 1 0 0 cm
127.973 146.879 m 133.75 149.766 l S Q
q 1 0 0 1 0 0 cm
127.973 148.324 m 133.75 151.211 l S Q
[ 2.888811 2.888811] 0 d
q 1 0 0 1 0 0 cm
88.109 314.43 m 88.109 239.32 l S Q
[ 2.888811 2.888811] 0 d
q 1 0 0 1 0 0 cm
93.887 285.539 m 88.109 279.762 l S Q
[ 2.888811 2.888811] 0 d
q 1 0 0 1 0 0 cm
131.441 285.539 m 93.887 285.539 l S Q
[] 0.0 d
q 1 0 0 1 0 0 cm
85.219 273.984 m 90.996 276.875 l S Q
q 1 0 0 1 0 0 cm
85.219 275.43 m 90.996 278.32 l S Q
q 1 0 0 1 0 0 cm
85.219 233.543 m 90.996 236.43 l S Q
q 1 0 0 1 0 0 cm
85.219 234.988 m 90.996 237.875 l S Q
q 1 0 0 1 0 0 cm
88.109 314.43 m 88.109 332.484 l 129.504 332.484 l S Q
q 1 0 0 1 0 0 cm
127.582 333.93 m 130.473 332.484 l 127.582 331.039 l S Q
[ 2.888811 2.888811] 0 d
q 1 0 0 1 0 0 cm
131.441 278.32 m 102.555 278.32 l S Q
0 0 0.6 rg
[] 0.0 d
q 1 0 0 1 0 0 cm
241.215 300.563 m 244.105 306.34 l S Q
q 1 0 0 1 0 0 cm
239.77 300.563 m 242.66 306.34 l S Q
q 1 0 0 1 0 0 cm
241.215 213.898 m 244.105 219.676 l S Q
q 1 0 0 1 0 0 cm
239.77 213.898 m 242.66 219.676 l S Q
0 g
q 1 0 0 1 0 0 cm
181.996 217.652 m 184.883 223.43 l S Q
q 1 0 0 1 0 0 cm
180.551 217.652 m 183.441 223.43 l S Q
q 1 0 0 1 0 0 cm
181.996 304.316 m 184.883 310.098 l S Q
q 1 0 0 1 0 0 cm
180.551 304.316 m 183.441 310.098 l S Q
q 1 0 0 1 0 0 cm
192.996 129.57 m 218.105 129.57 l 218.105 54.438 l S Q
q 1 0 0 1 0 0 cm
194.914 128.125 m 192.023 129.57 l 194.914 131.016 l S Q
q 1 0 0 1 0 0 cm
192.996 111.965 m 203.66 111.965 l 203.66 56.375 l S Q
q 1 0 0 1 0 0 cm
194.914 110.523 m 192.023 111.965 l 194.914 113.41 l S Q
q 1 0 0 1 0 0 cm
205.105 58.293 m 203.66 55.406 l 202.215 58.293 l S Q
1 g
205.105 68.879 m 205.105 69.68 204.457 70.324 203.66 70.324 c 202.863 70.324
 202.215 69.68 202.215 68.879 c 202.215 68.082 202.863 67.438 203.66 67.438
 c 204.457 67.438 205.105 68.082 205.105 68.879 c h
205.105 68.879 m f
0 g
q 1 0 0 1 0 0 cm
205.105 68.879 m 205.105 69.68 204.457 70.324 203.66 70.324 c 202.863 70.324
 202.215 69.68 202.215 68.879 c 202.215 68.082 202.863 67.438 203.66 67.438
 c 204.457 67.438 205.105 68.082 205.105 68.879 c h
205.105 68.879 m S Q
q 1 0 0 1 0 0 cm
205.105 68.879 m 205.105 69.68 204.457 70.324 203.66 70.324 c 202.863 70.324
 202.215 69.68 202.215 68.879 c 202.215 68.082 202.863 67.438 203.66 67.438
 c 204.457 67.438 205.105 68.082 205.105 68.879 c h
205.105 68.879 m S Q
1 g
219.551 68.879 m 219.551 69.68 218.902 70.324 218.105 70.324 c 217.309 
70.324 216.66 69.68 216.66 68.879 c 216.66 68.082 217.309 67.438 218.105
 67.438 c 218.902 67.438 219.551 68.082 219.551 68.879 c h
219.551 68.879 m f
0 g
q 1 0 0 1 0 0 cm
219.551 68.879 m 219.551 69.68 218.902 70.324 218.105 70.324 c 217.309 
70.324 216.66 69.68 216.66 68.879 c 216.66 68.082 217.309 67.438 218.105
 67.438 c 218.902 67.438 219.551 68.082 219.551 68.879 c h
219.551 68.879 m S Q
q 1 0 0 1 0 0 cm
219.551 68.879 m 219.551 69.68 218.902 70.324 218.105 70.324 c 217.309 
70.324 216.66 69.68 216.66 68.879 c 216.66 68.082 217.309 67.438 218.105
 67.438 c 218.902 67.438 219.551 68.082 219.551 68.879 c h
219.551 68.879 m S Q
0 0 0.6 rg
q 1 0 0 1 0 0 cm
275.883 302.875 m 275.883 386.648 l S Q
1 g
277.324 357.762 m 277.324 358.559 276.68 359.207 275.883 359.207 c 275.082
 359.207 274.438 358.559 274.438 357.762 c 274.438 356.965 275.082 356.316
 275.883 356.316 c 276.68 356.316 277.324 356.965 277.324 357.762 c h
277.324 357.762 m f
0 0 0.6 rg
q 1 0 0 1 0 0 cm
277.324 357.762 m 277.324 358.559 276.68 359.207 275.883 359.207 c 275.082
 359.207 274.438 358.559 274.438 357.762 c 274.438 356.965 275.082 356.316
 275.883 356.316 c 276.68 356.316 277.324 356.965 277.324 357.762 c h
277.324 357.762 m S Q
q 1 0 0 1 0 0 cm
277.324 357.762 m 277.324 358.559 276.68 359.207 275.883 359.207 c 275.082
 359.207 274.438 358.559 274.438 357.762 c 274.438 356.965 275.082 356.316
 275.883 356.316 c 276.68 356.316 277.324 356.965 277.324 357.762 c h
277.324 357.762 m S Q
q 1 0 0 1 0 0 cm
272.992 349.094 m 278.77 351.984 l S Q
q 1 0 0 1 0 0 cm
272.992 350.539 m 278.77 353.43 l S Q
1 1 0.733333 rg
189.219 213.32 43.332 14.445 re f
0 g
q 1 0 0 1 0 0 cm
189.219 213.32 43.332 14.445 re S Q
1 0.866667 0.866667 rg
15.887 83.324 28.891 14.445 re f
0 g
q 1 0 0 1 0 0 cm
15.887 83.324 28.891 14.445 re S Q
1 1 0.733333 rg
15.887 112.211 28.891 14.445 re f
0 g
q 1 0 0 1 0 0 cm
15.887 112.211 28.891 14.445 re S Q
0.866667 1 0.866667 rg
15.887 141.102 28.891 14.441 re f
0 g
q 1 0 0 1 0 0 cm
15.887 141.102 28.891 14.441 re S Q
0.866667 0.866667 1 rg
15.887 169.988 28.891 14.445 re f
0 g
q 1 0 0 1 0 0 cm
15.887 169.988 28.891 14.445 re S Q
1 0.866667 0.866667 rg
420.32 328.875 m 420.32 336.852 413.855 343.316 405.879 343.316 c 397.902
 343.316 391.434 336.852 391.434 328.875 c 391.434 320.895 397.902 314.43
 405.879 314.43 c 413.855 314.43 420.32 320.895 420.32 328.875 c h
420.32 328.875 m f
0 g
q 1 0 0 1 0 0 cm
420.32 328.875 m 420.32 336.852 413.855 343.316 405.879 343.316 c 397.902
 343.316 391.434 336.852 391.434 328.875 c 391.434 320.895 397.902 314.43
 405.879 314.43 c 413.855 314.43 420.32 320.895 420.32 328.875 c h
420.32 328.875 m S Q
q 1 0 0 1 0 0 cm
405.879 314.43 m 405.879 270.145 l S Q
q 1 0 0 1 0 0 cm
407.324 272.066 m 405.879 269.176 l 404.434 272.066 l S Q
1 0.866667 0.866667 rg
454.988 314.43 28.887 28.887 re f
0 g
q 1 0 0 1 0 0 cm
454.988 314.43 28.887 28.887 re S Q
q 1 0 0 1 0 0 cm
483.875 328.875 m 491.105 328.875 l S Q
q 1 0 0 1 0 0 cm
550.32 328.875 m 550.32 386.648 l S Q
q 1 0 0 1 0 0 cm
420.32 328.875 m 434.766 328.875 l S Q
q 1 0 0 1 0 0 cm
434.766 328.875 m 453.051 328.875 l S Q
q 1 0 0 1 0 0 cm
451.129 330.316 m 454.02 328.875 l 451.129 327.43 l S Q
1 g
405.879 372.207 43.332 28.887 re f
0 g
q 1 0 0 1 0 0 cm
405.879 372.207 43.332 28.887 re S Q
q 1 0 0 1 0 0 cm
451.148 386.648 m 492.543 386.648 l S Q
q 1 0 0 1 0 0 cm
453.066 385.203 m 450.18 386.648 l 453.066 388.094 l S Q
q 1 0 0 1 0 0 cm
405.879 386.648 m 348.102 386.648 l 348.102 328.875 l 389.496 328.875 l
 S Q
q 1 0 0 1 0 0 cm
387.574 330.316 m 390.465 328.875 l 387.574 327.43 l S Q
1 0.866667 0.866667 rg
376.988 141.102 m 405.879 141.102 l 391.434 112.211 l h
376.988 141.102 m f
0 g
q 1 0 0 1 0 0 cm
376.988 141.102 m 405.879 141.102 l 391.434 112.211 l h
376.988 141.102 m S Q
1 0.866667 0.866667 rg
391.434 141.102 m 420.32 141.102 l 405.879 112.211 l h
391.434 141.102 m f
0 g
q 1 0 0 1 0 0 cm
391.434 141.102 m 420.32 141.102 l 405.879 112.211 l h
391.434 141.102 m S Q
1 0.866667 0.866667 rg
405.879 141.102 m 434.766 141.102 l 420.32 112.211 l h
405.879 141.102 m f
0 g
q 1 0 0 1 0 0 cm
405.879 141.102 m 434.766 141.102 l 420.32 112.211 l h
405.879 141.102 m S Q
q 1 0 0 1 0 0 cm
391.434 112.211 m 391.434 80.434 l S Q
q 1 0 0 1 0 0 cm
397.211 74.656 m 391.434 80.434 l 385.656 74.656 l S Q
q 1 0 0 1 0 0 cm
405.879 112.211 m 405.879 80.434 l S Q
q 1 0 0 1 0 0 cm
411.656 74.656 m 405.879 80.434 l 400.102 74.656 l S Q
q 1 0 0 1 0 0 cm
420.32 112.211 m 420.32 80.434 l S Q
q 1 0 0 1 0 0 cm
426.098 74.656 m 420.32 80.434 l 414.543 74.656 l S Q
0 0 0.6 rg
q 1 0 0 1 0 0 cm
420.32 148.324 m 420.32 143.039 l S Q
q 1 0 0 1 0 0 cm
421.766 144.957 m 420.32 142.07 l 418.879 144.957 l S Q
q 1 0 0 1 0 0 cm
405.879 148.324 m 405.879 143.039 l S Q
q 1 0 0 1 0 0 cm
407.324 144.957 m 405.879 142.07 l 404.434 144.957 l S Q
q 1 0 0 1 0 0 cm
391.434 148.324 m 391.434 143.039 l S Q
q 1 0 0 1 0 0 cm
392.879 144.957 m 391.434 142.07 l 389.988 144.957 l S Q
q 1 0 0 1 0 0 cm
405.879 169.988 m 405.879 168.555 l S Q
q 1 0 0 1 0 0 cm
406.645 165.949 m 411.656 158.434 l S Q
q 1 0 0 1 0 0 cm
405.109 165.949 m 400.102 158.434 l S Q
q 1 0 0 1 0 0 cm
400.102 158.434 m 402.988 158.434 l S Q
1 0.866667 0.866667 rg
402.988 156.988 5.777 2.891 re f
0 0 0.6 rg
q 1 0 0 1 0 0 cm
402.988 156.988 5.777 2.891 re S Q
q 1 0 0 1 0 0 cm
408.766 158.434 m 411.656 158.434 l S Q
[ 2.888811 2.888811] 0 d
q 1 0 0 1 0 0 cm
400.102 158.434 m 391.434 148.324 l S Q
[ 2.888811 2.888811] 0 d
q 1 0 0 1 0 0 cm
411.656 158.434 m 420.32 148.324 l S Q
[ 2.888811 2.888811] 0 d
q 1 0 0 1 0 0 cm
400.102 158.434 m 405.879 148.324 l S Q
0.866667 0.866667 1 rg
478.098 97.77 57.777 28.887 re f
0 g
[] 0.0 d
q 1 0 0 1 0 0 cm
478.098 97.77 57.777 28.887 re S Q
q 1 0 0 1 0 0 cm
564.762 184.434 m 564.762 112.211 l 537.813 112.211 l S Q
q 1 0 0 1 0 0 cm
539.73 110.77 m 536.844 112.211 l 539.73 113.656 l S Q
1 g
551.762 357.762 m 551.762 358.559 551.117 359.207 550.32 359.207 c 549.52
 359.207 548.875 358.559 548.875 357.762 c 548.875 356.965 549.52 356.316
 550.32 356.316 c 551.117 356.316 551.762 356.965 551.762 357.762 c h
551.762 357.762 m f
0 g
q 1 0 0 1 0 0 cm
551.762 357.762 m 551.762 358.559 551.117 359.207 550.32 359.207 c 549.52
 359.207 548.875 358.559 548.875 357.762 c 548.875 356.965 549.52 356.316
 550.32 356.316 c 551.117 356.316 551.762 356.965 551.762 357.762 c h
551.762 357.762 m S Q
q 1 0 0 1 0 0 cm
551.762 357.762 m 551.762 358.559 551.117 359.207 550.32 359.207 c 549.52
 359.207 548.875 358.559 548.875 357.762 c 548.875 356.965 549.52 356.316
 550.32 356.316 c 551.117 356.316 551.762 356.965 551.762 357.762 c h
551.762 357.762 m S Q
1 g
349.547 357.762 m 349.547 358.559 348.898 359.207 348.102 359.207 c 347.305
 359.207 346.656 358.559 346.656 357.762 c 346.656 356.965 347.305 356.316
 348.102 356.316 c 348.898 356.316 349.547 356.965 349.547 357.762 c h
349.547 357.762 m f
0 g
q 1 0 0 1 0 0 cm
349.547 357.762 m 349.547 358.559 348.898 359.207 348.102 359.207 c 347.305
 359.207 346.656 358.559 346.656 357.762 c 346.656 356.965 347.305 356.316
 348.102 356.316 c 348.898 356.316 349.547 356.965 349.547 357.762 c h
349.547 357.762 m S Q
q 1 0 0 1 0 0 cm
349.547 357.762 m 349.547 358.559 348.898 359.207 348.102 359.207 c 347.305
 359.207 346.656 358.559 346.656 357.762 c 346.656 356.965 347.305 356.316
 348.102 356.316 c 348.898 356.316 349.547 356.965 349.547 357.762 c h
349.547 357.762 m S Q
0.866667 1 0.866667 rg
492.543 198.875 m 521.25 198.875 l 515.508 204.84 l 498.285 204.84 l h
492.543 198.875 m f
0 g
q 1 0 0 1 0 0 cm
492.543 198.875 m 521.25 198.875 l 515.508 204.84 l 498.285 204.84 l 492.543
 198.875 l S Q
q 1 0 0 1 0 0 cm
636.984 201.766 m 602.813 201.766 l S Q
q 1 0 0 1 0 0 cm
604.73 200.32 m 601.844 201.766 l 604.73 203.211 l S Q
1 g
609.539 201.766 m 609.539 202.563 608.891 203.211 608.094 203.211 c 607.297
 203.211 606.648 202.563 606.648 201.766 c 606.648 200.969 607.297 200.32
 608.094 200.32 c 608.891 200.32 609.539 200.969 609.539 201.766 c h
609.539 201.766 m f
0 g
q 1 0 0 1 0 0 cm
609.539 201.766 m 609.539 202.563 608.891 203.211 608.094 203.211 c 607.297
 203.211 606.648 202.563 606.648 201.766 c 606.648 200.969 607.297 200.32
 608.094 200.32 c 608.891 200.32 609.539 200.969 609.539 201.766 c h
609.539 201.766 m S Q
q 1 0 0 1 0 0 cm
609.539 201.766 m 609.539 202.563 608.891 203.211 608.094 203.211 c 607.297
 203.211 606.648 202.563 606.648 201.766 c 606.648 200.969 607.297 200.32
 608.094 200.32 c 608.891 200.32 609.539 200.969 609.539 201.766 c h
609.539 201.766 m S Q
0 0 0.6 rg
q 1 0 0 1 0 0 cm
636.984 178.656 m 609.973 178.656 l S Q
1 g
609.539 178.656 m 609.539 179.453 608.891 180.098 608.094 180.098 c 607.297
 180.098 606.648 179.453 606.648 178.656 c 606.648 177.855 607.297 177.211
 608.094 177.211 c 608.891 177.211 609.539 177.855 609.539 178.656 c h
609.539 178.656 m f
0 g
q 1 0 0 1 0 0 cm
609.539 178.656 m 609.539 179.453 608.891 180.098 608.094 180.098 c 607.297
 180.098 606.648 179.453 606.648 178.656 c 606.648 177.855 607.297 177.211
 608.094 177.211 c 608.891 177.211 609.539 177.855 609.539 178.656 c h
609.539 178.656 m S Q
q 1 0 0 1 0 0 cm
609.539 178.656 m 609.539 179.453 608.891 180.098 608.094 180.098 c 607.297
 180.098 606.648 179.453 606.648 178.656 c 606.648 177.855 607.297 177.211
 608.094 177.211 c 608.891 177.211 609.539 177.855 609.539 178.656 c h
609.539 178.656 m S Q
0 0 0.6 rg
q 1 0 0 1 0 0 cm
606.219 178.656 m 550.32 178.656 l S Q
0 g
q 1 0 0 1 0 0 cm
363.988 126.656 m 382.273 126.656 l S Q
q 1 0 0 1 0 0 cm
380.355 128.102 m 383.242 126.656 l 380.355 125.211 l S Q
1 0.866667 0.866667 rg
390.93 239.32 29.898 28.887 re f
0 g
q 1 0 0 1 0 0 cm
390.93 239.32 29.898 28.887 re S Q
0.866667 1 0.866667 rg
482 155.543 49.973 14.445 re f
0 g
q 1 0 0 1 0 0 cm
482 155.543 49.973 14.445 re S Q
0 0 0.6 rg
q 1 0 0 1 0 0 cm
602.316 175.766 m 605.207 181.543 l S Q
q 1 0 0 1 0 0 cm
600.871 175.766 m 603.762 181.543 l S Q
0 g
q 1 0 0 1 0 0 cm
368.324 123.766 m 371.211 129.547 l S Q
q 1 0 0 1 0 0 cm
366.879 123.766 m 369.77 129.547 l S Q
0 0 0.6 rg
q 1 0 0 1 0 0 cm
496.875 185.875 m 502.652 188.766 l S Q
q 1 0 0 1 0 0 cm
496.875 187.32 m 502.652 190.211 l S Q
0 g
q 1 0 0 1 0 0 cm
506.984 126.656 m 506.984 153.605 l S Q
q 1 0 0 1 0 0 cm
505.543 151.688 m 506.984 154.574 l 508.43 151.688 l S Q
0 0 0.6 rg
q 1 0 0 1 0 0 cm
506.984 169.988 m 506.984 177.215 l S Q
q 1 0 0 1 0 0 cm
505.574 178.656 m 499.766 178.656 l S Q
q 1 0 0 1 0 0 cm
506.07 179.754 m 499.766 187.32 l S Q
q 1 0 0 1 0 0 cm
499.766 178.656 m 499.766 187.32 l S Q
q 1 0 0 1 0 0 cm
499.766 182.988 m 499.727 196.938 l S Q
q 1 0 0 1 0 0 cm
498.285 195.016 m 499.723 197.906 l 501.176 195.023 l S Q
508.43 178.656 m 508.43 179.453 507.785 180.098 506.984 180.098 c 506.188
 180.098 505.543 179.453 505.543 178.656 c 505.543 177.855 506.188 177.211
 506.984 177.211 c 507.785 177.211 508.43 177.855 508.43 178.656 c h
508.43 178.656 m f
1.444405 w
q 1 0 0 1 0 0 cm
508.43 178.656 m 508.43 179.453 507.785 180.098 506.984 180.098 c 506.188
 180.098 505.543 179.453 505.543 178.656 c 505.543 177.855 506.188 177.211
 506.984 177.211 c 507.785 177.211 508.43 177.855 508.43 178.656 c h
508.43 178.656 m S Q
0.866643 w
q 1 0 0 1 0 0 cm
550.32 178.656 m 514.074 178.656 l 514.074 196.938 l S Q
q 1 0 0 1 0 0 cm
512.629 195.02 m 514.074 197.906 l 515.516 195.02 l S Q
1 0.866667 0.866667 rg
391.434 169.988 28.887 28.887 re f
0 g
q 1 0 0 1 0 0 cm
391.434 169.988 28.887 28.887 re S Q
0 0 0.6 rg
q 1 0 0 1 0 0 cm
398.656 239.32 m 398.656 200.816 l S Q
q 1 0 0 1 0 0 cm
400.102 202.734 m 398.656 199.848 l 397.211 202.734 l S Q
q 1 0 0 1 0 0 cm
413.102 239.32 m 413.102 200.816 l S Q
q 1 0 0 1 0 0 cm
414.543 202.734 m 413.102 199.848 l 411.656 202.734 l S Q
q 1 0 0 1 0 0 cm
506.895 204.84 m 506.895 242.207 l 449.211 242.207 l 449.211 184.434 l 
422.262 184.434 l S Q
q 1 0 0 1 0 0 cm
424.18 182.988 m 421.289 184.434 l 424.18 185.875 l S Q
q 1 0 0 1 0 0 cm
428.988 181.543 m 431.879 187.32 l S Q
q 1 0 0 1 0 0 cm
427.543 181.543 m 430.434 187.32 l S Q
407.324 167.102 m 407.324 167.898 406.676 168.543 405.879 168.543 c 405.082
 168.543 404.434 167.898 404.434 167.102 c 404.434 166.301 405.082 165.656
 405.879 165.656 c 406.676 165.656 407.324 166.301 407.324 167.102 c h
407.324 167.102 m f
1.444405 w
q 1 0 0 1 0 0 cm
407.324 167.102 m 407.324 167.898 406.676 168.543 405.879 168.543 c 405.082
 168.543 404.434 167.898 404.434 167.102 c 404.434 166.301 405.082 165.656
 405.879 165.656 c 406.676 165.656 407.324 166.301 407.324 167.102 c h
407.324 167.102 m S Q
1 0.866667 0.866667 rg
506.984 314.43 28.891 28.887 re f
0 g
0.866643 w
q 1 0 0 1 0 0 cm
506.984 314.43 28.891 28.887 re S Q
q 1 0 0 1 0 0 cm
535.875 328.875 m 550.32 328.875 l S Q
q 1 0 0 1 0 0 cm
550.32 386.648 m 492.543 386.648 l S Q
q 1 0 0 1 0 0 cm
493.953 328.875 m 505.047 328.875 l S Q
q 1 0 0 1 0 0 cm
503.129 330.316 m 506.016 328.875 l 503.129 327.43 l S Q
q 1 0 0 1 0 0 cm
492.543 327.426 m 492.543 276.875 l 538.762 276.875 l 538.762 258.59 l S Q
q 1 0 0 1 0 0 cm
540.207 260.512 m 538.762 257.621 l 537.32 260.512 l S Q
493.988 328.875 m 493.988 329.672 493.34 330.316 492.543 330.316 c 491.746
 330.316 491.098 329.672 491.098 328.875 c 491.098 328.074 491.746 327.43
 492.543 327.43 c 493.34 327.43 493.988 328.074 493.988 328.875 c h
493.988 328.875 m f
1.444405 w
q 1 0 0 1 0 0 cm
493.988 328.875 m 493.988 329.672 493.34 330.316 492.543 330.316 c 491.746
 330.316 491.098 329.672 491.098 328.875 c 491.098 328.074 491.746 327.43
 492.543 327.43 c 493.34 327.43 493.988 328.074 493.988 328.875 c h
493.988 328.875 m S Q
1 g
609.594 352 m 609.594 352.797 608.945 353.445 608.148 353.445 c 607.352
 353.445 606.703 352.797 606.703 352 c 606.703 351.203 607.352 350.555 608.148
 350.555 c 608.945 350.555 609.594 351.203 609.594 352 c h
609.594 352 m f
0 g
0.866643 w
q 1 0 0 1 0 0 cm
609.594 352 m 609.594 352.797 608.945 353.445 608.148 353.445 c 607.352
 353.445 606.703 352.797 606.703 352 c 606.703 351.203 607.352 350.555 608.148
 350.555 c 608.945 350.555 609.594 351.203 609.594 352 c h
609.594 352 m S Q
q 1 0 0 1 0 0 cm
609.594 352 m 609.594 352.797 608.945 353.445 608.148 353.445 c 607.352
 353.445 606.703 352.797 606.703 352 c 606.703 351.203 607.352 350.555 608.148
 350.555 c 608.945 350.555 609.594 351.203 609.594 352 c h
609.594 352 m S Q
q 1 0 0 1 0 0 cm
637.039 352 m 609.594 352 l S Q
q 1 0 0 1 0 0 cm
606.27 352 m 579.207 352 l 579.207 351.984 l 405.879 351.984 l 405.879 
345.254 l S Q
q 1 0 0 1 0 0 cm
407.324 347.176 m 405.879 344.285 l 404.434 347.176 l S Q
q 1 0 0 1 0 0 cm
469.434 350.543 m 469.434 345.254 l S Q
q 1 0 0 1 0 0 cm
470.875 347.176 m 469.434 344.285 l 467.988 347.176 l S Q
q 1 0 0 1 0 0 cm
521.43 350.543 m 521.43 345.254 l S Q
q 1 0 0 1 0 0 cm
522.875 347.176 m 521.43 344.285 l 519.984 347.176 l S Q
470.875 351.984 m 470.875 352.781 470.23 353.43 469.434 353.43 c 468.633
 353.43 467.988 352.781 467.988 351.984 c 467.988 351.188 468.633 350.539
 469.434 350.539 c 470.23 350.539 470.875 351.188 470.875 351.984 c h
470.875 351.984 m f
1.444405 w
q 1 0 0 1 0 0 cm
470.875 351.984 m 470.875 352.781 470.23 353.43 469.434 353.43 c 468.633
 353.43 467.988 352.781 467.988 351.984 c 467.988 351.188 468.633 350.539
 469.434 350.539 c 470.23 350.539 470.875 351.188 470.875 351.984 c h
470.875 351.984 m S Q
522.875 351.984 m 522.875 352.781 522.227 353.43 521.43 353.43 c 520.633
 353.43 519.984 352.781 519.984 351.984 c 519.984 351.188 520.633 350.539
 521.43 350.539 c 522.227 350.539 522.875 351.188 522.875 351.984 c h
522.875 351.984 m f
q 1 0 0 1 0 0 cm
522.875 351.984 m 522.875 352.781 522.227 353.43 521.43 353.43 c 520.633
 353.43 519.984 352.781 519.984 351.984 c 519.984 351.188 520.633 350.539
 521.43 350.539 c 522.227 350.539 522.875 351.188 522.875 351.984 c h
522.875 351.984 m S Q
0.866643 w
q 1 0 0 1 0 0 cm
15.887 216.211 m 44.777 216.211 l S Q
0 0 0.6 rg
q 1 0 0 1 0 0 cm
15.887 245.098 m 44.777 245.098 l S Q
0 g
560.43 351.984 m 560.43 352.781 559.781 353.43 558.984 353.43 c 558.188
 353.43 557.539 352.781 557.539 351.984 c 557.539 351.188 558.188 350.539
 558.984 350.539 c 559.781 350.539 560.43 351.188 560.43 351.984 c h
560.43 351.984 m f
1.444405 w
q 1 0 0 1 0 0 cm
560.43 351.984 m 560.43 352.781 559.781 353.43 558.984 353.43 c 558.188
 353.43 557.539 352.781 557.539 351.984 c 557.539 351.188 558.188 350.539
 558.984 350.539 c 559.781 350.539 560.43 351.188 560.43 351.984 c h
560.43 351.984 m S Q
0.866643 w
q 1 0 0 1 0 0 cm
365.434 126.656 m 348.102 126.656 l S Q
q 1 0 0 1 0 0 cm
348.102 126.656 m 348.102 39.992 l S Q
1 g
349.547 68.879 m 349.547 69.68 348.898 70.324 348.102 70.324 c 347.305 
70.324 346.656 69.68 346.656 68.879 c 346.656 68.082 347.305 67.438 348.102
 67.438 c 348.898 67.438 349.547 68.082 349.547 68.879 c h
349.547 68.879 m f
0 g
q 1 0 0 1 0 0 cm
349.547 68.879 m 349.547 69.68 348.898 70.324 348.102 70.324 c 347.305 
70.324 346.656 69.68 346.656 68.879 c 346.656 68.082 347.305 67.438 348.102
 67.438 c 348.898 67.438 349.547 68.082 349.547 68.879 c h
349.547 68.879 m S Q
q 1 0 0 1 0 0 cm
349.547 68.879 m 349.547 69.68 348.898 70.324 348.102 70.324 c 347.305 
70.324 346.656 69.68 346.656 68.879 c 346.656 68.082 347.305 67.438 348.102
 67.438 c 348.898 67.438 349.547 68.082 349.547 68.879 c h
349.547 68.879 m S Q
0.866667 1 0.866667 rg
524.32 242.207 28.887 14.445 re f
0 g
q 1 0 0 1 0 0 cm
524.32 242.207 28.887 14.445 re S Q
q 1 0 0 1 0 0 cm
521.43 276.875 m 564.809 276.875 l S Q
q 1 0 0 1 0 0 cm
564.762 276.875 m 564.762 184.434 l S Q
540.207 276.875 m 540.207 277.672 539.563 278.32 538.762 278.32 c 537.965
 278.32 537.32 277.672 537.32 276.875 c 537.32 276.078 537.965 275.43 538.762
 275.43 c 539.563 275.43 540.207 276.078 540.207 276.875 c h
540.207 276.875 m f
1.444405 w
q 1 0 0 1 0 0 cm
540.207 276.875 m 540.207 277.672 539.563 278.32 538.762 278.32 c 537.965
 278.32 537.32 277.672 537.32 276.875 c 537.32 276.078 537.965 275.43 538.762
 275.43 c 539.563 275.43 540.207 276.078 540.207 276.875 c h
540.207 276.875 m S Q
0 0 0.6 rg
0.866643 w
q 1 0 0 1 0 0 cm
538.762 242.207 m 538.762 162.766 l 533.914 162.766 l S Q
q 1 0 0 1 0 0 cm
535.832 161.32 m 532.945 162.766 l 535.832 164.211 l S Q
0.866667 1 0.866667 rg
571.984 194.543 28.887 14.445 re f
0 g
q 1 0 0 1 0 0 cm
571.984 194.543 28.887 14.445 re S Q
0 0 0.6 rg
q 1 0 0 1 0 0 cm
571.984 201.766 m 520.316 201.852 l S Q
q 1 0 0 1 0 0 cm
522.234 200.406 m 519.348 201.855 l 522.238 203.297 l S Q
q 1 0 0 1 0 0 cm
397.211 233.543 m 319.215 233.543 l S Q
q 1 0 0 1 0 0 cm
413.102 236.43 m 324.992 236.43 l S Q
q 1 0 0 1 0 0 cm
324.992 236.43 m 319.215 236.43 l S Q
400.102 233.543 m 400.102 234.34 399.453 234.988 398.656 234.988 c 397.859
 234.988 397.211 234.34 397.211 233.543 c 397.211 232.746 397.859 232.098
 398.656 232.098 c 399.453 232.098 400.102 232.746 400.102 233.543 c h
400.102 233.543 m f
1.444405 w
q 1 0 0 1 0 0 cm
400.102 233.543 m 400.102 234.34 399.453 234.988 398.656 234.988 c 397.859
 234.988 397.211 234.34 397.211 233.543 c 397.211 232.746 397.859 232.098
 398.656 232.098 c 399.453 232.098 400.102 232.746 400.102 233.543 c h
400.102 233.543 m S Q
414.543 236.43 m 414.543 237.23 413.898 237.875 413.102 237.875 c 412.301
 237.875 411.656 237.23 411.656 236.43 c 411.656 235.633 412.301 234.988
 413.102 234.988 c 413.898 234.988 414.543 235.633 414.543 236.43 c h
414.543 236.43 m f
q 1 0 0 1 0 0 cm
414.543 236.43 m 414.543 237.23 413.898 237.875 413.102 237.875 c 412.301
 237.875 411.656 237.23 411.656 236.43 c 411.656 235.633 412.301 234.988
 413.102 234.988 c 413.898 234.988 414.543 235.633 414.543 236.43 c h
414.543 236.43 m S Q
0 g
0.866643 w
q 1 0 0 1 0 0 cm
221.57 292.473 m 221.57 297.758 l S Q
q 1 0 0 1 0 0 cm
220.129 295.84 m 221.57 298.727 l 223.016 295.84 l S Q
q 1 0 0 1 0 0 cm
221.57 198.586 m 221.57 211.094 l S Q
q 1 0 0 1 0 0 cm
220.129 209.172 m 221.57 212.063 l 223.016 209.172 l S Q
q 1 0 0 1 0 0 cm
148.555 143.77 m 148.773 143.77 l 148.773 198.875 l 221.57 198.875 l S Q
[ 2.888811 2.888811] 0 d
q 1 0 0 1 0 0 cm
221.57 296.086 m 221.57 250.586 l S Q
[ 2.888811 2.888811] 0 d
q 1 0 0 1 0 0 cm
221.57 234.121 m 221.57 227.477 l S Q
1 g
131.441 25.547 115.551 28.891 re f
0 g
[] 0.0 d
q 1 0 0 1 0 0 cm
131.441 25.547 115.551 28.891 re S Q
0 0 0.6 rg
q 1 0 0 1 0 0 cm
261.438 303.453 m 234.488 303.586 l S Q
q 1 0 0 1 0 0 cm
236.398 302.133 m 233.52 303.59 l 236.414 305.02 l S Q
q 1 0 0 1 0 0 cm
287.438 243.652 m 293.215 246.543 l S Q
q 1 0 0 1 0 0 cm
287.438 245.098 m 293.215 247.988 l S Q
q 1 0 0 1 0 0 cm
290.324 249.43 m 275.883 249.43 l 275.883 302.875 l S Q
291.77 249.43 m 291.77 250.227 291.125 250.875 290.324 250.875 c 289.527
 250.875 288.883 250.227 288.883 249.43 c 288.883 248.633 289.527 247.988
 290.324 247.988 c 291.125 247.988 291.77 248.633 291.77 249.43 c h
291.77 249.43 m f
1.444405 w
q 1 0 0 1 0 0 cm
291.77 249.43 m 291.77 250.227 291.125 250.875 290.324 250.875 c 289.527
 250.875 288.883 250.227 288.883 249.43 c 288.883 248.633 289.527 247.988
 290.324 247.988 c 291.125 247.988 291.77 248.633 291.77 249.43 c h
291.77 249.43 m S Q
0.866643 w
q 1 0 0 1 0 0 cm
290.324 242.207 m 290.324 303.453 l 261.438 303.453 l S Q
0 g
q 1 0 0 1 0 0 cm
160.328 54.438 m 160.328 96.406 l S Q
q 1 0 0 1 0 0 cm
158.883 94.488 m 160.328 97.375 l 161.773 94.488 l S Q
q 1 0 0 1 0 0 cm
506.984 83.324 m 506.984 95.828 l S Q
q 1 0 0 1 0 0 cm
505.543 93.91 m 506.984 96.801 l 508.43 93.91 l S Q
q 1 0 0 1 0 0 cm
203.66 343.316 m 203.66 338.031 l S Q
q 1 0 0 1 0 0 cm
205.105 339.953 m 203.66 337.063 l 202.215 339.953 l S Q
q 1 0 0 1 0 0 cm
203.66 259.543 m 203.66 251.371 l S Q
q 1 0 0 1 0 0 cm
205.105 253.289 m 203.66 250.398 l 202.215 253.289 l S Q
[ 2.888811 2.888811] 0 d
q 1 0 0 1 0 0 cm
203.66 299.984 m 203.66 254.484 l S Q
[ 2.888811 2.888811] 0 d
q 1 0 0 1 0 0 cm
203.66 321.652 m 203.66 315.008 l S Q
[] 0.0 d
q 1 0 0 1 0 0 cm
116.027 137.035 m 116.027 155.543 l 73.664 155.543 l 73.664 343.316 l 203.66
 343.316 l S Q
q 1 0 0 1 0 0 cm
167.551 327.418 m 167.551 319.629 l 210.883 319.629 l 210.883 316.367 l
 S Q
q 1 0 0 1 0 0 cm
212.328 318.285 m 210.883 315.398 l 209.438 318.285 l S Q
168.996 328.875 m 168.996 329.672 168.348 330.316 167.551 330.316 c 166.754
 330.316 166.105 329.672 166.105 328.875 c 166.105 328.074 166.754 327.43
 167.551 327.43 c 168.348 327.43 168.996 328.074 168.996 328.875 c h
168.996 328.875 m f
1.444405 w
q 1 0 0 1 0 0 cm
168.996 328.875 m 168.996 329.672 168.348 330.316 167.551 330.316 c 166.754
 330.316 166.105 329.672 166.105 328.875 c 166.105 328.074 166.754 327.43
 167.551 327.43 c 168.348 327.43 168.996 328.074 168.996 328.875 c h
168.996 328.875 m S Q
103.996 325.406 m 103.996 326.203 103.352 326.852 102.555 326.852 c 101.754
 326.852 101.109 326.203 101.109 325.406 c 101.109 324.609 101.754 323.961
 102.555 323.961 c 103.352 323.961 103.996 324.609 103.996 325.406 c h
103.996 325.406 m f
q 1 0 0 1 0 0 cm
103.996 325.406 m 103.996 326.203 103.352 326.852 102.555 326.852 c 101.754
 326.852 101.109 326.203 101.109 325.406 c 101.109 324.609 101.754 323.961
 102.555 323.961 c 103.352 323.961 103.996 324.609 103.996 325.406 c h
103.996 325.406 m S Q
0 0 0.6 rg
262.883 303.453 m 262.883 304.25 262.234 304.895 261.438 304.895 c 260.641
 304.895 259.992 304.25 259.992 303.453 c 259.992 302.652 260.641 302.008
 261.438 302.008 c 262.234 302.008 262.883 302.652 262.883 303.453 c h
262.883 303.453 m f
q 1 0 0 1 0 0 cm
262.883 303.453 m 262.883 304.25 262.234 304.895 261.438 304.895 c 260.641
 304.895 259.992 304.25 259.992 303.453 c 259.992 302.652 260.641 302.008
 261.438 302.008 c 262.234 302.008 262.883 302.652 262.883 303.453 c h
262.883 303.453 m S Q
0 g
0.866643 w
q 1 0 0 1 0 0 cm
167.551 240.754 m 167.551 232.965 l 210.883 232.965 l 210.883 229.703 l
 S Q
q 1 0 0 1 0 0 cm
212.328 231.621 m 210.883 228.734 l 209.438 231.621 l S Q
168.996 242.207 m 168.996 243.008 168.348 243.652 167.551 243.652 c 166.754
 243.652 166.105 243.008 166.105 242.207 c 166.105 241.41 166.754 240.766
 167.551 240.766 c 168.348 240.766 168.996 241.41 168.996 242.207 c h
168.996 242.207 m f
1.444405 w
q 1 0 0 1 0 0 cm
168.996 242.207 m 168.996 243.008 168.348 243.652 167.551 243.652 c 166.754
 243.652 166.105 243.008 166.105 242.207 c 166.105 241.41 166.754 240.766
 167.551 240.766 c 168.348 240.766 168.996 241.41 168.996 242.207 c h
168.996 242.207 m S Q
0 0 0.6 rg
0.866643 w
q 1 0 0 1 0 0 cm
291.109 163.031 m 296.117 155.516 l S Q
q 1 0 0 1 0 0 cm
289.574 163.031 m 284.563 155.516 l S Q
q 1 0 0 1 0 0 cm
284.563 155.516 m 287.453 155.516 l S Q
1 0.866667 0.866667 rg
287.453 154.07 5.777 2.887 re f
0 0 0.6 rg
q 1 0 0 1 0 0 cm
287.453 154.07 5.777 2.887 re S Q
q 1 0 0 1 0 0 cm
293.23 155.516 m 296.117 155.516 l S Q
291.785 164.18 m 291.785 164.977 291.137 165.625 290.34 165.625 c 289.543
 165.625 288.895 164.977 288.895 164.18 c 288.895 163.383 289.543 162.734
 290.34 162.734 c 291.137 162.734 291.785 163.383 291.785 164.18 c h
291.785 164.18 m f
1.444405 w
q 1 0 0 1 0 0 cm
291.785 164.18 m 291.785 164.977 291.137 165.625 290.34 165.625 c 289.543
 165.625 288.895 164.977 288.895 164.18 c 288.895 163.383 289.543 162.734
 290.34 162.734 c 291.137 162.734 291.785 163.383 291.785 164.18 c h
291.785 164.18 m S Q
0.866643 w
q 1 0 0 1 0 0 cm
290.34 164.906 m 290.332 168.051 l S Q
q 1 0 0 1 0 0 cm
288.891 166.129 m 290.328 169.02 l 291.781 166.137 l S Q
0 g
q 1 0 0 1 0 0 cm
301.879 146.879 m 301.879 94.879 l S Q
q 1 0 0 1 0 0 cm
307.66 89.102 m 301.879 94.879 l 296.102 89.102 l S Q
q 1 0 0 1 0 0 cm
278.77 146.879 m 278.77 94.879 l S Q
q 1 0 0 1 0 0 cm
284.547 89.102 m 278.77 94.879 l 272.992 89.102 l S Q
0 0 0.6 rg
q 1 0 0 1 0 0 cm
301.879 146.879 m 296.117 155.516 l S Q
q 1 0 0 1 0 0 cm
278.77 146.879 m 284.563 155.516 l S Q
0 g
349.57 126.664 m 349.57 127.461 348.922 128.109 348.125 128.109 c 347.328
 128.109 346.68 127.461 346.68 126.664 c 346.68 125.867 347.328 125.219 
348.125 125.219 c 348.922 125.219 349.57 125.867 349.57 126.664 c h
349.57 126.664 m f
1.444405 w
q 1 0 0 1 0 0 cm
349.57 126.664 m 349.57 127.461 348.922 128.109 348.125 128.109 c 347.328
 128.109 346.68 127.461 346.68 126.664 c 346.68 125.867 347.328 125.219 
348.125 125.219 c 348.922 125.219 349.57 125.867 349.57 126.664 c h
349.57 126.664 m S Q
0.866643 w
q 1 0 0 1 0 0 cm
348.125 128.074 m 348.125 184.434 l 299.484 184.434 l S Q
q 1 0 0 1 0 0 cm
301.406 182.988 m 298.516 184.434 l 301.406 185.875 l S Q
q 1 0 0 1 0 0 cm
304.77 181.543 m 307.66 187.32 l S Q
q 1 0 0 1 0 0 cm
303.324 181.543 m 306.215 187.32 l S Q
1 g
609.539 320.207 m 609.539 321.004 608.891 321.652 608.094 321.652 c 607.297
 321.652 606.648 321.004 606.648 320.207 c 606.648 319.41 607.297 318.762
 608.094 318.762 c 608.891 318.762 609.539 319.41 609.539 320.207 c h
609.539 320.207 m f
0 g
q 1 0 0 1 0 0 cm
609.539 320.207 m 609.539 321.004 608.891 321.652 608.094 321.652 c 607.297
 321.652 606.648 321.004 606.648 320.207 c 606.648 319.41 607.297 318.762
 608.094 318.762 c 608.891 318.762 609.539 319.41 609.539 320.207 c h
609.539 320.207 m S Q
q 1 0 0 1 0 0 cm
609.539 320.207 m 609.539 321.004 608.891 321.652 608.094 321.652 c 607.297
 321.652 606.648 321.004 606.648 320.207 c 606.648 319.41 607.297 318.762
 608.094 318.762 c 608.891 318.762 609.539 319.41 609.539 320.207 c h
609.539 320.207 m S Q
q 1 0 0 1 0 0 cm
636.984 320.207 m 609.539 320.207 l S Q
1 g
609.539 262.43 m 609.539 263.227 608.891 263.875 608.094 263.875 c 607.297
 263.875 606.648 263.227 606.648 262.43 c 606.648 261.633 607.297 260.984
 608.094 260.984 c 608.891 260.984 609.539 261.633 609.539 262.43 c h
609.539 262.43 m f
0 g
q 1 0 0 1 0 0 cm
609.539 262.43 m 609.539 263.227 608.891 263.875 608.094 263.875 c 607.297
 263.875 606.648 263.227 606.648 262.43 c 606.648 261.633 607.297 260.984
 608.094 260.984 c 608.891 260.984 609.539 261.633 609.539 262.43 c h
609.539 262.43 m S Q
q 1 0 0 1 0 0 cm
609.539 262.43 m 609.539 263.227 608.891 263.875 608.094 263.875 c 607.297
 263.875 606.648 263.227 606.648 262.43 c 606.648 261.633 607.297 260.984
 608.094 260.984 c 608.891 260.984 609.539 261.633 609.539 262.43 c h
609.539 262.43 m S Q
q 1 0 0 1 0 0 cm
636.984 262.43 m 609.539 262.43 l S Q
1 g
609.539 291.32 m 609.539 292.117 608.891 292.762 608.094 292.762 c 607.297
 292.762 606.648 292.117 606.648 291.32 c 606.648 290.52 607.297 289.875
 608.094 289.875 c 608.891 289.875 609.539 290.52 609.539 291.32 c h
609.539 291.32 m f
0 g
q 1 0 0 1 0 0 cm
609.539 291.32 m 609.539 292.117 608.891 292.762 608.094 292.762 c 607.297
 292.762 606.648 292.117 606.648 291.32 c 606.648 290.52 607.297 289.875
 608.094 289.875 c 608.891 289.875 609.539 290.52 609.539 291.32 c h
609.539 291.32 m S Q
q 1 0 0 1 0 0 cm
609.539 291.32 m 609.539 292.117 608.891 292.762 608.094 292.762 c 607.297
 292.762 606.648 292.117 606.648 291.32 c 606.648 290.52 607.297 289.875
 608.094 289.875 c 608.891 289.875 609.539 290.52 609.539 291.32 c h
609.539 291.32 m S Q
q 1 0 0 1 0 0 cm
636.984 291.32 m 609.539 291.32 l S Q
Q Q
showpage
%%Trailer
end
%%EOF
